[
    {
        "Site ID": "BX24/0965",
        "SampleID": "184265403",
        "Collection Date": "12-Sep 2017 13:00pm",
        "Measurement": "Alkalinity, Total",
        "Value": "39.0",
        "Units": "g/m3 as CaCO3"
    },
    {
        "Site ID": "BX24/0965",
        "SampleID": "184265403",
        "Collection Date": "12-Sep 2017 13:00pm",
        "Measurement": "Ammoniacal Nitrogen",
        "Value": "<0.010",
        "Units": "mg/L"
    },
    {
        "Site ID": "BX24/0965",
        "SampleID": "184265403",
        "Collection Date": "12-Sep 2017 13:00pm",
        "Measurement": "Bicarbonate",
        "Value": "47.000",
        "Units": "mg/L  at 25\u00b0C"
    },
    {
        "Site ID": "BX24/0965",
        "SampleID": "184265403",
        "Collection Date": "12-Sep 2017 13:00pm",
        "Measurement": "Boron, Dissolved",
        "Value": "0.019",
        "Units": "mg/L"
    },
    {
        "Site ID": "BX24/0965",
        "SampleID": "184265403",
        "Collection Date": "12-Sep 2017 13:00pm",
        "Measurement": "Bromide",
        "Value": "<0.050",
        "Units": "g/m3"
    },
    {
        "Site ID": "BX24/0965",
        "SampleID": "184265403",
        "Collection Date": "12-Sep 2017 13:00pm",
        "Measurement": "Calcium, Dissolved",
        "Value": "9.900",
        "Units": "mg/L"
    },
    {
        "Site ID": "BX24/0965",
        "SampleID": "184265403",
        "Collection Date": "12-Sep 2017 13:00pm",
        "Measurement": "Chloride",
        "Value": "3.300",
        "Units": "mg/L"
    },
    {
        "Site ID": "BX24/0965",
        "SampleID": "184265403",
        "Collection Date": "12-Sep 2017 13:00pm",
        "Measurement": "Conductivity",
        "Value": "9.4",
        "Units": "mS/m"
    },
    {
        "Site ID": "BX24/0965",
        "SampleID": "184265403",
        "Collection Date": "12-Sep 2017 13:00pm",
        "Measurement": "Conductivity (Field)",
        "Value": "9.67",
        "Units": "mS/m"
    },
    {
        "Site ID": "BX24/0965",
        "SampleID": "184265403",
        "Collection Date": "12-Sep 2017 13:00pm",
        "Measurement": "Deuterium",
        "Value": "-62.210",
        "Units": "\u0089"
    },
    {
        "Site ID": "BX24/0965",
        "SampleID": "184265403",
        "Collection Date": "12-Sep 2017 13:00pm",
        "Measurement": "Difference in Ion Balance",
        "Value": "1.210",
        "Units": "%"
    },
    {
        "Site ID": "BX24/0965",
        "SampleID": "184265403",
        "Collection Date": "12-Sep 2017 13:00pm",
        "Measurement": "Dissolved Oxygen",
        "Value": "7.510",
        "Units": "mg/L"
    },
    {
        "Site ID": "BX24/0965",
        "SampleID": "184265403",
        "Collection Date": "12-Sep 2017 13:00pm",
        "Measurement": "Dissolved Oxygen Saturation",
        "Value": "73.000",
        "Units": "%"
    },
    {
        "Site ID": "BX24/0965",
        "SampleID": "184265403",
        "Collection Date": "12-Sep 2017 13:00pm",
        "Measurement": "Dissolved Reactive Phosphorus",
        "Value": "0.0126",
        "Units": "mg/L"
    },
    {
        "Site ID": "BX24/0965",
        "SampleID": "184265403",
        "Collection Date": "12-Sep 2017 13:00pm",
        "Measurement": "Hardness, Total",
        "Value": "32.000",
        "Units": "g/m3 as CaCO3"
    },
    {
        "Site ID": "BX24/0965",
        "SampleID": "184265403",
        "Collection Date": "12-Sep 2017 13:00pm",
        "Measurement": "Iron, Dissolved",
        "Value": "<0.020",
        "Units": "mg/L"
    },
    {
        "Site ID": "BX24/0965",
        "SampleID": "184265403",
        "Collection Date": "12-Sep 2017 13:00pm",
        "Measurement": "Magnesium, Dissolved",
        "Value": "1.770",
        "Units": "mg/L"
    },
    {
        "Site ID": "BX24/0965",
        "SampleID": "184265403",
        "Collection Date": "12-Sep 2017 13:00pm",
        "Measurement": "Manganese, Dissolved",
        "Value": "<0.0005",
        "Units": "mg/L"
    },
    {
        "Site ID": "BX24/0965",
        "SampleID": "184265403",
        "Collection Date": "12-Sep 2017 13:00pm",
        "Measurement": "Nitrate Nitrogen",
        "Value": "0.176",
        "Units": "mg/L"
    },
    {
        "Site ID": "BX24/0965",
        "SampleID": "184265403",
        "Collection Date": "12-Sep 2017 13:00pm",
        "Measurement": "Nitrate-N Nitrite-N",
        "Value": "0.176",
        "Units": "g/m3"
    },
    {
        "Site ID": "BX24/0965",
        "SampleID": "184265403",
        "Collection Date": "12-Sep 2017 13:00pm",
        "Measurement": "Nitrite Nitrogen",
        "Value": "<0.002",
        "Units": "mg/L"
    },
    {
        "Site ID": "BX24/0965",
        "SampleID": "184265403",
        "Collection Date": "12-Sep 2017 13:00pm",
        "Measurement": "Oxidation Reduction Potential",
        "Value": "100.000",
        "Units": "mV"
    },
    {
        "Site ID": "BX24/0965",
        "SampleID": "184265403",
        "Collection Date": "12-Sep 2017 13:00pm",
        "Measurement": "Oxygen 18",
        "Value": "-9.080",
        "Units": "\u0089"
    },
    {
        "Site ID": "BX24/0965",
        "SampleID": "184265403",
        "Collection Date": "12-Sep 2017 13:00pm",
        "Measurement": "pH",
        "Value": "7.6",
        "Units": ""
    },
    {
        "Site ID": "BX24/0965",
        "SampleID": "184265403",
        "Collection Date": "12-Sep 2017 13:00pm",
        "Measurement": "pH (Field)",
        "Value": "7.86",
        "Units": ""
    },
    {
        "Site ID": "BX24/0965",
        "SampleID": "184265403",
        "Collection Date": "12-Sep 2017 13:00pm",
        "Measurement": "Potassium, Dissolved",
        "Value": "0.740",
        "Units": "mg/L"
    },
    {
        "Site ID": "BX24/0965",
        "SampleID": "184265403",
        "Collection Date": "12-Sep 2017 13:00pm",
        "Measurement": "Silica, Reactive",
        "Value": "17.500",
        "Units": "mg/L  as SiO2"
    },
    {
        "Site ID": "BX24/0965",
        "SampleID": "184265403",
        "Collection Date": "12-Sep 2017 13:00pm",
        "Measurement": "Sodium, Dissolved",
        "Value": "7.300",
        "Units": "mg/L"
    },
    {
        "Site ID": "BX24/0965",
        "SampleID": "184265403",
        "Collection Date": "12-Sep 2017 13:00pm",
        "Measurement": "Sulphate",
        "Value": "3.400",
        "Units": "mg/L"
    },
    {
        "Site ID": "BX24/0965",
        "SampleID": "184265403",
        "Collection Date": "12-Sep 2017 13:00pm",
        "Measurement": "Sum of anions",
        "Value": "0.950",
        "Units": "meq/L"
    },
    {
        "Site ID": "BX24/0965",
        "SampleID": "184265403",
        "Collection Date": "12-Sep 2017 13:00pm",
        "Measurement": "Sum of cations",
        "Value": "0.980",
        "Units": "meq/L"
    },
    {
        "Site ID": "BX24/0965",
        "SampleID": "184265403",
        "Collection Date": "12-Sep 2017 13:00pm",
        "Measurement": "Water Temperature (Field)",
        "Value": "13.5",
        "Units": "C"
    }
]