[
    {
        "Site ID": "H39/0021",
        "SampleID": "2501290",
        "Collection Date": "02-Mar 2005 11:05am",
        "Measurement": "Alkalinity to pH 4.5 as HCO3",
        "Value": "37.000",
        "Units": "mg/L  as HCO3"
    },
    {
        "Site ID": "H39/0021",
        "SampleID": "2501290",
        "Collection Date": "02-Mar 2005 11:05am",
        "Measurement": "Ammoniacal Nitrogen",
        "Value": "0.024",
        "Units": "mg/L"
    },
    {
        "Site ID": "H39/0021",
        "SampleID": "2501290",
        "Collection Date": "02-Mar 2005 11:05am",
        "Measurement": "Calcium, Dissolved",
        "Value": "6.700",
        "Units": "mg/L"
    },
    {
        "Site ID": "H39/0021",
        "SampleID": "2501290",
        "Collection Date": "02-Mar 2005 11:05am",
        "Measurement": "Chloride",
        "Value": "1.500",
        "Units": "mg/L"
    },
    {
        "Site ID": "H39/0021",
        "SampleID": "2501290",
        "Collection Date": "02-Mar 2005 11:05am",
        "Measurement": "Conductivity",
        "Value": "7.0",
        "Units": "mS/m"
    },
    {
        "Site ID": "H39/0021",
        "SampleID": "2501290",
        "Collection Date": "02-Mar 2005 11:05am",
        "Measurement": "Conductivity (Field)",
        "Value": "7.50",
        "Units": "mS/m"
    },
    {
        "Site ID": "H39/0021",
        "SampleID": "2501290",
        "Collection Date": "02-Mar 2005 11:05am",
        "Measurement": "Difference in Ion Balance",
        "Value": "-3.100",
        "Units": "%"
    },
    {
        "Site ID": "H39/0021",
        "SampleID": "2501290",
        "Collection Date": "02-Mar 2005 11:05am",
        "Measurement": "Dissolved Oxygen",
        "Value": "7.120",
        "Units": "mg/L"
    },
    {
        "Site ID": "H39/0021",
        "SampleID": "2501290",
        "Collection Date": "02-Mar 2005 11:05am",
        "Measurement": "Dissolved Oxygen Saturation",
        "Value": "70.900",
        "Units": "%"
    },
    {
        "Site ID": "H39/0021",
        "SampleID": "2501290",
        "Collection Date": "02-Mar 2005 11:05am",
        "Measurement": "Hardness, Total",
        "Value": "25.000",
        "Units": "g/m3 as CaCO3"
    },
    {
        "Site ID": "H39/0021",
        "SampleID": "2501290",
        "Collection Date": "02-Mar 2005 11:05am",
        "Measurement": "Iron, Dissolved",
        "Value": "<0.030",
        "Units": "mg/L"
    },
    {
        "Site ID": "H39/0021",
        "SampleID": "2501290",
        "Collection Date": "02-Mar 2005 11:05am",
        "Measurement": "Magnesium, Dissolved",
        "Value": "2.100",
        "Units": "mg/L"
    },
    {
        "Site ID": "H39/0021",
        "SampleID": "2501290",
        "Collection Date": "02-Mar 2005 11:05am",
        "Measurement": "Manganese, Dissolved",
        "Value": "<0.0100",
        "Units": "mg/L"
    },
    {
        "Site ID": "H39/0021",
        "SampleID": "2501290",
        "Collection Date": "02-Mar 2005 11:05am",
        "Measurement": "Nitrate Nitrogen",
        "Value": "0.400",
        "Units": "mg/L"
    },
    {
        "Site ID": "H39/0021",
        "SampleID": "2501290",
        "Collection Date": "02-Mar 2005 11:05am",
        "Measurement": "pH",
        "Value": "6.5",
        "Units": ""
    },
    {
        "Site ID": "H39/0021",
        "SampleID": "2501290",
        "Collection Date": "02-Mar 2005 11:05am",
        "Measurement": "pH (Field)",
        "Value": "5.90",
        "Units": ""
    },
    {
        "Site ID": "H39/0021",
        "SampleID": "2501290",
        "Collection Date": "02-Mar 2005 11:05am",
        "Measurement": "Potassium, Dissolved",
        "Value": "0.700",
        "Units": "mg/L"
    },
    {
        "Site ID": "H39/0021",
        "SampleID": "2501290",
        "Collection Date": "02-Mar 2005 11:05am",
        "Measurement": "Silica, Reactive",
        "Value": "14.000",
        "Units": "mg/L  as SiO2"
    },
    {
        "Site ID": "H39/0021",
        "SampleID": "2501290",
        "Collection Date": "02-Mar 2005 11:05am",
        "Measurement": "Sodium, Dissolved",
        "Value": "4.300",
        "Units": "mg/L"
    },
    {
        "Site ID": "H39/0021",
        "SampleID": "2501290",
        "Collection Date": "02-Mar 2005 11:05am",
        "Measurement": "Sulphate",
        "Value": "3.900",
        "Units": "mg/L"
    },
    {
        "Site ID": "H39/0021",
        "SampleID": "2501290",
        "Collection Date": "02-Mar 2005 11:05am",
        "Measurement": "Sum of anions",
        "Value": "0.759",
        "Units": "meq/L"
    },
    {
        "Site ID": "H39/0021",
        "SampleID": "2501290",
        "Collection Date": "02-Mar 2005 11:05am",
        "Measurement": "Sum of cations",
        "Value": "0.713",
        "Units": "meq/L"
    },
    {
        "Site ID": "H39/0021",
        "SampleID": "2501290",
        "Collection Date": "02-Mar 2005 11:05am",
        "Measurement": "Water Temperature (Field)",
        "Value": "13.3",
        "Units": "C"
    }
]