[
    {
        "Site ID": "J38/0192",
        "SampleID": "20205891",
        "Collection Date": "11-Nov 2020 12:38pm",
        "Measurement": "Alkalinity, Total",
        "Value": "28.0",
        "Units": "g/m3 as CaCO3"
    },
    {
        "Site ID": "J38/0192",
        "SampleID": "20205891",
        "Collection Date": "11-Nov 2020 12:38pm",
        "Measurement": "Aluminium, Dissolved",
        "Value": "0.006",
        "Units": "mg/L"
    },
    {
        "Site ID": "J38/0192",
        "SampleID": "20205891",
        "Collection Date": "11-Nov 2020 12:38pm",
        "Measurement": "Ammoniacal Nitrogen",
        "Value": "<0.010",
        "Units": "mg/L"
    },
    {
        "Site ID": "J38/0192",
        "SampleID": "20205891",
        "Collection Date": "11-Nov 2020 12:38pm",
        "Measurement": "Arsenic, Dissolved",
        "Value": "<0.0010",
        "Units": "mg/L"
    },
    {
        "Site ID": "J38/0192",
        "SampleID": "20205891",
        "Collection Date": "11-Nov 2020 12:38pm",
        "Measurement": "Bicarbonate",
        "Value": "34.000",
        "Units": "mg/L  at 25\u00b0C"
    },
    {
        "Site ID": "J38/0192",
        "SampleID": "20205891",
        "Collection Date": "11-Nov 2020 12:38pm",
        "Measurement": "Boron, Dissolved",
        "Value": "0.015",
        "Units": "mg/L"
    },
    {
        "Site ID": "J38/0192",
        "SampleID": "20205891",
        "Collection Date": "11-Nov 2020 12:38pm",
        "Measurement": "Bromide",
        "Value": "<0.050",
        "Units": "g/m3"
    },
    {
        "Site ID": "J38/0192",
        "SampleID": "20205891",
        "Collection Date": "11-Nov 2020 12:38pm",
        "Measurement": "Cadmium, Dissolved",
        "Value": "<0.000050",
        "Units": "mg/L"
    },
    {
        "Site ID": "J38/0192",
        "SampleID": "20205891",
        "Collection Date": "11-Nov 2020 12:38pm",
        "Measurement": "Calcium, Dissolved",
        "Value": "8.000",
        "Units": "mg/L"
    },
    {
        "Site ID": "J38/0192",
        "SampleID": "20205891",
        "Collection Date": "11-Nov 2020 12:38pm",
        "Measurement": "Chloride",
        "Value": "2.800",
        "Units": "mg/L"
    },
    {
        "Site ID": "J38/0192",
        "SampleID": "20205891",
        "Collection Date": "11-Nov 2020 12:38pm",
        "Measurement": "Chromium, Dissolved",
        "Value": "<0.0005",
        "Units": "mg/L"
    },
    {
        "Site ID": "J38/0192",
        "SampleID": "20205891",
        "Collection Date": "11-Nov 2020 12:38pm",
        "Measurement": "Conductivity",
        "Value": "7.8",
        "Units": "mS/m"
    },
    {
        "Site ID": "J38/0192",
        "SampleID": "20205891",
        "Collection Date": "11-Nov 2020 12:38pm",
        "Measurement": "Conductivity (Field)",
        "Value": "7.78",
        "Units": "mS/m"
    },
    {
        "Site ID": "J38/0192",
        "SampleID": "20205891",
        "Collection Date": "11-Nov 2020 12:38pm",
        "Measurement": "Copper, Dissolved",
        "Value": "0.0018",
        "Units": "mg/L"
    },
    {
        "Site ID": "J38/0192",
        "SampleID": "20205891",
        "Collection Date": "11-Nov 2020 12:38pm",
        "Measurement": "Difference in Ion Balance",
        "Value": "0.320",
        "Units": "%"
    },
    {
        "Site ID": "J38/0192",
        "SampleID": "20205891",
        "Collection Date": "11-Nov 2020 12:38pm",
        "Measurement": "Dissolved Organic Carbon",
        "Value": "<0.500",
        "Units": "mg/L"
    },
    {
        "Site ID": "J38/0192",
        "SampleID": "20205891",
        "Collection Date": "11-Nov 2020 12:38pm",
        "Measurement": "Dissolved Oxygen",
        "Value": "5.690",
        "Units": "mg/L"
    },
    {
        "Site ID": "J38/0192",
        "SampleID": "20205891",
        "Collection Date": "11-Nov 2020 12:38pm",
        "Measurement": "Dissolved Oxygen Saturation",
        "Value": "53.200",
        "Units": "%"
    },
    {
        "Site ID": "J38/0192",
        "SampleID": "20205891",
        "Collection Date": "11-Nov 2020 12:38pm",
        "Measurement": "Dissolved Reactive Phosphorus",
        "Value": "0.0048",
        "Units": "mg/L"
    },
    {
        "Site ID": "J38/0192",
        "SampleID": "20205891",
        "Collection Date": "11-Nov 2020 12:38pm",
        "Measurement": "E. coli",
        "Value": "26",
        "Units": "MPN/100mL"
    },
    {
        "Site ID": "J38/0192",
        "SampleID": "20205891",
        "Collection Date": "11-Nov 2020 12:38pm",
        "Measurement": "Fluoride",
        "Value": "0.060",
        "Units": "g/m3"
    },
    {
        "Site ID": "J38/0192",
        "SampleID": "20205891",
        "Collection Date": "11-Nov 2020 12:38pm",
        "Measurement": "Hardness, Total",
        "Value": "27.000",
        "Units": "g/m3 as CaCO3"
    },
    {
        "Site ID": "J38/0192",
        "SampleID": "20205891",
        "Collection Date": "11-Nov 2020 12:38pm",
        "Measurement": "Iron, Dissolved",
        "Value": "<0.020",
        "Units": "mg/L"
    },
    {
        "Site ID": "J38/0192",
        "SampleID": "20205891",
        "Collection Date": "11-Nov 2020 12:38pm",
        "Measurement": "Magnesium, Dissolved",
        "Value": "1.610",
        "Units": "mg/L"
    },
    {
        "Site ID": "J38/0192",
        "SampleID": "20205891",
        "Collection Date": "11-Nov 2020 12:38pm",
        "Measurement": "Manganese, Dissolved",
        "Value": "0.0006",
        "Units": "mg/L"
    },
    {
        "Site ID": "J38/0192",
        "SampleID": "20205891",
        "Collection Date": "11-Nov 2020 12:38pm",
        "Measurement": "Nitrate Nitrogen",
        "Value": "0.470",
        "Units": "mg/L"
    },
    {
        "Site ID": "J38/0192",
        "SampleID": "20205891",
        "Collection Date": "11-Nov 2020 12:38pm",
        "Measurement": "Nitrate-N Nitrite-N",
        "Value": "0.470",
        "Units": "g/m3"
    },
    {
        "Site ID": "J38/0192",
        "SampleID": "20205891",
        "Collection Date": "11-Nov 2020 12:38pm",
        "Measurement": "Nitrite Nitrogen",
        "Value": "<0.002",
        "Units": "mg/L"
    },
    {
        "Site ID": "J38/0192",
        "SampleID": "20205891",
        "Collection Date": "11-Nov 2020 12:38pm",
        "Measurement": "pH",
        "Value": "7.2",
        "Units": ""
    },
    {
        "Site ID": "J38/0192",
        "SampleID": "20205891",
        "Collection Date": "11-Nov 2020 12:38pm",
        "Measurement": "pH (Field)",
        "Value": "5.68",
        "Units": ""
    },
    {
        "Site ID": "J38/0192",
        "SampleID": "20205891",
        "Collection Date": "11-Nov 2020 12:38pm",
        "Measurement": "Potassium, Dissolved",
        "Value": "1.170",
        "Units": "mg/L"
    },
    {
        "Site ID": "J38/0192",
        "SampleID": "20205891",
        "Collection Date": "11-Nov 2020 12:38pm",
        "Measurement": "Silica, Reactive",
        "Value": "7.700",
        "Units": "mg/L  as SiO2"
    },
    {
        "Site ID": "J38/0192",
        "SampleID": "20205891",
        "Collection Date": "11-Nov 2020 12:38pm",
        "Measurement": "Sodium, Dissolved",
        "Value": "4.100",
        "Units": "mg/L"
    },
    {
        "Site ID": "J38/0192",
        "SampleID": "20205891",
        "Collection Date": "11-Nov 2020 12:38pm",
        "Measurement": "Sulphate",
        "Value": "3.400",
        "Units": "mg/L"
    },
    {
        "Site ID": "J38/0192",
        "SampleID": "20205891",
        "Collection Date": "11-Nov 2020 12:38pm",
        "Measurement": "Sum of anions",
        "Value": "0.750",
        "Units": "meq/L"
    },
    {
        "Site ID": "J38/0192",
        "SampleID": "20205891",
        "Collection Date": "11-Nov 2020 12:38pm",
        "Measurement": "Sum of cations",
        "Value": "0.740",
        "Units": "meq/L"
    },
    {
        "Site ID": "J38/0192",
        "SampleID": "20205891",
        "Collection Date": "11-Nov 2020 12:38pm",
        "Measurement": "Total Coliforms",
        "Value": "63.0",
        "Units": "number/100mL"
    },
    {
        "Site ID": "J38/0192",
        "SampleID": "20205891",
        "Collection Date": "11-Nov 2020 12:38pm",
        "Measurement": "Total Dissolved Nitrogen",
        "Value": "0.600",
        "Units": "mg/L"
    },
    {
        "Site ID": "J38/0192",
        "SampleID": "20205891",
        "Collection Date": "11-Nov 2020 12:38pm",
        "Measurement": "Total Dissolved Phosphorus",
        "Value": "0.008",
        "Units": "mg/L"
    },
    {
        "Site ID": "J38/0192",
        "SampleID": "20205891",
        "Collection Date": "11-Nov 2020 12:38pm",
        "Measurement": "Water Temperature (Field)",
        "Value": "12.1",
        "Units": "C"
    },
    {
        "Site ID": "J38/0192",
        "SampleID": "20205891",
        "Collection Date": "11-Nov 2020 12:38pm",
        "Measurement": "Zinc, Dissolved",
        "Value": "0.004",
        "Units": "mg/L"
    },
    {
        "Site ID": "J38/0192",
        "SampleID": "20204520",
        "Collection Date": "26-Aug 2020 12:35pm",
        "Measurement": "Alkalinity, Total",
        "Value": "26.0",
        "Units": "g/m3 as CaCO3"
    },
    {
        "Site ID": "J38/0192",
        "SampleID": "20204520",
        "Collection Date": "26-Aug 2020 12:35pm",
        "Measurement": "Aluminium, Dissolved",
        "Value": "0.005",
        "Units": "mg/L"
    },
    {
        "Site ID": "J38/0192",
        "SampleID": "20204520",
        "Collection Date": "26-Aug 2020 12:35pm",
        "Measurement": "Ammoniacal Nitrogen",
        "Value": "<0.010",
        "Units": "mg/L"
    },
    {
        "Site ID": "J38/0192",
        "SampleID": "20204520",
        "Collection Date": "26-Aug 2020 12:35pm",
        "Measurement": "Arsenic, Dissolved",
        "Value": "<0.0010",
        "Units": "mg/L"
    },
    {
        "Site ID": "J38/0192",
        "SampleID": "20204520",
        "Collection Date": "26-Aug 2020 12:35pm",
        "Measurement": "Bicarbonate",
        "Value": "32.000",
        "Units": "mg/L  at 25\u00b0C"
    },
    {
        "Site ID": "J38/0192",
        "SampleID": "20204520",
        "Collection Date": "26-Aug 2020 12:35pm",
        "Measurement": "Boron, Dissolved",
        "Value": "0.016",
        "Units": "mg/L"
    },
    {
        "Site ID": "J38/0192",
        "SampleID": "20204520",
        "Collection Date": "26-Aug 2020 12:35pm",
        "Measurement": "Bromide",
        "Value": "<0.050",
        "Units": "g/m3"
    },
    {
        "Site ID": "J38/0192",
        "SampleID": "20204520",
        "Collection Date": "26-Aug 2020 12:35pm",
        "Measurement": "Cadmium, Dissolved",
        "Value": "<0.000050",
        "Units": "mg/L"
    },
    {
        "Site ID": "J38/0192",
        "SampleID": "20204520",
        "Collection Date": "26-Aug 2020 12:35pm",
        "Measurement": "Calcium, Dissolved",
        "Value": "8.100",
        "Units": "mg/L"
    },
    {
        "Site ID": "J38/0192",
        "SampleID": "20204520",
        "Collection Date": "26-Aug 2020 12:35pm",
        "Measurement": "Chloride",
        "Value": "2.600",
        "Units": "mg/L"
    },
    {
        "Site ID": "J38/0192",
        "SampleID": "20204520",
        "Collection Date": "26-Aug 2020 12:35pm",
        "Measurement": "Chromium, Dissolved",
        "Value": "<0.0005",
        "Units": "mg/L"
    },
    {
        "Site ID": "J38/0192",
        "SampleID": "20204520",
        "Collection Date": "26-Aug 2020 12:35pm",
        "Measurement": "Conductivity",
        "Value": "7.7",
        "Units": "mS/m"
    },
    {
        "Site ID": "J38/0192",
        "SampleID": "20204520",
        "Collection Date": "26-Aug 2020 12:35pm",
        "Measurement": "Conductivity (Field)",
        "Value": "7.59",
        "Units": "mS/m"
    },
    {
        "Site ID": "J38/0192",
        "SampleID": "20204520",
        "Collection Date": "26-Aug 2020 12:35pm",
        "Measurement": "Copper, Dissolved",
        "Value": "0.0019",
        "Units": "mg/L"
    },
    {
        "Site ID": "J38/0192",
        "SampleID": "20204520",
        "Collection Date": "26-Aug 2020 12:35pm",
        "Measurement": "Difference in Ion Balance",
        "Value": "0.960",
        "Units": "%"
    },
    {
        "Site ID": "J38/0192",
        "SampleID": "20204520",
        "Collection Date": "26-Aug 2020 12:35pm",
        "Measurement": "Dissolved Organic Carbon",
        "Value": "<0.500",
        "Units": "mg/L"
    },
    {
        "Site ID": "J38/0192",
        "SampleID": "20204520",
        "Collection Date": "26-Aug 2020 12:35pm",
        "Measurement": "Dissolved Oxygen",
        "Value": "8.340",
        "Units": "mg/L"
    },
    {
        "Site ID": "J38/0192",
        "SampleID": "20204520",
        "Collection Date": "26-Aug 2020 12:35pm",
        "Measurement": "Dissolved Oxygen % Saturation",
        "Value": "73.4",
        "Units": "%"
    },
    {
        "Site ID": "J38/0192",
        "SampleID": "20204520",
        "Collection Date": "26-Aug 2020 12:35pm",
        "Measurement": "Dissolved Oxygen Saturation",
        "Value": "73.400",
        "Units": "%"
    },
    {
        "Site ID": "J38/0192",
        "SampleID": "20204520",
        "Collection Date": "26-Aug 2020 12:35pm",
        "Measurement": "Dissolved Reactive Phosphorus",
        "Value": "0.0045",
        "Units": "mg/L"
    },
    {
        "Site ID": "J38/0192",
        "SampleID": "20204520",
        "Collection Date": "26-Aug 2020 12:35pm",
        "Measurement": "E. coli",
        "Value": "<1",
        "Units": "MPN/100mL"
    },
    {
        "Site ID": "J38/0192",
        "SampleID": "20204520",
        "Collection Date": "26-Aug 2020 12:35pm",
        "Measurement": "Fluoride",
        "Value": "0.070",
        "Units": "g/m3"
    },
    {
        "Site ID": "J38/0192",
        "SampleID": "20204520",
        "Collection Date": "26-Aug 2020 12:35pm",
        "Measurement": "Hardness, Total",
        "Value": "27.000",
        "Units": "g/m3 as CaCO3"
    },
    {
        "Site ID": "J38/0192",
        "SampleID": "20204520",
        "Collection Date": "26-Aug 2020 12:35pm",
        "Measurement": "Iron, Dissolved",
        "Value": "<0.020",
        "Units": "mg/L"
    },
    {
        "Site ID": "J38/0192",
        "SampleID": "20204520",
        "Collection Date": "26-Aug 2020 12:35pm",
        "Measurement": "Magnesium, Dissolved",
        "Value": "1.600",
        "Units": "mg/L"
    },
    {
        "Site ID": "J38/0192",
        "SampleID": "20204520",
        "Collection Date": "26-Aug 2020 12:35pm",
        "Measurement": "Manganese, Dissolved",
        "Value": "<0.0005",
        "Units": "mg/L"
    },
    {
        "Site ID": "J38/0192",
        "SampleID": "20204520",
        "Collection Date": "26-Aug 2020 12:35pm",
        "Measurement": "Nitrate Nitrogen",
        "Value": "0.740",
        "Units": "mg/L"
    },
    {
        "Site ID": "J38/0192",
        "SampleID": "20204520",
        "Collection Date": "26-Aug 2020 12:35pm",
        "Measurement": "Nitrate-N Nitrite-N",
        "Value": "0.740",
        "Units": "g/m3"
    },
    {
        "Site ID": "J38/0192",
        "SampleID": "20204520",
        "Collection Date": "26-Aug 2020 12:35pm",
        "Measurement": "Nitrite Nitrogen",
        "Value": "<0.002",
        "Units": "mg/L"
    },
    {
        "Site ID": "J38/0192",
        "SampleID": "20204520",
        "Collection Date": "26-Aug 2020 12:35pm",
        "Measurement": "pH",
        "Value": "7.1",
        "Units": ""
    },
    {
        "Site ID": "J38/0192",
        "SampleID": "20204520",
        "Collection Date": "26-Aug 2020 12:35pm",
        "Measurement": "pH (Field)",
        "Value": "5.77",
        "Units": ""
    },
    {
        "Site ID": "J38/0192",
        "SampleID": "20204520",
        "Collection Date": "26-Aug 2020 12:35pm",
        "Measurement": "Potassium, Dissolved",
        "Value": "1.130",
        "Units": "mg/L"
    },
    {
        "Site ID": "J38/0192",
        "SampleID": "20204520",
        "Collection Date": "26-Aug 2020 12:35pm",
        "Measurement": "Silica, Reactive",
        "Value": "7.100",
        "Units": "mg/L  as SiO2"
    },
    {
        "Site ID": "J38/0192",
        "SampleID": "20204520",
        "Collection Date": "26-Aug 2020 12:35pm",
        "Measurement": "Sodium, Dissolved",
        "Value": "4.100",
        "Units": "mg/L"
    },
    {
        "Site ID": "J38/0192",
        "SampleID": "20204520",
        "Collection Date": "26-Aug 2020 12:35pm",
        "Measurement": "Sulphate",
        "Value": "5.000",
        "Units": "mg/L"
    },
    {
        "Site ID": "J38/0192",
        "SampleID": "20204520",
        "Collection Date": "26-Aug 2020 12:35pm",
        "Measurement": "Sum of anions",
        "Value": "0.760",
        "Units": "meq/L"
    },
    {
        "Site ID": "J38/0192",
        "SampleID": "20204520",
        "Collection Date": "26-Aug 2020 12:35pm",
        "Measurement": "Sum of cations",
        "Value": "0.740",
        "Units": "meq/L"
    },
    {
        "Site ID": "J38/0192",
        "SampleID": "20204520",
        "Collection Date": "26-Aug 2020 12:35pm",
        "Measurement": "Total Coliforms",
        "Value": "3.00",
        "Units": "number/100mL"
    },
    {
        "Site ID": "J38/0192",
        "SampleID": "20204520",
        "Collection Date": "26-Aug 2020 12:35pm",
        "Measurement": "Total Dissolved Nitrogen",
        "Value": "0.820",
        "Units": "mg/L"
    },
    {
        "Site ID": "J38/0192",
        "SampleID": "20204520",
        "Collection Date": "26-Aug 2020 12:35pm",
        "Measurement": "Total Dissolved Phosphorus",
        "Value": "<0.004",
        "Units": "mg/L"
    },
    {
        "Site ID": "J38/0192",
        "SampleID": "20204520",
        "Collection Date": "26-Aug 2020 12:35pm",
        "Measurement": "Water Temperature (Field)",
        "Value": "9.10",
        "Units": "C"
    },
    {
        "Site ID": "J38/0192",
        "SampleID": "20204520",
        "Collection Date": "26-Aug 2020 12:35pm",
        "Measurement": "Zinc, Dissolved",
        "Value": "0.004",
        "Units": "mg/L"
    }
]