[
    {
        "Site ID": "L37/0443",
        "SampleID": "SCY951305",
        "Collection Date": "18-Apr 1995 12:20pm",
        "Measurement": "4,4'-DDD",
        "Value": "<0.0100000",
        "Units": "mg/L"
    },
    {
        "Site ID": "L37/0443",
        "SampleID": "SCY951305",
        "Collection Date": "18-Apr 1995 12:20pm",
        "Measurement": "4,4'-DDE",
        "Value": "<0.0100000",
        "Units": "mg/L"
    },
    {
        "Site ID": "L37/0443",
        "SampleID": "SCY951305",
        "Collection Date": "18-Apr 1995 12:20pm",
        "Measurement": "4,4'-DDT",
        "Value": "<0.0100000",
        "Units": "mg/L"
    },
    {
        "Site ID": "L37/0443",
        "SampleID": "SCY951305",
        "Collection Date": "18-Apr 1995 12:20pm",
        "Measurement": "Alachlor",
        "Value": "<0.010000",
        "Units": "mg/L"
    },
    {
        "Site ID": "L37/0443",
        "SampleID": "SCY951305",
        "Collection Date": "18-Apr 1995 12:20pm",
        "Measurement": "Aldrin",
        "Value": "<0.0100000",
        "Units": "mg/L"
    },
    {
        "Site ID": "L37/0443",
        "SampleID": "SCY951305",
        "Collection Date": "18-Apr 1995 12:20pm",
        "Measurement": "Alkalinity, Total",
        "Value": "52.0",
        "Units": "g/m3 as CaCO3"
    },
    {
        "Site ID": "L37/0443",
        "SampleID": "SCY951305",
        "Collection Date": "18-Apr 1995 12:20pm",
        "Measurement": "Atrazine",
        "Value": "<0.010000",
        "Units": "mg/L"
    },
    {
        "Site ID": "L37/0443",
        "SampleID": "SCY951305",
        "Collection Date": "18-Apr 1995 12:20pm",
        "Measurement": "Azinphos-methyl",
        "Value": "<0.010000",
        "Units": "mg/L"
    },
    {
        "Site ID": "L37/0443",
        "SampleID": "SCY951305",
        "Collection Date": "18-Apr 1995 12:20pm",
        "Measurement": "Bromacil",
        "Value": "<0.010000",
        "Units": "mg/L"
    },
    {
        "Site ID": "L37/0443",
        "SampleID": "SCY951305",
        "Collection Date": "18-Apr 1995 12:20pm",
        "Measurement": "Calcium",
        "Value": "14.000",
        "Units": "mg/L"
    },
    {
        "Site ID": "L37/0443",
        "SampleID": "SCY951305",
        "Collection Date": "18-Apr 1995 12:20pm",
        "Measurement": "Chloride",
        "Value": "3.000",
        "Units": "mg/L"
    },
    {
        "Site ID": "L37/0443",
        "SampleID": "SCY951305",
        "Collection Date": "18-Apr 1995 12:20pm",
        "Measurement": "Chlorpyrifos",
        "Value": "<0.010000",
        "Units": "mg/L"
    },
    {
        "Site ID": "L37/0443",
        "SampleID": "SCY951305",
        "Collection Date": "18-Apr 1995 12:20pm",
        "Measurement": "Conductivity",
        "Value": "11.5",
        "Units": "mS/m"
    },
    {
        "Site ID": "L37/0443",
        "SampleID": "SCY951305",
        "Collection Date": "18-Apr 1995 12:20pm",
        "Measurement": "Cyanazine",
        "Value": "<0.010000",
        "Units": "mg/L"
    },
    {
        "Site ID": "L37/0443",
        "SampleID": "SCY951305",
        "Collection Date": "18-Apr 1995 12:20pm",
        "Measurement": "Diazinon",
        "Value": "<0.020000",
        "Units": "mg/L"
    },
    {
        "Site ID": "L37/0443",
        "SampleID": "SCY951305",
        "Collection Date": "18-Apr 1995 12:20pm",
        "Measurement": "Dieldrin",
        "Value": "<0.0100000",
        "Units": "mg/L"
    },
    {
        "Site ID": "L37/0443",
        "SampleID": "SCY951305",
        "Collection Date": "18-Apr 1995 12:20pm",
        "Measurement": "Diuron",
        "Value": "<0.030000",
        "Units": "mg/L"
    },
    {
        "Site ID": "L37/0443",
        "SampleID": "SCY951305",
        "Collection Date": "18-Apr 1995 12:20pm",
        "Measurement": "Hardness, Total",
        "Value": "47.000",
        "Units": "g/m3 as CaCO3"
    },
    {
        "Site ID": "L37/0443",
        "SampleID": "SCY951305",
        "Collection Date": "18-Apr 1995 12:20pm",
        "Measurement": "Hexazinone",
        "Value": "<0.030000",
        "Units": "mg/L"
    },
    {
        "Site ID": "L37/0443",
        "SampleID": "SCY951305",
        "Collection Date": "18-Apr 1995 12:20pm",
        "Measurement": "Iron, Dissolved",
        "Value": "<0.100",
        "Units": "mg/L"
    },
    {
        "Site ID": "L37/0443",
        "SampleID": "SCY951305",
        "Collection Date": "18-Apr 1995 12:20pm",
        "Measurement": "Lindane",
        "Value": "<0.0100000",
        "Units": "mg/L"
    },
    {
        "Site ID": "L37/0443",
        "SampleID": "SCY951305",
        "Collection Date": "18-Apr 1995 12:20pm",
        "Measurement": "Linuron",
        "Value": "<0.020000",
        "Units": "mg/L"
    },
    {
        "Site ID": "L37/0443",
        "SampleID": "SCY951305",
        "Collection Date": "18-Apr 1995 12:20pm",
        "Measurement": "Magnesium, Dissolved",
        "Value": "2.900",
        "Units": "mg/L"
    },
    {
        "Site ID": "L37/0443",
        "SampleID": "SCY951305",
        "Collection Date": "18-Apr 1995 12:20pm",
        "Measurement": "Manganese, Dissolved",
        "Value": "<0.0200",
        "Units": "mg/L"
    },
    {
        "Site ID": "L37/0443",
        "SampleID": "SCY951305",
        "Collection Date": "18-Apr 1995 12:20pm",
        "Measurement": "Metribuzin",
        "Value": "<0.010000",
        "Units": "mg/L"
    },
    {
        "Site ID": "L37/0443",
        "SampleID": "SCY951305",
        "Collection Date": "18-Apr 1995 12:20pm",
        "Measurement": "Nitrate Nitrogen",
        "Value": "2.000",
        "Units": "mg/L"
    },
    {
        "Site ID": "L37/0443",
        "SampleID": "SCY951305",
        "Collection Date": "18-Apr 1995 12:20pm",
        "Measurement": "Oxidiazon",
        "Value": "<0.020",
        "Units": "ug/L"
    },
    {
        "Site ID": "L37/0443",
        "SampleID": "SCY951305",
        "Collection Date": "18-Apr 1995 12:20pm",
        "Measurement": "Oxyfluorfen",
        "Value": "<0.020000",
        "Units": "mg/L"
    },
    {
        "Site ID": "L37/0443",
        "SampleID": "SCY951305",
        "Collection Date": "18-Apr 1995 12:20pm",
        "Measurement": "Pendimethalin",
        "Value": "<0.020000",
        "Units": "mg/L"
    },
    {
        "Site ID": "L37/0443",
        "SampleID": "SCY951305",
        "Collection Date": "18-Apr 1995 12:20pm",
        "Measurement": "pH",
        "Value": "7.0",
        "Units": ""
    },
    {
        "Site ID": "L37/0443",
        "SampleID": "SCY951305",
        "Collection Date": "18-Apr 1995 12:20pm",
        "Measurement": "Phorate sulfoxide",
        "Value": "<0.020",
        "Units": "ug/L"
    },
    {
        "Site ID": "L37/0443",
        "SampleID": "SCY951305",
        "Collection Date": "18-Apr 1995 12:20pm",
        "Measurement": "Phorate sulphone",
        "Value": "<0.010",
        "Units": "ug/L"
    },
    {
        "Site ID": "L37/0443",
        "SampleID": "SCY951305",
        "Collection Date": "18-Apr 1995 12:20pm",
        "Measurement": "Pirimiphos-methyl",
        "Value": "<0.010000",
        "Units": "mg/L"
    },
    {
        "Site ID": "L37/0443",
        "SampleID": "SCY951305",
        "Collection Date": "18-Apr 1995 12:20pm",
        "Measurement": "Potassium, Dissolved",
        "Value": "0.740",
        "Units": "mg/L"
    },
    {
        "Site ID": "L37/0443",
        "SampleID": "SCY951305",
        "Collection Date": "18-Apr 1995 12:20pm",
        "Measurement": "Procymidone",
        "Value": "<0.010000",
        "Units": "mg/L"
    },
    {
        "Site ID": "L37/0443",
        "SampleID": "SCY951305",
        "Collection Date": "18-Apr 1995 12:20pm",
        "Measurement": "Prometryn",
        "Value": "<0.050000",
        "Units": "mg/L"
    },
    {
        "Site ID": "L37/0443",
        "SampleID": "SCY951305",
        "Collection Date": "18-Apr 1995 12:20pm",
        "Measurement": "Simazine",
        "Value": "<0.010000",
        "Units": "mg/L"
    },
    {
        "Site ID": "L37/0443",
        "SampleID": "SCY951305",
        "Collection Date": "18-Apr 1995 12:20pm",
        "Measurement": "Sodium, Dissolved",
        "Value": "4.100",
        "Units": "mg/L"
    },
    {
        "Site ID": "L37/0443",
        "SampleID": "SCY951305",
        "Collection Date": "18-Apr 1995 12:20pm",
        "Measurement": "Sulphate",
        "Value": "10.000",
        "Units": "mg/L"
    },
    {
        "Site ID": "L37/0443",
        "SampleID": "SCY951305",
        "Collection Date": "18-Apr 1995 12:20pm",
        "Measurement": "Terbuthylazine",
        "Value": "<0.020000",
        "Units": "mg/L"
    },
    {
        "Site ID": "L37/0443",
        "SampleID": "SCY951305",
        "Collection Date": "18-Apr 1995 12:20pm",
        "Measurement": "Vinclozolin",
        "Value": "<0.020000",
        "Units": "mg/L"
    }
]