[
    {
        "Site ID": "M35/6213",
        "SampleID": "184726302",
        "Collection Date": "19-Sep 2017 14:40pm",
        "Measurement": "Alkalinity, Total",
        "Value": "57.0",
        "Units": "g/m3 as CaCO3"
    },
    {
        "Site ID": "M35/6213",
        "SampleID": "184726302",
        "Collection Date": "19-Sep 2017 14:40pm",
        "Measurement": "Ammoniacal Nitrogen",
        "Value": "<0.010",
        "Units": "mg/L"
    },
    {
        "Site ID": "M35/6213",
        "SampleID": "184726302",
        "Collection Date": "19-Sep 2017 14:40pm",
        "Measurement": "Bicarbonate",
        "Value": "69.000",
        "Units": "mg/L  at 25\u00b0C"
    },
    {
        "Site ID": "M35/6213",
        "SampleID": "184726302",
        "Collection Date": "19-Sep 2017 14:40pm",
        "Measurement": "Boron, Dissolved",
        "Value": "0.017",
        "Units": "mg/L"
    },
    {
        "Site ID": "M35/6213",
        "SampleID": "184726302",
        "Collection Date": "19-Sep 2017 14:40pm",
        "Measurement": "Bromide",
        "Value": "<0.050",
        "Units": "g/m3"
    },
    {
        "Site ID": "M35/6213",
        "SampleID": "184726302",
        "Collection Date": "19-Sep 2017 14:40pm",
        "Measurement": "Calcium, Dissolved",
        "Value": "13.200",
        "Units": "mg/L"
    },
    {
        "Site ID": "M35/6213",
        "SampleID": "184726302",
        "Collection Date": "19-Sep 2017 14:40pm",
        "Measurement": "Chloride",
        "Value": "5.900",
        "Units": "mg/L"
    },
    {
        "Site ID": "M35/6213",
        "SampleID": "184726302",
        "Collection Date": "19-Sep 2017 14:40pm",
        "Measurement": "Conductivity",
        "Value": "14.1",
        "Units": "mS/m"
    },
    {
        "Site ID": "M35/6213",
        "SampleID": "184726302",
        "Collection Date": "19-Sep 2017 14:40pm",
        "Measurement": "Conductivity (Field)",
        "Value": "14.06",
        "Units": "mS/m"
    },
    {
        "Site ID": "M35/6213",
        "SampleID": "184726302",
        "Collection Date": "19-Sep 2017 14:40pm",
        "Measurement": "Deuterium",
        "Value": "-61.130",
        "Units": "\u0089"
    },
    {
        "Site ID": "M35/6213",
        "SampleID": "184726302",
        "Collection Date": "19-Sep 2017 14:40pm",
        "Measurement": "Difference in Ion Balance",
        "Value": "0.370",
        "Units": "%"
    },
    {
        "Site ID": "M35/6213",
        "SampleID": "184726302",
        "Collection Date": "19-Sep 2017 14:40pm",
        "Measurement": "Dissolved Oxygen",
        "Value": "6.210",
        "Units": "mg/L"
    },
    {
        "Site ID": "M35/6213",
        "SampleID": "184726302",
        "Collection Date": "19-Sep 2017 14:40pm",
        "Measurement": "Dissolved Oxygen Saturation",
        "Value": "59.800",
        "Units": "%"
    },
    {
        "Site ID": "M35/6213",
        "SampleID": "184726302",
        "Collection Date": "19-Sep 2017 14:40pm",
        "Measurement": "Dissolved Reactive Phosphorus",
        "Value": "0.0128",
        "Units": "mg/L"
    },
    {
        "Site ID": "M35/6213",
        "SampleID": "184726302",
        "Collection Date": "19-Sep 2017 14:40pm",
        "Measurement": "Hardness, Total",
        "Value": "50.000",
        "Units": "g/m3 as CaCO3"
    },
    {
        "Site ID": "M35/6213",
        "SampleID": "184726302",
        "Collection Date": "19-Sep 2017 14:40pm",
        "Measurement": "Iron, Dissolved",
        "Value": "<0.020",
        "Units": "mg/L"
    },
    {
        "Site ID": "M35/6213",
        "SampleID": "184726302",
        "Collection Date": "19-Sep 2017 14:40pm",
        "Measurement": "Magnesium, Dissolved",
        "Value": "4.200",
        "Units": "mg/L"
    },
    {
        "Site ID": "M35/6213",
        "SampleID": "184726302",
        "Collection Date": "19-Sep 2017 14:40pm",
        "Measurement": "Manganese, Dissolved",
        "Value": "<0.0005",
        "Units": "mg/L"
    },
    {
        "Site ID": "M35/6213",
        "SampleID": "184726302",
        "Collection Date": "19-Sep 2017 14:40pm",
        "Measurement": "Nitrate Nitrogen",
        "Value": "1.050",
        "Units": "mg/L"
    },
    {
        "Site ID": "M35/6213",
        "SampleID": "184726302",
        "Collection Date": "19-Sep 2017 14:40pm",
        "Measurement": "Nitrate-N Nitrite-N",
        "Value": "1.050",
        "Units": "g/m3"
    },
    {
        "Site ID": "M35/6213",
        "SampleID": "184726302",
        "Collection Date": "19-Sep 2017 14:40pm",
        "Measurement": "Nitrite Nitrogen",
        "Value": "<0.002",
        "Units": "mg/L"
    },
    {
        "Site ID": "M35/6213",
        "SampleID": "184726302",
        "Collection Date": "19-Sep 2017 14:40pm",
        "Measurement": "Oxidation Reduction Potential",
        "Value": "98.100",
        "Units": "mV"
    },
    {
        "Site ID": "M35/6213",
        "SampleID": "184726302",
        "Collection Date": "19-Sep 2017 14:40pm",
        "Measurement": "Oxygen 18",
        "Value": "-8.810",
        "Units": "\u0089"
    },
    {
        "Site ID": "M35/6213",
        "SampleID": "184726302",
        "Collection Date": "19-Sep 2017 14:40pm",
        "Measurement": "pH",
        "Value": "7.8",
        "Units": ""
    },
    {
        "Site ID": "M35/6213",
        "SampleID": "184726302",
        "Collection Date": "19-Sep 2017 14:40pm",
        "Measurement": "pH (Field)",
        "Value": "7.80",
        "Units": ""
    },
    {
        "Site ID": "M35/6213",
        "SampleID": "184726302",
        "Collection Date": "19-Sep 2017 14:40pm",
        "Measurement": "Potassium, Dissolved",
        "Value": "0.910",
        "Units": "mg/L"
    },
    {
        "Site ID": "M35/6213",
        "SampleID": "184726302",
        "Collection Date": "19-Sep 2017 14:40pm",
        "Measurement": "Silica, Reactive",
        "Value": "20.000",
        "Units": "mg/L  as SiO2"
    },
    {
        "Site ID": "M35/6213",
        "SampleID": "184726302",
        "Collection Date": "19-Sep 2017 14:40pm",
        "Measurement": "Sodium, Dissolved",
        "Value": "9.100",
        "Units": "mg/L"
    },
    {
        "Site ID": "M35/6213",
        "SampleID": "184726302",
        "Collection Date": "19-Sep 2017 14:40pm",
        "Measurement": "Sulphate",
        "Value": "1.300",
        "Units": "mg/L"
    },
    {
        "Site ID": "M35/6213",
        "SampleID": "184726302",
        "Collection Date": "19-Sep 2017 14:40pm",
        "Measurement": "Sum of anions",
        "Value": "1.410",
        "Units": "meq/L"
    },
    {
        "Site ID": "M35/6213",
        "SampleID": "184726302",
        "Collection Date": "19-Sep 2017 14:40pm",
        "Measurement": "Sum of cations",
        "Value": "1.420",
        "Units": "meq/L"
    },
    {
        "Site ID": "M35/6213",
        "SampleID": "184726302",
        "Collection Date": "19-Sep 2017 14:40pm",
        "Measurement": "Water Temperature (Field)",
        "Value": "13.8",
        "Units": "C"
    },
    {
        "Site ID": "M35/6213",
        "SampleID": "2706665",
        "Collection Date": "26-Sep 2007 11:00am",
        "Measurement": "Alkalinity to pH 4.5 as HCO3",
        "Value": "69.000",
        "Units": "mg/L  as HCO3"
    },
    {
        "Site ID": "M35/6213",
        "SampleID": "2706665",
        "Collection Date": "26-Sep 2007 11:00am",
        "Measurement": "Ammoniacal Nitrogen",
        "Value": "0.011",
        "Units": "mg/L"
    },
    {
        "Site ID": "M35/6213",
        "SampleID": "2706665",
        "Collection Date": "26-Sep 2007 11:00am",
        "Measurement": "Arsenic, Dissolved",
        "Value": "<0.0020",
        "Units": "mg/L"
    },
    {
        "Site ID": "M35/6213",
        "SampleID": "2706665",
        "Collection Date": "26-Sep 2007 11:00am",
        "Measurement": "Calcium, Dissolved",
        "Value": "12.000",
        "Units": "mg/L"
    },
    {
        "Site ID": "M35/6213",
        "SampleID": "2706665",
        "Collection Date": "26-Sep 2007 11:00am",
        "Measurement": "Chloride",
        "Value": "6.200",
        "Units": "mg/L"
    },
    {
        "Site ID": "M35/6213",
        "SampleID": "2706665",
        "Collection Date": "26-Sep 2007 11:00am",
        "Measurement": "Conductivity",
        "Value": "14.0",
        "Units": "mS/m"
    },
    {
        "Site ID": "M35/6213",
        "SampleID": "2706665",
        "Collection Date": "26-Sep 2007 11:00am",
        "Measurement": "Conductivity (Field)",
        "Value": "14.80",
        "Units": "mS/m"
    },
    {
        "Site ID": "M35/6213",
        "SampleID": "2706665",
        "Collection Date": "26-Sep 2007 11:00am",
        "Measurement": "Deuterium",
        "Value": "-61.900",
        "Units": "\u0089"
    },
    {
        "Site ID": "M35/6213",
        "SampleID": "2706665",
        "Collection Date": "26-Sep 2007 11:00am",
        "Measurement": "Difference in Ion Balance",
        "Value": "-3.800",
        "Units": "%"
    },
    {
        "Site ID": "M35/6213",
        "SampleID": "2706665",
        "Collection Date": "26-Sep 2007 11:00am",
        "Measurement": "Dissolved Oxygen",
        "Value": "5.580",
        "Units": "mg/L"
    },
    {
        "Site ID": "M35/6213",
        "SampleID": "2706665",
        "Collection Date": "26-Sep 2007 11:00am",
        "Measurement": "Dissolved Oxygen Saturation",
        "Value": "52.700",
        "Units": "%"
    },
    {
        "Site ID": "M35/6213",
        "SampleID": "2706665",
        "Collection Date": "26-Sep 2007 11:00am",
        "Measurement": "Dissolved Reactive Phosphorus",
        "Value": "0.0150",
        "Units": "mg/L"
    },
    {
        "Site ID": "M35/6213",
        "SampleID": "2706665",
        "Collection Date": "26-Sep 2007 11:00am",
        "Measurement": "Hardness, Total",
        "Value": "46.000",
        "Units": "g/m3 as CaCO3"
    },
    {
        "Site ID": "M35/6213",
        "SampleID": "2706665",
        "Collection Date": "26-Sep 2007 11:00am",
        "Measurement": "Iron, Dissolved",
        "Value": "<0.030",
        "Units": "mg/L"
    },
    {
        "Site ID": "M35/6213",
        "SampleID": "2706665",
        "Collection Date": "26-Sep 2007 11:00am",
        "Measurement": "Magnesium, Dissolved",
        "Value": "4.000",
        "Units": "mg/L"
    },
    {
        "Site ID": "M35/6213",
        "SampleID": "2706665",
        "Collection Date": "26-Sep 2007 11:00am",
        "Measurement": "Manganese, Dissolved",
        "Value": "<0.0100",
        "Units": "mg/L"
    },
    {
        "Site ID": "M35/6213",
        "SampleID": "2706665",
        "Collection Date": "26-Sep 2007 11:00am",
        "Measurement": "Nitrate Nitrogen",
        "Value": "0.800",
        "Units": "mg/L"
    },
    {
        "Site ID": "M35/6213",
        "SampleID": "2706665",
        "Collection Date": "26-Sep 2007 11:00am",
        "Measurement": "Oxygen 18",
        "Value": "-8.960",
        "Units": "\u0089"
    },
    {
        "Site ID": "M35/6213",
        "SampleID": "2706665",
        "Collection Date": "26-Sep 2007 11:00am",
        "Measurement": "pH",
        "Value": "7.8",
        "Units": ""
    },
    {
        "Site ID": "M35/6213",
        "SampleID": "2706665",
        "Collection Date": "26-Sep 2007 11:00am",
        "Measurement": "pH (Field)",
        "Value": "7.70",
        "Units": ""
    },
    {
        "Site ID": "M35/6213",
        "SampleID": "2706665",
        "Collection Date": "26-Sep 2007 11:00am",
        "Measurement": "Potassium, Dissolved",
        "Value": "0.800",
        "Units": "mg/L"
    },
    {
        "Site ID": "M35/6213",
        "SampleID": "2706665",
        "Collection Date": "26-Sep 2007 11:00am",
        "Measurement": "Silica, Reactive",
        "Value": "18.000",
        "Units": "mg/L  as SiO2"
    },
    {
        "Site ID": "M35/6213",
        "SampleID": "2706665",
        "Collection Date": "26-Sep 2007 11:00am",
        "Measurement": "Sodium, Dissolved",
        "Value": "8.200",
        "Units": "mg/L"
    },
    {
        "Site ID": "M35/6213",
        "SampleID": "2706665",
        "Collection Date": "26-Sep 2007 11:00am",
        "Measurement": "Sulphate",
        "Value": "2.000",
        "Units": "mg/L"
    },
    {
        "Site ID": "M35/6213",
        "SampleID": "2706665",
        "Collection Date": "26-Sep 2007 11:00am",
        "Measurement": "Sum of anions",
        "Value": "1.405",
        "Units": "meq/L"
    },
    {
        "Site ID": "M35/6213",
        "SampleID": "2706665",
        "Collection Date": "26-Sep 2007 11:00am",
        "Measurement": "Sum of cations",
        "Value": "1.303",
        "Units": "meq/L"
    },
    {
        "Site ID": "M35/6213",
        "SampleID": "2706665",
        "Collection Date": "26-Sep 2007 11:00am",
        "Measurement": "Water Temperature (Field)",
        "Value": "12.9",
        "Units": "C"
    }
]