[
    {
        "Site ID": "M35/0225",
        "SampleID": "2900214",
        "Collection Date": "14-Jan 2009 10:30am",
        "Measurement": "Alkalinity to pH 4.5 as HCO3",
        "Value": "63.000",
        "Units": "mg/L  as HCO3"
    },
    {
        "Site ID": "M35/0225",
        "SampleID": "2900214",
        "Collection Date": "14-Jan 2009 10:30am",
        "Measurement": "Ammoniacal Nitrogen",
        "Value": "0.031",
        "Units": "mg/L"
    },
    {
        "Site ID": "M35/0225",
        "SampleID": "2900214",
        "Collection Date": "14-Jan 2009 10:30am",
        "Measurement": "Calcium, Dissolved",
        "Value": "12.000",
        "Units": "mg/L"
    },
    {
        "Site ID": "M35/0225",
        "SampleID": "2900214",
        "Collection Date": "14-Jan 2009 10:30am",
        "Measurement": "Chloride",
        "Value": "4.400",
        "Units": "mg/L"
    },
    {
        "Site ID": "M35/0225",
        "SampleID": "2900214",
        "Collection Date": "14-Jan 2009 10:30am",
        "Measurement": "Conductivity",
        "Value": "12.0",
        "Units": "mS/m"
    },
    {
        "Site ID": "M35/0225",
        "SampleID": "2900214",
        "Collection Date": "14-Jan 2009 10:30am",
        "Measurement": "Conductivity (Field)",
        "Value": "12.30",
        "Units": "mS/m"
    },
    {
        "Site ID": "M35/0225",
        "SampleID": "2900214",
        "Collection Date": "14-Jan 2009 10:30am",
        "Measurement": "Difference in Ion Balance",
        "Value": "0.120",
        "Units": "%"
    },
    {
        "Site ID": "M35/0225",
        "SampleID": "2900214",
        "Collection Date": "14-Jan 2009 10:30am",
        "Measurement": "Dissolved Oxygen",
        "Value": "0.110",
        "Units": "mg/L"
    },
    {
        "Site ID": "M35/0225",
        "SampleID": "2900214",
        "Collection Date": "14-Jan 2009 10:30am",
        "Measurement": "Dissolved Oxygen Saturation",
        "Value": "1.000",
        "Units": "%"
    },
    {
        "Site ID": "M35/0225",
        "SampleID": "2900214",
        "Collection Date": "14-Jan 2009 10:30am",
        "Measurement": "Dissolved Reactive Phosphorus",
        "Value": "0.0050",
        "Units": "mg/L"
    },
    {
        "Site ID": "M35/0225",
        "SampleID": "2900214",
        "Collection Date": "14-Jan 2009 10:30am",
        "Measurement": "Hardness, Total",
        "Value": "42.000",
        "Units": "g/m3 as CaCO3"
    },
    {
        "Site ID": "M35/0225",
        "SampleID": "2900214",
        "Collection Date": "14-Jan 2009 10:30am",
        "Measurement": "Iron, Dissolved",
        "Value": "0.560",
        "Units": "mg/L"
    },
    {
        "Site ID": "M35/0225",
        "SampleID": "2900214",
        "Collection Date": "14-Jan 2009 10:30am",
        "Measurement": "Magnesium, Dissolved",
        "Value": "3.000",
        "Units": "mg/L"
    },
    {
        "Site ID": "M35/0225",
        "SampleID": "2900214",
        "Collection Date": "14-Jan 2009 10:30am",
        "Measurement": "Manganese, Dissolved",
        "Value": "<0.0100",
        "Units": "mg/L"
    },
    {
        "Site ID": "M35/0225",
        "SampleID": "2900214",
        "Collection Date": "14-Jan 2009 10:30am",
        "Measurement": "Nitrate Nitrogen",
        "Value": "<0.100",
        "Units": "mg/L"
    },
    {
        "Site ID": "M35/0225",
        "SampleID": "2900214",
        "Collection Date": "14-Jan 2009 10:30am",
        "Measurement": "pH",
        "Value": "7.0",
        "Units": ""
    },
    {
        "Site ID": "M35/0225",
        "SampleID": "2900214",
        "Collection Date": "14-Jan 2009 10:30am",
        "Measurement": "pH (Field)",
        "Value": "6.20",
        "Units": ""
    },
    {
        "Site ID": "M35/0225",
        "SampleID": "2900214",
        "Collection Date": "14-Jan 2009 10:30am",
        "Measurement": "Potassium, Dissolved",
        "Value": "1.100",
        "Units": "mg/L"
    },
    {
        "Site ID": "M35/0225",
        "SampleID": "2900214",
        "Collection Date": "14-Jan 2009 10:30am",
        "Measurement": "Silica, Reactive",
        "Value": "14.000",
        "Units": "mg/L  as SiO2"
    },
    {
        "Site ID": "M35/0225",
        "SampleID": "2900214",
        "Collection Date": "14-Jan 2009 10:30am",
        "Measurement": "Sodium, Dissolved",
        "Value": "7.400",
        "Units": "mg/L"
    },
    {
        "Site ID": "M35/0225",
        "SampleID": "2900214",
        "Collection Date": "14-Jan 2009 10:30am",
        "Measurement": "Sulphate",
        "Value": "2.300",
        "Units": "mg/L"
    },
    {
        "Site ID": "M35/0225",
        "SampleID": "2900214",
        "Collection Date": "14-Jan 2009 10:30am",
        "Measurement": "Sum of anions",
        "Value": "1.212",
        "Units": "meq/L"
    },
    {
        "Site ID": "M35/0225",
        "SampleID": "2900214",
        "Collection Date": "14-Jan 2009 10:30am",
        "Measurement": "Sum of cations",
        "Value": "1.215",
        "Units": "meq/L"
    },
    {
        "Site ID": "M35/0225",
        "SampleID": "2900214",
        "Collection Date": "14-Jan 2009 10:30am",
        "Measurement": "Water Temperature (Field)",
        "Value": "13.0",
        "Units": "C"
    },
    {
        "Site ID": "M35/0225",
        "SampleID": "ISOTO3983",
        "Collection Date": "10-Feb 2000 00:00am",
        "Measurement": "Oxygen 18",
        "Value": "-9.380",
        "Units": "\u0089"
    },
    {
        "Site ID": "M35/0225",
        "SampleID": "ISOTO3983",
        "Collection Date": "10-Feb 2000 00:00am",
        "Measurement": "Oxygen 18 Error of Measurement",
        "Value": "0.100",
        "Units": "%"
    },
    {
        "Site ID": "M35/0225",
        "SampleID": "IS000209C",
        "Collection Date": "09-Feb 2000 00:00am",
        "Measurement": "CFC preferred recharge year",
        "Value": "1965.000",
        "Units": "Year"
    },
    {
        "Site ID": "M35/0225",
        "SampleID": "IS000209C",
        "Collection Date": "09-Feb 2000 00:00am",
        "Measurement": "CFC-11 95% confidence interval age range",
        "Value": "40.000",
        "Units": "Year"
    },
    {
        "Site ID": "M35/0225",
        "SampleID": "IS000209C",
        "Collection Date": "09-Feb 2000 00:00am",
        "Measurement": "CFC-11 age",
        "Value": "43.000",
        "Units": "Year"
    },
    {
        "Site ID": "M35/0225",
        "SampleID": "IS000209C",
        "Collection Date": "09-Feb 2000 00:00am",
        "Measurement": "CFC-11 partial pressure",
        "Value": "24.800",
        "Units": "pptv"
    },
    {
        "Site ID": "M35/0225",
        "SampleID": "IS000209C",
        "Collection Date": "09-Feb 2000 00:00am",
        "Measurement": "CFC-11 partial pressure Standard Deviation",
        "Value": "1.200",
        "Units": "pptv"
    },
    {
        "Site ID": "M35/0225",
        "SampleID": "IS000209C",
        "Collection Date": "09-Feb 2000 00:00am",
        "Measurement": "CFC-11 partial pressure Standard Uncertainty",
        "Value": "4.600",
        "Units": "pptv"
    },
    {
        "Site ID": "M35/0225",
        "SampleID": "IS000209C",
        "Collection Date": "09-Feb 2000 00:00am",
        "Measurement": "CFC-11 recharge year",
        "Value": "1965.000",
        "Units": "Year"
    },
    {
        "Site ID": "M35/0225",
        "SampleID": "IS000209C",
        "Collection Date": "09-Feb 2000 00:00am",
        "Measurement": "CFC-11, Dissolved",
        "Value": "0.500",
        "Units": "pmol/kg"
    },
    {
        "Site ID": "M35/0225",
        "SampleID": "IS000209C",
        "Collection Date": "09-Feb 2000 00:00am",
        "Measurement": "CFC-11, Dissolved Standard Deviation",
        "Value": "0.020",
        "Units": "pmol/kg"
    },
    {
        "Site ID": "M35/0225",
        "SampleID": "IS000209C",
        "Collection Date": "09-Feb 2000 00:00am",
        "Measurement": "CFC-11, Dissolved Uncertainty",
        "Value": "0.070",
        "Units": "pmol/kg"
    },
    {
        "Site ID": "M35/0225",
        "SampleID": "IS000209C",
        "Collection Date": "09-Feb 2000 00:00am",
        "Measurement": "CFC-12 95% confidence interval age range",
        "Value": "26.000",
        "Units": "Year"
    },
    {
        "Site ID": "M35/0225",
        "SampleID": "IS000209C",
        "Collection Date": "09-Feb 2000 00:00am",
        "Measurement": "CFC-12 age",
        "Value": "30.000",
        "Units": "Year"
    },
    {
        "Site ID": "M35/0225",
        "SampleID": "IS000209C",
        "Collection Date": "09-Feb 2000 00:00am",
        "Measurement": "CFC-12 partial pressure",
        "Value": "165.000",
        "Units": "pptv"
    },
    {
        "Site ID": "M35/0225",
        "SampleID": "IS000209C",
        "Collection Date": "09-Feb 2000 00:00am",
        "Measurement": "CFC-12 partial pressure Standard Deviation",
        "Value": "1.600",
        "Units": "pptv"
    },
    {
        "Site ID": "M35/0225",
        "SampleID": "IS000209C",
        "Collection Date": "09-Feb 2000 00:00am",
        "Measurement": "CFC-12 partial pressure Standard Uncertainty",
        "Value": "24.100",
        "Units": "pptv"
    },
    {
        "Site ID": "M35/0225",
        "SampleID": "IS000209C",
        "Collection Date": "09-Feb 2000 00:00am",
        "Measurement": "CFC-12 recharge year",
        "Value": "1973.000",
        "Units": "Year"
    },
    {
        "Site ID": "M35/0225",
        "SampleID": "IS000209C",
        "Collection Date": "09-Feb 2000 00:00am",
        "Measurement": "CFC-12, Dissolved",
        "Value": "0.800",
        "Units": "pmol/kg"
    },
    {
        "Site ID": "M35/0225",
        "SampleID": "IS000209C",
        "Collection Date": "09-Feb 2000 00:00am",
        "Measurement": "CFC-12, Dissolved Standard Deviation",
        "Value": "0.010",
        "Units": "pmol/kg"
    },
    {
        "Site ID": "M35/0225",
        "SampleID": "IS000209C",
        "Collection Date": "09-Feb 2000 00:00am",
        "Measurement": "CFC-12, Dissolved Uncertainty",
        "Value": "0.090",
        "Units": "pmol/kg"
    },
    {
        "Site ID": "M35/0225",
        "SampleID": "IS000209C",
        "Collection Date": "09-Feb 2000 00:00am",
        "Measurement": "CFC-13, Dissolved Uncertainty",
        "Value": "11.500",
        "Units": "pmol/kg"
    },
    {
        "Site ID": "M35/0225",
        "SampleID": "IS000209C",
        "Collection Date": "09-Feb 2000 00:00am",
        "Measurement": "Excess air",
        "Value": "1.300",
        "Units": "mL(STP)/kg"
    },
    {
        "Site ID": "M35/0225",
        "SampleID": "IS000209C",
        "Collection Date": "09-Feb 2000 00:00am",
        "Measurement": "Excess air standard uncertainty",
        "Value": "1.300",
        "Units": "mL(STP)/kg"
    },
    {
        "Site ID": "M35/0225",
        "SampleID": "IS000209C",
        "Collection Date": "09-Feb 2000 00:00am",
        "Measurement": "Exponential Mixed Flow",
        "Value": "40.000",
        "Units": "%"
    },
    {
        "Site ID": "M35/0225",
        "SampleID": "IS000209C",
        "Collection Date": "09-Feb 2000 00:00am",
        "Measurement": "IGNS Sample Reference",
        "Value": "*",
        "Units": ""
    },
    {
        "Site ID": "M35/0225",
        "SampleID": "IS000209C",
        "Collection Date": "09-Feb 2000 00:00am",
        "Measurement": "Recharge elevation",
        "Value": "14.000",
        "Units": "m"
    },
    {
        "Site ID": "M35/0225",
        "SampleID": "IS000209C",
        "Collection Date": "09-Feb 2000 00:00am",
        "Measurement": "Recharge temperature",
        "Value": "11.600",
        "Units": "\u00b0C"
    },
    {
        "Site ID": "M35/0225",
        "SampleID": "IS000209C",
        "Collection Date": "09-Feb 2000 00:00am",
        "Measurement": "Recharge temperature standard uncertaint",
        "Value": "2.000",
        "Units": "\u00b0C"
    },
    {
        "Site ID": "M35/0225",
        "SampleID": "IS000209C",
        "Collection Date": "09-Feb 2000 00:00am",
        "Measurement": "Recommended model age",
        "Value": "0.000",
        "Units": "Year"
    },
    {
        "Site ID": "M35/0225",
        "SampleID": "IS000209C",
        "Collection Date": "09-Feb 2000 00:00am",
        "Measurement": "Relative humidity",
        "Value": "0.000",
        "Units": "%"
    },
    {
        "Site ID": "M35/0225",
        "SampleID": "IS000209C",
        "Collection Date": "09-Feb 2000 00:00am",
        "Measurement": "Residence time",
        "Value": "35.000",
        "Units": "Year"
    },
    {
        "Site ID": "M35/0225",
        "SampleID": "IS000209C",
        "Collection Date": "09-Feb 2000 00:00am",
        "Measurement": "Tritium age",
        "Value": "35.000",
        "Units": "Year"
    }
]