[
    {
        "Site ID": "M35/4133",
        "SampleID": "NCY821293",
        "Collection Date": "22-Feb 1982 00:00am",
        "Measurement": "Alkalinity to pH 4.5 as HCO3",
        "Value": "48.000",
        "Units": "mg/L  as HCO3"
    },
    {
        "Site ID": "M35/4133",
        "SampleID": "NCY821293",
        "Collection Date": "22-Feb 1982 00:00am",
        "Measurement": "Ammoniacal Nitrogen",
        "Value": "0.000",
        "Units": "mg/L"
    },
    {
        "Site ID": "M35/4133",
        "SampleID": "NCY821293",
        "Collection Date": "22-Feb 1982 00:00am",
        "Measurement": "Calcium, Dissolved",
        "Value": "10.500",
        "Units": "mg/L"
    },
    {
        "Site ID": "M35/4133",
        "SampleID": "NCY821293",
        "Collection Date": "22-Feb 1982 00:00am",
        "Measurement": "Carbonate Alkalinity",
        "Value": "0.000",
        "Units": "mg/L CO3"
    },
    {
        "Site ID": "M35/4133",
        "SampleID": "NCY821293",
        "Collection Date": "22-Feb 1982 00:00am",
        "Measurement": "Chloride",
        "Value": "7.000",
        "Units": "mg/L"
    },
    {
        "Site ID": "M35/4133",
        "SampleID": "NCY821293",
        "Collection Date": "22-Feb 1982 00:00am",
        "Measurement": "Conductivity",
        "Value": "9.5",
        "Units": "mS/m"
    },
    {
        "Site ID": "M35/4133",
        "SampleID": "NCY821293",
        "Collection Date": "22-Feb 1982 00:00am",
        "Measurement": "Free Carbon Dioxide",
        "Value": "1.000",
        "Units": "g/m3 at 25\u00c2\u00b0;C"
    },
    {
        "Site ID": "M35/4133",
        "SampleID": "NCY821293",
        "Collection Date": "22-Feb 1982 00:00am",
        "Measurement": "Hardness, Total",
        "Value": "36.000",
        "Units": "g/m3 as CaCO3"
    },
    {
        "Site ID": "M35/4133",
        "SampleID": "NCY821293",
        "Collection Date": "22-Feb 1982 00:00am",
        "Measurement": "Iron, Dissolved",
        "Value": "0.000",
        "Units": "mg/L"
    },
    {
        "Site ID": "M35/4133",
        "SampleID": "NCY821293",
        "Collection Date": "22-Feb 1982 00:00am",
        "Measurement": "Magnesium, Dissolved",
        "Value": "2.500",
        "Units": "mg/L"
    },
    {
        "Site ID": "M35/4133",
        "SampleID": "NCY821293",
        "Collection Date": "22-Feb 1982 00:00am",
        "Measurement": "Manganese, Dissolved",
        "Value": "0.0000",
        "Units": "mg/L"
    },
    {
        "Site ID": "M35/4133",
        "SampleID": "NCY821293",
        "Collection Date": "22-Feb 1982 00:00am",
        "Measurement": "Nitrate Nitrogen",
        "Value": "0.200",
        "Units": "mg/L"
    },
    {
        "Site ID": "M35/4133",
        "SampleID": "NCY821293",
        "Collection Date": "22-Feb 1982 00:00am",
        "Measurement": "pH",
        "Value": "7.8",
        "Units": ""
    },
    {
        "Site ID": "M35/4133",
        "SampleID": "NCY821293",
        "Collection Date": "22-Feb 1982 00:00am",
        "Measurement": "Potassium, Dissolved",
        "Value": "0.700",
        "Units": "mg/L"
    },
    {
        "Site ID": "M35/4133",
        "SampleID": "NCY821293",
        "Collection Date": "22-Feb 1982 00:00am",
        "Measurement": "Silica, Reactive",
        "Value": "20.300",
        "Units": "mg/L  as SiO2"
    },
    {
        "Site ID": "M35/4133",
        "SampleID": "NCY821293",
        "Collection Date": "22-Feb 1982 00:00am",
        "Measurement": "Sodium, Dissolved",
        "Value": "8.000",
        "Units": "mg/L"
    },
    {
        "Site ID": "M35/4133",
        "SampleID": "NCY821293",
        "Collection Date": "22-Feb 1982 00:00am",
        "Measurement": "Sulphate",
        "Value": "4.500",
        "Units": "mg/L"
    },
    {
        "Site ID": "M35/4133",
        "SampleID": "NCY821293",
        "Collection Date": "22-Feb 1982 00:00am",
        "Measurement": "Total Phosphorus",
        "Value": "0.003",
        "Units": "g/m3"
    }
]