[
    {
        "Site ID": "M35/2787",
        "SampleID": "NCY830359",
        "Collection Date": "15-Mar 1983 00:00am",
        "Measurement": "Alkalinity to pH 4.5 as HCO3",
        "Value": "54.000",
        "Units": "mg/L  as HCO3"
    },
    {
        "Site ID": "M35/2787",
        "SampleID": "NCY830359",
        "Collection Date": "15-Mar 1983 00:00am",
        "Measurement": "Ammoniacal Nitrogen",
        "Value": "0.000",
        "Units": "mg/L"
    },
    {
        "Site ID": "M35/2787",
        "SampleID": "NCY830359",
        "Collection Date": "15-Mar 1983 00:00am",
        "Measurement": "Bromide",
        "Value": "0.000",
        "Units": "g/m3"
    },
    {
        "Site ID": "M35/2787",
        "SampleID": "NCY830359",
        "Collection Date": "15-Mar 1983 00:00am",
        "Measurement": "Calcium, Dissolved",
        "Value": "13.700",
        "Units": "mg/L"
    },
    {
        "Site ID": "M35/2787",
        "SampleID": "NCY830359",
        "Collection Date": "15-Mar 1983 00:00am",
        "Measurement": "Chloride",
        "Value": "4.600",
        "Units": "mg/L"
    },
    {
        "Site ID": "M35/2787",
        "SampleID": "NCY830359",
        "Collection Date": "15-Mar 1983 00:00am",
        "Measurement": "Conductivity",
        "Value": "10.6",
        "Units": "mS/m"
    },
    {
        "Site ID": "M35/2787",
        "SampleID": "NCY830359",
        "Collection Date": "15-Mar 1983 00:00am",
        "Measurement": "Hardness, Total",
        "Value": "40.000",
        "Units": "g/m3 as CaCO3"
    },
    {
        "Site ID": "M35/2787",
        "SampleID": "NCY830359",
        "Collection Date": "15-Mar 1983 00:00am",
        "Measurement": "Iron, Dissolved",
        "Value": "0.000",
        "Units": "mg/L"
    },
    {
        "Site ID": "M35/2787",
        "SampleID": "NCY830359",
        "Collection Date": "15-Mar 1983 00:00am",
        "Measurement": "Magnesium, Dissolved",
        "Value": "1.500",
        "Units": "mg/L"
    },
    {
        "Site ID": "M35/2787",
        "SampleID": "NCY830359",
        "Collection Date": "15-Mar 1983 00:00am",
        "Measurement": "Manganese, Dissolved",
        "Value": "0.0000",
        "Units": "mg/L"
    },
    {
        "Site ID": "M35/2787",
        "SampleID": "NCY830359",
        "Collection Date": "15-Mar 1983 00:00am",
        "Measurement": "Nitrate Nitrogen",
        "Value": "0.300",
        "Units": "mg/L"
    },
    {
        "Site ID": "M35/2787",
        "SampleID": "NCY830359",
        "Collection Date": "15-Mar 1983 00:00am",
        "Measurement": "pH",
        "Value": "7.9",
        "Units": ""
    },
    {
        "Site ID": "M35/2787",
        "SampleID": "NCY830359",
        "Collection Date": "15-Mar 1983 00:00am",
        "Measurement": "Potassium, Dissolved",
        "Value": "0.800",
        "Units": "mg/L"
    },
    {
        "Site ID": "M35/2787",
        "SampleID": "NCY830359",
        "Collection Date": "15-Mar 1983 00:00am",
        "Measurement": "Silica, Reactive",
        "Value": "15.000",
        "Units": "mg/L  as SiO2"
    },
    {
        "Site ID": "M35/2787",
        "SampleID": "NCY830359",
        "Collection Date": "15-Mar 1983 00:00am",
        "Measurement": "Sodium, Dissolved",
        "Value": "6.500",
        "Units": "mg/L"
    },
    {
        "Site ID": "M35/2787",
        "SampleID": "NCY830359",
        "Collection Date": "15-Mar 1983 00:00am",
        "Measurement": "Sulphate",
        "Value": "4.800",
        "Units": "mg/L"
    }
]