[
    {
        "Site ID": "M35/2554",
        "SampleID": "NCY830348",
        "Collection Date": "09-Feb 1983 00:00am",
        "Measurement": "Alkalinity to pH 4.5 as HCO3",
        "Value": "66.000",
        "Units": "mg/L  as HCO3"
    },
    {
        "Site ID": "M35/2554",
        "SampleID": "NCY830348",
        "Collection Date": "09-Feb 1983 00:00am",
        "Measurement": "Ammoniacal Nitrogen",
        "Value": "0.000",
        "Units": "mg/L"
    },
    {
        "Site ID": "M35/2554",
        "SampleID": "NCY830348",
        "Collection Date": "09-Feb 1983 00:00am",
        "Measurement": "Bromide",
        "Value": "0.000",
        "Units": "g/m3"
    },
    {
        "Site ID": "M35/2554",
        "SampleID": "NCY830348",
        "Collection Date": "09-Feb 1983 00:00am",
        "Measurement": "Calcium, Dissolved",
        "Value": "14.000",
        "Units": "mg/L"
    },
    {
        "Site ID": "M35/2554",
        "SampleID": "NCY830348",
        "Collection Date": "09-Feb 1983 00:00am",
        "Measurement": "Chloride",
        "Value": "4.900",
        "Units": "mg/L"
    },
    {
        "Site ID": "M35/2554",
        "SampleID": "NCY830348",
        "Collection Date": "09-Feb 1983 00:00am",
        "Measurement": "Conductivity",
        "Value": "12.2",
        "Units": "mS/m"
    },
    {
        "Site ID": "M35/2554",
        "SampleID": "NCY830348",
        "Collection Date": "09-Feb 1983 00:00am",
        "Measurement": "Hardness, Total",
        "Value": "44.000",
        "Units": "g/m3 as CaCO3"
    },
    {
        "Site ID": "M35/2554",
        "SampleID": "NCY830348",
        "Collection Date": "09-Feb 1983 00:00am",
        "Measurement": "Iron, Dissolved",
        "Value": "0.000",
        "Units": "mg/L"
    },
    {
        "Site ID": "M35/2554",
        "SampleID": "NCY830348",
        "Collection Date": "09-Feb 1983 00:00am",
        "Measurement": "Magnesium, Dissolved",
        "Value": "2.100",
        "Units": "mg/L"
    },
    {
        "Site ID": "M35/2554",
        "SampleID": "NCY830348",
        "Collection Date": "09-Feb 1983 00:00am",
        "Measurement": "Manganese, Dissolved",
        "Value": "0.0000",
        "Units": "mg/L"
    },
    {
        "Site ID": "M35/2554",
        "SampleID": "NCY830348",
        "Collection Date": "09-Feb 1983 00:00am",
        "Measurement": "Nitrate Nitrogen",
        "Value": "0.200",
        "Units": "mg/L"
    },
    {
        "Site ID": "M35/2554",
        "SampleID": "NCY830348",
        "Collection Date": "09-Feb 1983 00:00am",
        "Measurement": "pH",
        "Value": "7.8",
        "Units": ""
    },
    {
        "Site ID": "M35/2554",
        "SampleID": "NCY830348",
        "Collection Date": "09-Feb 1983 00:00am",
        "Measurement": "Potassium, Dissolved",
        "Value": "0.540",
        "Units": "mg/L"
    },
    {
        "Site ID": "M35/2554",
        "SampleID": "NCY830348",
        "Collection Date": "09-Feb 1983 00:00am",
        "Measurement": "Silica, Reactive",
        "Value": "19.000",
        "Units": "mg/L  as SiO2"
    },
    {
        "Site ID": "M35/2554",
        "SampleID": "NCY830348",
        "Collection Date": "09-Feb 1983 00:00am",
        "Measurement": "Sodium, Dissolved",
        "Value": "9.300",
        "Units": "mg/L"
    },
    {
        "Site ID": "M35/2554",
        "SampleID": "NCY830348",
        "Collection Date": "09-Feb 1983 00:00am",
        "Measurement": "Sulphate",
        "Value": "5.300",
        "Units": "mg/L"
    },
    {
        "Site ID": "M35/2554",
        "SampleID": "NCY730012",
        "Collection Date": "20-Jun 1973 00:00am",
        "Measurement": "Alkalinity to pH 4.5 as HCO3",
        "Value": "67.000",
        "Units": "mg/L  as HCO3"
    },
    {
        "Site ID": "M35/2554",
        "SampleID": "NCY730012",
        "Collection Date": "20-Jun 1973 00:00am",
        "Measurement": "Ammoniacal Nitrogen",
        "Value": "0.000",
        "Units": "mg/L"
    },
    {
        "Site ID": "M35/2554",
        "SampleID": "NCY730012",
        "Collection Date": "20-Jun 1973 00:00am",
        "Measurement": "Calcium, Dissolved",
        "Value": "15.000",
        "Units": "mg/L"
    },
    {
        "Site ID": "M35/2554",
        "SampleID": "NCY730012",
        "Collection Date": "20-Jun 1973 00:00am",
        "Measurement": "Carbonate Alkalinity",
        "Value": "0.000",
        "Units": "mg/L CO3"
    },
    {
        "Site ID": "M35/2554",
        "SampleID": "NCY730012",
        "Collection Date": "20-Jun 1973 00:00am",
        "Measurement": "Chloride",
        "Value": "5.000",
        "Units": "mg/L"
    },
    {
        "Site ID": "M35/2554",
        "SampleID": "NCY730012",
        "Collection Date": "20-Jun 1973 00:00am",
        "Measurement": "Dissolved Oxygen",
        "Value": "5.600",
        "Units": "mg/L"
    },
    {
        "Site ID": "M35/2554",
        "SampleID": "NCY730012",
        "Collection Date": "20-Jun 1973 00:00am",
        "Measurement": "Dissolved Reactive Phosphorus",
        "Value": "0.0150",
        "Units": "mg/L"
    },
    {
        "Site ID": "M35/2554",
        "SampleID": "NCY730012",
        "Collection Date": "20-Jun 1973 00:00am",
        "Measurement": "Fluoride",
        "Value": "0.100",
        "Units": "g/m3"
    },
    {
        "Site ID": "M35/2554",
        "SampleID": "NCY730012",
        "Collection Date": "20-Jun 1973 00:00am",
        "Measurement": "Free Carbon Dioxide",
        "Value": "2.000",
        "Units": "g/m3 at 25\u00b0;C"
    },
    {
        "Site ID": "M35/2554",
        "SampleID": "NCY730012",
        "Collection Date": "20-Jun 1973 00:00am",
        "Measurement": "Hardness, Total",
        "Value": "47.000",
        "Units": "g/m3 as CaCO3"
    },
    {
        "Site ID": "M35/2554",
        "SampleID": "NCY730012",
        "Collection Date": "20-Jun 1973 00:00am",
        "Measurement": "Iron, Dissolved",
        "Value": "0.040",
        "Units": "mg/L"
    },
    {
        "Site ID": "M35/2554",
        "SampleID": "NCY730012",
        "Collection Date": "20-Jun 1973 00:00am",
        "Measurement": "Magnesium, Dissolved",
        "Value": "2.000",
        "Units": "mg/L"
    },
    {
        "Site ID": "M35/2554",
        "SampleID": "NCY730012",
        "Collection Date": "20-Jun 1973 00:00am",
        "Measurement": "Manganese, Dissolved",
        "Value": "0.0000",
        "Units": "mg/L"
    },
    {
        "Site ID": "M35/2554",
        "SampleID": "NCY730012",
        "Collection Date": "20-Jun 1973 00:00am",
        "Measurement": "Nitrate Nitrogen",
        "Value": "0.150",
        "Units": "mg/L"
    },
    {
        "Site ID": "M35/2554",
        "SampleID": "NCY730012",
        "Collection Date": "20-Jun 1973 00:00am",
        "Measurement": "Nitrite Nitrogen",
        "Value": "0.000",
        "Units": "mg/L"
    },
    {
        "Site ID": "M35/2554",
        "SampleID": "NCY730012",
        "Collection Date": "20-Jun 1973 00:00am",
        "Measurement": "pH",
        "Value": "7.8",
        "Units": ""
    },
    {
        "Site ID": "M35/2554",
        "SampleID": "NCY730012",
        "Collection Date": "20-Jun 1973 00:00am",
        "Measurement": "Potassium, Dissolved",
        "Value": "0.800",
        "Units": "mg/L"
    },
    {
        "Site ID": "M35/2554",
        "SampleID": "NCY730012",
        "Collection Date": "20-Jun 1973 00:00am",
        "Measurement": "Silica, Reactive",
        "Value": "18.000",
        "Units": "mg/L  as SiO2"
    },
    {
        "Site ID": "M35/2554",
        "SampleID": "NCY730012",
        "Collection Date": "20-Jun 1973 00:00am",
        "Measurement": "Sodium, Dissolved",
        "Value": "9.700",
        "Units": "mg/L"
    },
    {
        "Site ID": "M35/2554",
        "SampleID": "NCY730012",
        "Collection Date": "20-Jun 1973 00:00am",
        "Measurement": "Sulphate",
        "Value": "5.000",
        "Units": "mg/L"
    },
    {
        "Site ID": "M35/2554",
        "SampleID": "NCY730012",
        "Collection Date": "20-Jun 1973 00:00am",
        "Measurement": "Total Coliforms",
        "Value": "0",
        "Units": "number/100mL"
    },
    {
        "Site ID": "M35/2554",
        "SampleID": "NCY730012",
        "Collection Date": "20-Jun 1973 00:00am",
        "Measurement": "Turbidity",
        "Value": "0.0",
        "Units": "NTU"
    },
    {
        "Site ID": "M35/2554",
        "SampleID": "ISOTO3195",
        "Collection Date": "20-May 1970 00:05am",
        "Measurement": "Oxygen 18",
        "Value": "-8.730",
        "Units": "\u0089"
    },
    {
        "Site ID": "M35/2554",
        "SampleID": "ISOTO3195",
        "Collection Date": "20-May 1970 00:05am",
        "Measurement": "Oxygen 18 Error of Measurement",
        "Value": "0.130",
        "Units": "%"
    },
    {
        "Site ID": "M35/2554",
        "SampleID": "ISOTO3194",
        "Collection Date": "20-May 1970 00:00am",
        "Measurement": "Tritium concentration",
        "Value": "1.020",
        "Units": "TU"
    },
    {
        "Site ID": "M35/2554",
        "SampleID": "ISOTO3194",
        "Collection Date": "20-May 1970 00:00am",
        "Measurement": "Tritium standard uncertainty",
        "Value": "0.090",
        "Units": "TU"
    },
    {
        "Site ID": "M35/2554",
        "SampleID": "NCY630001",
        "Collection Date": "03-May 1963 04:39am",
        "Measurement": "Ammoniacal Nitrogen",
        "Value": "0.006",
        "Units": "mg/L"
    },
    {
        "Site ID": "M35/2554",
        "SampleID": "NCY630001",
        "Collection Date": "03-May 1963 04:39am",
        "Measurement": "Chloride",
        "Value": "4.000",
        "Units": "mg/L"
    },
    {
        "Site ID": "M35/2554",
        "SampleID": "NCY630001",
        "Collection Date": "03-May 1963 04:39am",
        "Measurement": "Free Carbon Dioxide",
        "Value": "0.000",
        "Units": "g/m3 at 25\u00b0;C"
    },
    {
        "Site ID": "M35/2554",
        "SampleID": "NCY630001",
        "Collection Date": "03-May 1963 04:39am",
        "Measurement": "Hardness, Total",
        "Value": "63.000",
        "Units": "g/m3 as CaCO3"
    },
    {
        "Site ID": "M35/2554",
        "SampleID": "NCY630001",
        "Collection Date": "03-May 1963 04:39am",
        "Measurement": "Iron, Dissolved",
        "Value": "0.000",
        "Units": "mg/L"
    },
    {
        "Site ID": "M35/2554",
        "SampleID": "NCY630001",
        "Collection Date": "03-May 1963 04:39am",
        "Measurement": "Nitrate Nitrogen",
        "Value": "0.000",
        "Units": "mg/L"
    },
    {
        "Site ID": "M35/2554",
        "SampleID": "NCY630001",
        "Collection Date": "03-May 1963 04:39am",
        "Measurement": "pH",
        "Value": "7.4",
        "Units": ""
    },
    {
        "Site ID": "M35/2554",
        "SampleID": "NCY630001",
        "Collection Date": "03-May 1963 04:39am",
        "Measurement": "Total Coliforms",
        "Value": "0",
        "Units": "number/100mL"
    }
]