[
    {
        "Site ID": "M35/9021",
        "SampleID": "1000913",
        "Collection Date": "30-Apr 2010 12:30pm",
        "Measurement": "Alkalinity to pH 4.5 as HCO3",
        "Value": "63.000",
        "Units": "mg/L  as HCO3"
    },
    {
        "Site ID": "M35/9021",
        "SampleID": "1000913",
        "Collection Date": "30-Apr 2010 12:30pm",
        "Measurement": "Ammoniacal Nitrogen",
        "Value": "<0.005",
        "Units": "mg/L"
    },
    {
        "Site ID": "M35/9021",
        "SampleID": "1000913",
        "Collection Date": "30-Apr 2010 12:30pm",
        "Measurement": "Calcium, Dissolved",
        "Value": "13.000",
        "Units": "mg/L"
    },
    {
        "Site ID": "M35/9021",
        "SampleID": "1000913",
        "Collection Date": "30-Apr 2010 12:30pm",
        "Measurement": "Chloride",
        "Value": "6.300",
        "Units": "mg/L"
    },
    {
        "Site ID": "M35/9021",
        "SampleID": "1000913",
        "Collection Date": "30-Apr 2010 12:30pm",
        "Measurement": "Conductivity",
        "Value": "15.0",
        "Units": "mS/m"
    },
    {
        "Site ID": "M35/9021",
        "SampleID": "1000913",
        "Collection Date": "30-Apr 2010 12:30pm",
        "Measurement": "Conductivity (Field)",
        "Value": "15.50",
        "Units": "mS/m"
    },
    {
        "Site ID": "M35/9021",
        "SampleID": "1000913",
        "Collection Date": "30-Apr 2010 12:30pm",
        "Measurement": "Difference in Ion Balance",
        "Value": "-3.800",
        "Units": "%"
    },
    {
        "Site ID": "M35/9021",
        "SampleID": "1000913",
        "Collection Date": "30-Apr 2010 12:30pm",
        "Measurement": "Dissolved Oxygen",
        "Value": "3.500",
        "Units": "mg/L"
    },
    {
        "Site ID": "M35/9021",
        "SampleID": "1000913",
        "Collection Date": "30-Apr 2010 12:30pm",
        "Measurement": "Dissolved Oxygen Saturation",
        "Value": "32.000",
        "Units": "%"
    },
    {
        "Site ID": "M35/9021",
        "SampleID": "1000913",
        "Collection Date": "30-Apr 2010 12:30pm",
        "Measurement": "Dissolved Reactive Phosphorus",
        "Value": "0.0070",
        "Units": "mg/L"
    },
    {
        "Site ID": "M35/9021",
        "SampleID": "1000913",
        "Collection Date": "30-Apr 2010 12:30pm",
        "Measurement": "Hardness, Total",
        "Value": "51.000",
        "Units": "g/m3 as CaCO3"
    },
    {
        "Site ID": "M35/9021",
        "SampleID": "1000913",
        "Collection Date": "30-Apr 2010 12:30pm",
        "Measurement": "Iron, Dissolved",
        "Value": "<0.030",
        "Units": "mg/L"
    },
    {
        "Site ID": "M35/9021",
        "SampleID": "1000913",
        "Collection Date": "30-Apr 2010 12:30pm",
        "Measurement": "Magnesium, Dissolved",
        "Value": "4.600",
        "Units": "mg/L"
    },
    {
        "Site ID": "M35/9021",
        "SampleID": "1000913",
        "Collection Date": "30-Apr 2010 12:30pm",
        "Measurement": "Manganese, Dissolved",
        "Value": "<0.0100",
        "Units": "mg/L"
    },
    {
        "Site ID": "M35/9021",
        "SampleID": "1000913",
        "Collection Date": "30-Apr 2010 12:30pm",
        "Measurement": "Nitrate Nitrogen",
        "Value": "3.000",
        "Units": "mg/L"
    },
    {
        "Site ID": "M35/9021",
        "SampleID": "1000913",
        "Collection Date": "30-Apr 2010 12:30pm",
        "Measurement": "Oxygen 18",
        "Value": "-8.830",
        "Units": "\u0089"
    },
    {
        "Site ID": "M35/9021",
        "SampleID": "1000913",
        "Collection Date": "30-Apr 2010 12:30pm",
        "Measurement": "pH",
        "Value": "6.6",
        "Units": ""
    },
    {
        "Site ID": "M35/9021",
        "SampleID": "1000913",
        "Collection Date": "30-Apr 2010 12:30pm",
        "Measurement": "pH (Field)",
        "Value": "6.30",
        "Units": ""
    },
    {
        "Site ID": "M35/9021",
        "SampleID": "1000913",
        "Collection Date": "30-Apr 2010 12:30pm",
        "Measurement": "Potassium, Dissolved",
        "Value": "2.200",
        "Units": "mg/L"
    },
    {
        "Site ID": "M35/9021",
        "SampleID": "1000913",
        "Collection Date": "30-Apr 2010 12:30pm",
        "Measurement": "Silica, Reactive",
        "Value": "17.000",
        "Units": "mg/L  as SiO2"
    },
    {
        "Site ID": "M35/9021",
        "SampleID": "1000913",
        "Collection Date": "30-Apr 2010 12:30pm",
        "Measurement": "Sodium, Dissolved",
        "Value": "8.800",
        "Units": "mg/L"
    },
    {
        "Site ID": "M35/9021",
        "SampleID": "1000913",
        "Collection Date": "30-Apr 2010 12:30pm",
        "Measurement": "Sulphate",
        "Value": "7.400",
        "Units": "mg/L"
    },
    {
        "Site ID": "M35/9021",
        "SampleID": "1000913",
        "Collection Date": "30-Apr 2010 12:30pm",
        "Measurement": "Sum of anions",
        "Value": "1.579",
        "Units": "meq/L"
    },
    {
        "Site ID": "M35/9021",
        "SampleID": "1000913",
        "Collection Date": "30-Apr 2010 12:30pm",
        "Measurement": "Sum of cations",
        "Value": "1.464",
        "Units": "meq/L"
    },
    {
        "Site ID": "M35/9021",
        "SampleID": "1000913",
        "Collection Date": "30-Apr 2010 12:30pm",
        "Measurement": "Water Temperature (Field)",
        "Value": "12.6",
        "Units": "C"
    },
    {
        "Site ID": "M35/9021",
        "SampleID": "IS100430A",
        "Collection Date": "30-Apr 2010 00:00am",
        "Measurement": "Argon",
        "Value": "0.391",
        "Units": "mL(STP)/kg"
    },
    {
        "Site ID": "M35/9021",
        "SampleID": "IS100430A",
        "Collection Date": "30-Apr 2010 00:00am",
        "Measurement": "Argon, Standard uncertainty",
        "Value": "0.006",
        "Units": "mL(STP)/kg"
    },
    {
        "Site ID": "M35/9021",
        "SampleID": "IS100430A",
        "Collection Date": "30-Apr 2010 00:00am",
        "Measurement": "CFC-11 95% confidence interval age range",
        "Value": "39.000",
        "Units": "Year"
    },
    {
        "Site ID": "M35/9021",
        "SampleID": "IS100430A",
        "Collection Date": "30-Apr 2010 00:00am",
        "Measurement": "CFC-11 age",
        "Value": "40.000",
        "Units": "Year"
    },
    {
        "Site ID": "M35/9021",
        "SampleID": "IS100430A",
        "Collection Date": "30-Apr 2010 00:00am",
        "Measurement": "CFC-11 partial pressure",
        "Value": "86.600",
        "Units": "pptv"
    },
    {
        "Site ID": "M35/9021",
        "SampleID": "IS100430A",
        "Collection Date": "30-Apr 2010 00:00am",
        "Measurement": "CFC-11 partial pressure Standard Uncertainty",
        "Value": "6.100",
        "Units": "pptv"
    },
    {
        "Site ID": "M35/9021",
        "SampleID": "IS100430A",
        "Collection Date": "30-Apr 2010 00:00am",
        "Measurement": "CFC-11, Dissolved",
        "Value": "1.680",
        "Units": "pmol/kg"
    },
    {
        "Site ID": "M35/9021",
        "SampleID": "IS100430A",
        "Collection Date": "30-Apr 2010 00:00am",
        "Measurement": "CFC-11, Dissolved Uncertainty",
        "Value": "0.030",
        "Units": "pmol/kg"
    },
    {
        "Site ID": "M35/9021",
        "SampleID": "IS100430A",
        "Collection Date": "30-Apr 2010 00:00am",
        "Measurement": "CFC-12 95% confidence interval age range",
        "Value": "28.000",
        "Units": "Year"
    },
    {
        "Site ID": "M35/9021",
        "SampleID": "IS100430A",
        "Collection Date": "30-Apr 2010 00:00am",
        "Measurement": "CFC-12 age",
        "Value": "31.000",
        "Units": "Year"
    },
    {
        "Site ID": "M35/9021",
        "SampleID": "IS100430A",
        "Collection Date": "30-Apr 2010 00:00am",
        "Measurement": "CFC-12 partial pressure",
        "Value": "286.200",
        "Units": "pptv"
    },
    {
        "Site ID": "M35/9021",
        "SampleID": "IS100430A",
        "Collection Date": "30-Apr 2010 00:00am",
        "Measurement": "CFC-12 partial pressure Standard Uncertainty",
        "Value": "22.000",
        "Units": "pptv"
    },
    {
        "Site ID": "M35/9021",
        "SampleID": "IS100430A",
        "Collection Date": "30-Apr 2010 00:00am",
        "Measurement": "CFC-12, Dissolved",
        "Value": "1.470",
        "Units": "pmol/kg"
    },
    {
        "Site ID": "M35/9021",
        "SampleID": "IS100430A",
        "Collection Date": "30-Apr 2010 00:00am",
        "Measurement": "CFC-12, Dissolved Uncertainty",
        "Value": "0.100",
        "Units": "pmol/kg"
    },
    {
        "Site ID": "M35/9021",
        "SampleID": "IS100430A",
        "Collection Date": "30-Apr 2010 00:00am",
        "Measurement": "Excess air",
        "Value": "1.900",
        "Units": "mL(STP)/kg"
    },
    {
        "Site ID": "M35/9021",
        "SampleID": "IS100430A",
        "Collection Date": "30-Apr 2010 00:00am",
        "Measurement": "Excess air standard uncertainty",
        "Value": "0.600",
        "Units": "mL(STP)/kg"
    },
    {
        "Site ID": "M35/9021",
        "SampleID": "IS100430A",
        "Collection Date": "30-Apr 2010 00:00am",
        "Measurement": "Exponential Mixed Flow",
        "Value": "35.000",
        "Units": "%"
    },
    {
        "Site ID": "M35/9021",
        "SampleID": "IS100430A",
        "Collection Date": "30-Apr 2010 00:00am",
        "Measurement": "IGNS Sample Reference",
        "Value": "*",
        "Units": ""
    },
    {
        "Site ID": "M35/9021",
        "SampleID": "IS100430A",
        "Collection Date": "30-Apr 2010 00:00am",
        "Measurement": "Nitrogen, Gas",
        "Value": "15.610",
        "Units": "mL(STP)/kg"
    },
    {
        "Site ID": "M35/9021",
        "SampleID": "IS100430A",
        "Collection Date": "30-Apr 2010 00:00am",
        "Measurement": "Nitrogen, Gas standard uncertainty",
        "Value": "0.150",
        "Units": "mL(STP)/kg"
    },
    {
        "Site ID": "M35/9021",
        "SampleID": "IS100430A",
        "Collection Date": "30-Apr 2010 00:00am",
        "Measurement": "Recharge elevation",
        "Value": "57.000",
        "Units": "m"
    },
    {
        "Site ID": "M35/9021",
        "SampleID": "IS100430A",
        "Collection Date": "30-Apr 2010 00:00am",
        "Measurement": "Recharge temperature",
        "Value": "11.300",
        "Units": "\u00b0C"
    },
    {
        "Site ID": "M35/9021",
        "SampleID": "IS100430A",
        "Collection Date": "30-Apr 2010 00:00am",
        "Measurement": "Recharge temperature standard uncertaint",
        "Value": "1.300",
        "Units": "\u00b0C"
    },
    {
        "Site ID": "M35/9021",
        "SampleID": "IS100430A",
        "Collection Date": "30-Apr 2010 00:00am",
        "Measurement": "Recommended model age",
        "Value": "70.000",
        "Units": "Year"
    },
    {
        "Site ID": "M35/9021",
        "SampleID": "IS100430A",
        "Collection Date": "30-Apr 2010 00:00am",
        "Measurement": "Relative humidity",
        "Value": "100.000",
        "Units": "%"
    },
    {
        "Site ID": "M35/9021",
        "SampleID": "IS100430A",
        "Collection Date": "30-Apr 2010 00:00am",
        "Measurement": "SF6 95% confidence interval age range",
        "Value": "12.000",
        "Units": "Year"
    },
    {
        "Site ID": "M35/9021",
        "SampleID": "IS100430A",
        "Collection Date": "30-Apr 2010 00:00am",
        "Measurement": "SF6 age",
        "Value": "15.000",
        "Units": "Year"
    },
    {
        "Site ID": "M35/9021",
        "SampleID": "IS100430A",
        "Collection Date": "30-Apr 2010 00:00am",
        "Measurement": "SF6 partial pressure",
        "Value": "3.390",
        "Units": " pptv"
    },
    {
        "Site ID": "M35/9021",
        "SampleID": "IS100430A",
        "Collection Date": "30-Apr 2010 00:00am",
        "Measurement": "SF6 partial pressure standard uncertainty",
        "Value": "0.260",
        "Units": " pptv"
    },
    {
        "Site ID": "M35/9021",
        "SampleID": "IS100430A",
        "Collection Date": "30-Apr 2010 00:00am",
        "Measurement": "SF6, Dissolved",
        "Value": "1.576",
        "Units": "fmol/kg"
    },
    {
        "Site ID": "M35/9021",
        "SampleID": "IS100430A",
        "Collection Date": "30-Apr 2010 00:00am",
        "Measurement": "SF6, Dissolved Uncertainty",
        "Value": "0.052",
        "Units": "fmol/kg"
    },
    {
        "Site ID": "M35/9021",
        "SampleID": "IS100430A",
        "Collection Date": "30-Apr 2010 00:00am",
        "Measurement": "Tritium 95% confidence interval age range",
        "Value": "38.000",
        "Units": "Year"
    },
    {
        "Site ID": "M35/9021",
        "SampleID": "IS100430A",
        "Collection Date": "30-Apr 2010 00:00am",
        "Measurement": "Tritium age",
        "Value": "42.000",
        "Units": "Year"
    },
    {
        "Site ID": "M35/9021",
        "SampleID": "IS100430A",
        "Collection Date": "30-Apr 2010 00:00am",
        "Measurement": "Tritium concentration",
        "Value": "1.441",
        "Units": "TU"
    },
    {
        "Site ID": "M35/9021",
        "SampleID": "IS100430A",
        "Collection Date": "30-Apr 2010 00:00am",
        "Measurement": "Tritium standard uncertainty",
        "Value": "0.035",
        "Units": "TU"
    },
    {
        "Site ID": "M35/9021",
        "SampleID": "IS060621B",
        "Collection Date": "21-Jun 2006 00:00am",
        "Measurement": "Argon",
        "Value": "0.377",
        "Units": "mL(STP)/kg"
    },
    {
        "Site ID": "M35/9021",
        "SampleID": "IS060621B",
        "Collection Date": "21-Jun 2006 00:00am",
        "Measurement": "Argon, Standard deviation",
        "Value": "0.004",
        "Units": "mL(STP)/kg"
    },
    {
        "Site ID": "M35/9021",
        "SampleID": "IS060621B",
        "Collection Date": "21-Jun 2006 00:00am",
        "Measurement": "Argon, Standard uncertainty",
        "Value": "0.006",
        "Units": "mL(STP)/kg"
    },
    {
        "Site ID": "M35/9021",
        "SampleID": "IS060621B",
        "Collection Date": "21-Jun 2006 00:00am",
        "Measurement": "CFC-11 age",
        "Value": "*",
        "Units": "Year"
    },
    {
        "Site ID": "M35/9021",
        "SampleID": "IS060621B",
        "Collection Date": "21-Jun 2006 00:00am",
        "Measurement": "CFC-11 partial pressure",
        "Value": "135.800",
        "Units": "pptv"
    },
    {
        "Site ID": "M35/9021",
        "SampleID": "IS060621B",
        "Collection Date": "21-Jun 2006 00:00am",
        "Measurement": "CFC-11 partial pressure Standard Deviation",
        "Value": "0.900",
        "Units": "pptv"
    },
    {
        "Site ID": "M35/9021",
        "SampleID": "IS060621B",
        "Collection Date": "21-Jun 2006 00:00am",
        "Measurement": "CFC-11 partial pressure Standard Uncertainty",
        "Value": "11.200",
        "Units": "pptv"
    },
    {
        "Site ID": "M35/9021",
        "SampleID": "IS060621B",
        "Collection Date": "21-Jun 2006 00:00am",
        "Measurement": "CFC-11, Dissolved",
        "Value": "2.500",
        "Units": "pmol/kg"
    },
    {
        "Site ID": "M35/9021",
        "SampleID": "IS060621B",
        "Collection Date": "21-Jun 2006 00:00am",
        "Measurement": "CFC-11, Dissolved Standard Deviation",
        "Value": "0.000",
        "Units": "pmol/kg"
    },
    {
        "Site ID": "M35/9021",
        "SampleID": "IS060621B",
        "Collection Date": "21-Jun 2006 00:00am",
        "Measurement": "CFC-11, Dissolved Uncertainty",
        "Value": "0.000",
        "Units": "pmol/kg"
    },
    {
        "Site ID": "M35/9021",
        "SampleID": "IS060621B",
        "Collection Date": "21-Jun 2006 00:00am",
        "Measurement": "CFC-12 age",
        "Value": "*",
        "Units": "Year"
    },
    {
        "Site ID": "M35/9021",
        "SampleID": "IS060621B",
        "Collection Date": "21-Jun 2006 00:00am",
        "Measurement": "CFC-12 partial pressure",
        "Value": "469.200",
        "Units": "pptv"
    },
    {
        "Site ID": "M35/9021",
        "SampleID": "IS060621B",
        "Collection Date": "21-Jun 2006 00:00am",
        "Measurement": "CFC-12 partial pressure Standard Deviation",
        "Value": "6.700",
        "Units": "pptv"
    },
    {
        "Site ID": "M35/9021",
        "SampleID": "IS060621B",
        "Collection Date": "21-Jun 2006 00:00am",
        "Measurement": "CFC-12 partial pressure Standard Uncertainty",
        "Value": "40.200",
        "Units": "pptv"
    },
    {
        "Site ID": "M35/9021",
        "SampleID": "IS060621B",
        "Collection Date": "21-Jun 2006 00:00am",
        "Measurement": "CFC-12, Dissolved",
        "Value": "2.300",
        "Units": "pmol/kg"
    },
    {
        "Site ID": "M35/9021",
        "SampleID": "IS060621B",
        "Collection Date": "21-Jun 2006 00:00am",
        "Measurement": "CFC-12, Dissolved Standard Deviation",
        "Value": "0.000",
        "Units": "pmol/kg"
    },
    {
        "Site ID": "M35/9021",
        "SampleID": "IS060621B",
        "Collection Date": "21-Jun 2006 00:00am",
        "Measurement": "CFC-12, Dissolved Uncertainty",
        "Value": "0.100",
        "Units": "pmol/kg"
    },
    {
        "Site ID": "M35/9021",
        "SampleID": "IS060621B",
        "Collection Date": "21-Jun 2006 00:00am",
        "Measurement": "Excess air",
        "Value": "1.200",
        "Units": "mL(STP)/kg"
    },
    {
        "Site ID": "M35/9021",
        "SampleID": "IS060621B",
        "Collection Date": "21-Jun 2006 00:00am",
        "Measurement": "Excess air standard deviation",
        "Value": "0.300",
        "Units": "mL(STP)/kg"
    },
    {
        "Site ID": "M35/9021",
        "SampleID": "IS060621B",
        "Collection Date": "21-Jun 2006 00:00am",
        "Measurement": "Excess air standard uncertainty",
        "Value": "0.800",
        "Units": "mL(STP)/kg"
    },
    {
        "Site ID": "M35/9021",
        "SampleID": "IS060621B",
        "Collection Date": "21-Jun 2006 00:00am",
        "Measurement": "Exponential Mixed Flow",
        "Value": "20.000",
        "Units": "%"
    },
    {
        "Site ID": "M35/9021",
        "SampleID": "IS060621B",
        "Collection Date": "21-Jun 2006 00:00am",
        "Measurement": "IGNS Sample Reference",
        "Value": "*",
        "Units": ""
    },
    {
        "Site ID": "M35/9021",
        "SampleID": "IS060621B",
        "Collection Date": "21-Jun 2006 00:00am",
        "Measurement": "Nitrogen, Gas",
        "Value": "14.830",
        "Units": "mL(STP)/kg"
    },
    {
        "Site ID": "M35/9021",
        "SampleID": "IS060621B",
        "Collection Date": "21-Jun 2006 00:00am",
        "Measurement": "Nitrogen, Gas standard deviation",
        "Value": "0.310",
        "Units": "mL(STP)/kg"
    },
    {
        "Site ID": "M35/9021",
        "SampleID": "IS060621B",
        "Collection Date": "21-Jun 2006 00:00am",
        "Measurement": "Nitrogen, Gas standard uncertainty",
        "Value": "0.280",
        "Units": "mL(STP)/kg"
    },
    {
        "Site ID": "M35/9021",
        "SampleID": "IS060621B",
        "Collection Date": "21-Jun 2006 00:00am",
        "Measurement": "Recharge temperature",
        "Value": "12.100",
        "Units": "\u00b0C"
    },
    {
        "Site ID": "M35/9021",
        "SampleID": "IS060621B",
        "Collection Date": "21-Jun 2006 00:00am",
        "Measurement": "Recharge temperature standard deviation",
        "Value": "0.200",
        "Units": "\u00b0C"
    },
    {
        "Site ID": "M35/9021",
        "SampleID": "IS060621B",
        "Collection Date": "21-Jun 2006 00:00am",
        "Measurement": "Recharge temperature standard uncertaint",
        "Value": "1.600",
        "Units": "\u00b0C"
    },
    {
        "Site ID": "M35/9021",
        "SampleID": "IS060621B",
        "Collection Date": "21-Jun 2006 00:00am",
        "Measurement": "SF6 age",
        "Value": "*",
        "Units": "Year"
    },
    {
        "Site ID": "M35/9021",
        "SampleID": "IS060621B",
        "Collection Date": "21-Jun 2006 00:00am",
        "Measurement": "SF6 partial pressure",
        "Value": "4.430",
        "Units": " pptv"
    },
    {
        "Site ID": "M35/9021",
        "SampleID": "IS060621B",
        "Collection Date": "21-Jun 2006 00:00am",
        "Measurement": "SF6 partial pressure standard uncertainty",
        "Value": "0.980",
        "Units": " pptv"
    },
    {
        "Site ID": "M35/9021",
        "SampleID": "IS060621B",
        "Collection Date": "21-Jun 2006 00:00am",
        "Measurement": "SF6, Dissolved",
        "Value": "1.867",
        "Units": "fmol/kg"
    },
    {
        "Site ID": "M35/9021",
        "SampleID": "IS060621B",
        "Collection Date": "21-Jun 2006 00:00am",
        "Measurement": "SF6, Dissolved Uncertainty",
        "Value": "0.373",
        "Units": "fmol/kg"
    },
    {
        "Site ID": "M35/9021",
        "SampleID": "IS060621B",
        "Collection Date": "21-Jun 2006 00:00am",
        "Measurement": "Tritium age",
        "Value": "30.000",
        "Units": "Year"
    },
    {
        "Site ID": "M35/9021",
        "SampleID": "IS060621B",
        "Collection Date": "21-Jun 2006 00:00am",
        "Measurement": "Tritium concentration",
        "Value": "1.920",
        "Units": "TU"
    }
]