[
    {
        "Site ID": "M35/2873",
        "SampleID": "IS100415B",
        "Collection Date": "15-Apr 2010 00:00am",
        "Measurement": "Argon",
        "Value": "0.396",
        "Units": "mL(STP)/kg"
    },
    {
        "Site ID": "M35/2873",
        "SampleID": "IS100415B",
        "Collection Date": "15-Apr 2010 00:00am",
        "Measurement": "Argon, Standard uncertainty",
        "Value": "0.006",
        "Units": "mL(STP)/kg"
    },
    {
        "Site ID": "M35/2873",
        "SampleID": "IS100415B",
        "Collection Date": "15-Apr 2010 00:00am",
        "Measurement": "CFC-11 95% confidence interval age range",
        "Value": "36.000",
        "Units": "Year"
    },
    {
        "Site ID": "M35/2873",
        "SampleID": "IS100415B",
        "Collection Date": "15-Apr 2010 00:00am",
        "Measurement": "CFC-11 age",
        "Value": "39.000",
        "Units": "Year"
    },
    {
        "Site ID": "M35/2873",
        "SampleID": "IS100415B",
        "Collection Date": "15-Apr 2010 00:00am",
        "Measurement": "CFC-11 partial pressure",
        "Value": "93.600",
        "Units": "pptv"
    },
    {
        "Site ID": "M35/2873",
        "SampleID": "IS100415B",
        "Collection Date": "15-Apr 2010 00:00am",
        "Measurement": "CFC-11 partial pressure Standard Uncertainty",
        "Value": "7.600",
        "Units": "pptv"
    },
    {
        "Site ID": "M35/2873",
        "SampleID": "IS100415B",
        "Collection Date": "15-Apr 2010 00:00am",
        "Measurement": "CFC-11, Dissolved",
        "Value": "1.900",
        "Units": "pmol/kg"
    },
    {
        "Site ID": "M35/2873",
        "SampleID": "IS100415B",
        "Collection Date": "15-Apr 2010 00:00am",
        "Measurement": "CFC-11, Dissolved Uncertainty",
        "Value": "0.000",
        "Units": "pmol/kg"
    },
    {
        "Site ID": "M35/2873",
        "SampleID": "IS100415B",
        "Collection Date": "15-Apr 2010 00:00am",
        "Measurement": "CFC-12 95% confidence interval age range",
        "Value": "22.000",
        "Units": "Year"
    },
    {
        "Site ID": "M35/2873",
        "SampleID": "IS100415B",
        "Collection Date": "15-Apr 2010 00:00am",
        "Measurement": "CFC-12 age",
        "Value": "26.000",
        "Units": "Year"
    },
    {
        "Site ID": "M35/2873",
        "SampleID": "IS100415B",
        "Collection Date": "15-Apr 2010 00:00am",
        "Measurement": "CFC-12 partial pressure",
        "Value": "365.400",
        "Units": "pptv"
    },
    {
        "Site ID": "M35/2873",
        "SampleID": "IS100415B",
        "Collection Date": "15-Apr 2010 00:00am",
        "Measurement": "CFC-12 partial pressure Standard Uncertainty",
        "Value": "32.000",
        "Units": "pptv"
    },
    {
        "Site ID": "M35/2873",
        "SampleID": "IS100415B",
        "Collection Date": "15-Apr 2010 00:00am",
        "Measurement": "CFC-12, Dissolved",
        "Value": "1.900",
        "Units": "pmol/kg"
    },
    {
        "Site ID": "M35/2873",
        "SampleID": "IS100415B",
        "Collection Date": "15-Apr 2010 00:00am",
        "Measurement": "CFC-12, Dissolved Uncertainty",
        "Value": "0.100",
        "Units": "pmol/kg"
    },
    {
        "Site ID": "M35/2873",
        "SampleID": "IS100415B",
        "Collection Date": "15-Apr 2010 00:00am",
        "Measurement": "Excess air",
        "Value": "2.000",
        "Units": "mL(STP)/kg"
    },
    {
        "Site ID": "M35/2873",
        "SampleID": "IS100415B",
        "Collection Date": "15-Apr 2010 00:00am",
        "Measurement": "Excess air standard uncertainty",
        "Value": "0.800",
        "Units": "mL(STP)/kg"
    },
    {
        "Site ID": "M35/2873",
        "SampleID": "IS100415B",
        "Collection Date": "15-Apr 2010 00:00am",
        "Measurement": "Exponential Mixed Flow",
        "Value": "30.000",
        "Units": "%"
    },
    {
        "Site ID": "M35/2873",
        "SampleID": "IS100415B",
        "Collection Date": "15-Apr 2010 00:00am",
        "Measurement": "IGNS Sample Reference",
        "Value": "*",
        "Units": ""
    },
    {
        "Site ID": "M35/2873",
        "SampleID": "IS100415B",
        "Collection Date": "15-Apr 2010 00:00am",
        "Measurement": "Nitrogen, Gas",
        "Value": "15.820",
        "Units": "mL(STP)/kg"
    },
    {
        "Site ID": "M35/2873",
        "SampleID": "IS100415B",
        "Collection Date": "15-Apr 2010 00:00am",
        "Measurement": "Nitrogen, Gas standard uncertainty",
        "Value": "0.260",
        "Units": "mL(STP)/kg"
    },
    {
        "Site ID": "M35/2873",
        "SampleID": "IS100415B",
        "Collection Date": "15-Apr 2010 00:00am",
        "Measurement": "Recharge temperature",
        "Value": "10.600",
        "Units": "\u00b0C"
    },
    {
        "Site ID": "M35/2873",
        "SampleID": "IS100415B",
        "Collection Date": "15-Apr 2010 00:00am",
        "Measurement": "Recharge temperature standard uncertaint",
        "Value": "1.500",
        "Units": "\u00b0C"
    },
    {
        "Site ID": "M35/2873",
        "SampleID": "IS100415B",
        "Collection Date": "15-Apr 2010 00:00am",
        "Measurement": "SF6 95% confidence interval age range",
        "Value": "7.000",
        "Units": "Year"
    },
    {
        "Site ID": "M35/2873",
        "SampleID": "IS100415B",
        "Collection Date": "15-Apr 2010 00:00am",
        "Measurement": "SF6 age",
        "Value": "10.000",
        "Units": "Year"
    },
    {
        "Site ID": "M35/2873",
        "SampleID": "IS100415B",
        "Collection Date": "15-Apr 2010 00:00am",
        "Measurement": "SF6 partial pressure",
        "Value": "4.310",
        "Units": " pptv"
    },
    {
        "Site ID": "M35/2873",
        "SampleID": "IS100415B",
        "Collection Date": "15-Apr 2010 00:00am",
        "Measurement": "SF6 partial pressure standard uncertainty",
        "Value": "0.440",
        "Units": " pptv"
    },
    {
        "Site ID": "M35/2873",
        "SampleID": "IS100415B",
        "Collection Date": "15-Apr 2010 00:00am",
        "Measurement": "SF6, Dissolved",
        "Value": "2.057",
        "Units": "fmol/kg"
    },
    {
        "Site ID": "M35/2873",
        "SampleID": "IS100415B",
        "Collection Date": "15-Apr 2010 00:00am",
        "Measurement": "SF6, Dissolved Uncertainty",
        "Value": "0.060",
        "Units": "fmol/kg"
    },
    {
        "Site ID": "M35/2873",
        "SampleID": "IS100415B",
        "Collection Date": "15-Apr 2010 00:00am",
        "Measurement": "Tritium 95% confidence interval age range",
        "Value": "44.000",
        "Units": "Year"
    },
    {
        "Site ID": "M35/2873",
        "SampleID": "IS100415B",
        "Collection Date": "15-Apr 2010 00:00am",
        "Measurement": "Tritium age",
        "Value": "48.000",
        "Units": "Year"
    },
    {
        "Site ID": "M35/2873",
        "SampleID": "IS100415B",
        "Collection Date": "15-Apr 2010 00:00am",
        "Measurement": "Tritium concentration",
        "Value": "0.040",
        "Units": "TU"
    },
    {
        "Site ID": "M35/2873",
        "SampleID": "ISOTO4569",
        "Collection Date": "16-Feb 2001 00:05am",
        "Measurement": "Oxygen 18",
        "Value": "-8.910",
        "Units": "\u0089"
    },
    {
        "Site ID": "M35/2873",
        "SampleID": "IS010216D",
        "Collection Date": "16-Feb 2001 00:00am",
        "Measurement": "CFC preferred recharge year",
        "Value": "1972.000",
        "Units": "Year"
    },
    {
        "Site ID": "M35/2873",
        "SampleID": "IS010216D",
        "Collection Date": "16-Feb 2001 00:00am",
        "Measurement": "CFC-11 partial pressure",
        "Value": "66.100",
        "Units": "pptv"
    },
    {
        "Site ID": "M35/2873",
        "SampleID": "IS010216D",
        "Collection Date": "16-Feb 2001 00:00am",
        "Measurement": "CFC-11 partial pressure Standard Deviation",
        "Value": "0.500",
        "Units": "pptv"
    },
    {
        "Site ID": "M35/2873",
        "SampleID": "IS010216D",
        "Collection Date": "16-Feb 2001 00:00am",
        "Measurement": "CFC-11 recharge year",
        "Value": "1972.000",
        "Units": "Year"
    },
    {
        "Site ID": "M35/2873",
        "SampleID": "IS010216D",
        "Collection Date": "16-Feb 2001 00:00am",
        "Measurement": "CFC-11, Dissolved",
        "Value": "1.300",
        "Units": "pmol/kg"
    },
    {
        "Site ID": "M35/2873",
        "SampleID": "IS010216D",
        "Collection Date": "16-Feb 2001 00:00am",
        "Measurement": "CFC-11, Dissolved Standard Deviation",
        "Value": "0.010",
        "Units": "pmol/kg"
    },
    {
        "Site ID": "M35/2873",
        "SampleID": "IS010216D",
        "Collection Date": "16-Feb 2001 00:00am",
        "Measurement": "CFC-12 partial pressure",
        "Value": "272.800",
        "Units": "pptv"
    },
    {
        "Site ID": "M35/2873",
        "SampleID": "IS010216D",
        "Collection Date": "16-Feb 2001 00:00am",
        "Measurement": "CFC-12 partial pressure Standard Deviation",
        "Value": "0.000",
        "Units": "pptv"
    },
    {
        "Site ID": "M35/2873",
        "SampleID": "IS010216D",
        "Collection Date": "16-Feb 2001 00:00am",
        "Measurement": "CFC-12 recharge year",
        "Value": "1979.000",
        "Units": "Year"
    },
    {
        "Site ID": "M35/2873",
        "SampleID": "IS010216D",
        "Collection Date": "16-Feb 2001 00:00am",
        "Measurement": "CFC-12, Dissolved",
        "Value": "1.400",
        "Units": "pmol/kg"
    },
    {
        "Site ID": "M35/2873",
        "SampleID": "IS010216D",
        "Collection Date": "16-Feb 2001 00:00am",
        "Measurement": "CFC-12, Dissolved Standard Deviation",
        "Value": "0.000",
        "Units": "pmol/kg"
    },
    {
        "Site ID": "M35/2873",
        "SampleID": "IS010216D",
        "Collection Date": "16-Feb 2001 00:00am",
        "Measurement": "CFC-13, Dissolved Uncertainty",
        "Value": "11.500",
        "Units": "pmol/kg"
    },
    {
        "Site ID": "M35/2873",
        "SampleID": "IS010216D",
        "Collection Date": "16-Feb 2001 00:00am",
        "Measurement": "IGNS Sample Reference",
        "Value": "*",
        "Units": ""
    },
    {
        "Site ID": "M35/2873",
        "SampleID": "IS010216D",
        "Collection Date": "16-Feb 2001 00:00am",
        "Measurement": "Recharge elevation",
        "Value": "0.000",
        "Units": "m"
    },
    {
        "Site ID": "M35/2873",
        "SampleID": "IS010216D",
        "Collection Date": "16-Feb 2001 00:00am",
        "Measurement": "Recharge temperature",
        "Value": "11.500",
        "Units": "\u00b0C"
    },
    {
        "Site ID": "M35/2873",
        "SampleID": "IS010216D",
        "Collection Date": "16-Feb 2001 00:00am",
        "Measurement": "Recommended model age",
        "Value": "0.000",
        "Units": "Year"
    },
    {
        "Site ID": "M35/2873",
        "SampleID": "IS010216D",
        "Collection Date": "16-Feb 2001 00:00am",
        "Measurement": "Relative humidity",
        "Value": "0.000",
        "Units": "%"
    },
    {
        "Site ID": "M35/2873",
        "SampleID": "IS010216D",
        "Collection Date": "16-Feb 2001 00:00am",
        "Measurement": "Tritium age",
        "Value": "29.000",
        "Units": "Year"
    }
]