[
    {
        "Site ID": "M36/1058",
        "SampleID": "CQ910013",
        "Collection Date": "08-Jan 1991 13:30pm",
        "Measurement": "1,1,1-Trichloroethane",
        "Value": "<0.400",
        "Units": "g/m3"
    },
    {
        "Site ID": "M36/1058",
        "SampleID": "CQ910013",
        "Collection Date": "08-Jan 1991 13:30pm",
        "Measurement": "Benzene",
        "Value": "<4.000",
        "Units": "g/m3"
    },
    {
        "Site ID": "M36/1058",
        "SampleID": "CQ910013",
        "Collection Date": "08-Jan 1991 13:30pm",
        "Measurement": "Bromodichloromethane",
        "Value": "<0.300",
        "Units": "g/m3"
    },
    {
        "Site ID": "M36/1058",
        "SampleID": "CQ910013",
        "Collection Date": "08-Jan 1991 13:30pm",
        "Measurement": "Chloride",
        "Value": "3.000",
        "Units": "mg/L"
    },
    {
        "Site ID": "M36/1058",
        "SampleID": "CQ910013",
        "Collection Date": "08-Jan 1991 13:30pm",
        "Measurement": "Chlorodibromomethane",
        "Value": "<0.300",
        "Units": "ug/L"
    },
    {
        "Site ID": "M36/1058",
        "SampleID": "CQ910013",
        "Collection Date": "08-Jan 1991 13:30pm",
        "Measurement": "Chloroform",
        "Value": "<0.900",
        "Units": "ug/L"
    },
    {
        "Site ID": "M36/1058",
        "SampleID": "CQ910013",
        "Collection Date": "08-Jan 1991 13:30pm",
        "Measurement": "Conductivity",
        "Value": "11.8",
        "Units": "mS/m"
    },
    {
        "Site ID": "M36/1058",
        "SampleID": "CQ910013",
        "Collection Date": "08-Jan 1991 13:30pm",
        "Measurement": "Ethylbenzene",
        "Value": "<3000.000",
        "Units": "g/m3"
    },
    {
        "Site ID": "M36/1058",
        "SampleID": "CQ910013",
        "Collection Date": "08-Jan 1991 13:30pm",
        "Measurement": "Faecal Coliforms",
        "Value": "0",
        "Units": "cfu/100mL"
    },
    {
        "Site ID": "M36/1058",
        "SampleID": "CQ910013",
        "Collection Date": "08-Jan 1991 13:30pm",
        "Measurement": "Nitrate-N Nitrite-N",
        "Value": "0.298",
        "Units": "g/m3"
    },
    {
        "Site ID": "M36/1058",
        "SampleID": "CQ910013",
        "Collection Date": "08-Jan 1991 13:30pm",
        "Measurement": "pH",
        "Value": "7.6",
        "Units": ""
    },
    {
        "Site ID": "M36/1058",
        "SampleID": "CQ910013",
        "Collection Date": "08-Jan 1991 13:30pm",
        "Measurement": "Sulphate",
        "Value": "6.000",
        "Units": "mg/L"
    },
    {
        "Site ID": "M36/1058",
        "SampleID": "CQ910013",
        "Collection Date": "08-Jan 1991 13:30pm",
        "Measurement": "Tetrachloroethene",
        "Value": "<0.200",
        "Units": "ug/L"
    },
    {
        "Site ID": "M36/1058",
        "SampleID": "CQ910013",
        "Collection Date": "08-Jan 1991 13:30pm",
        "Measurement": "Tetrachloromethane",
        "Value": "<0.300",
        "Units": "ug/L"
    },
    {
        "Site ID": "M36/1058",
        "SampleID": "CQ910013",
        "Collection Date": "08-Jan 1991 13:30pm",
        "Measurement": "Toluene",
        "Value": "<11.000",
        "Units": "g/m3"
    },
    {
        "Site ID": "M36/1058",
        "SampleID": "CQ910013",
        "Collection Date": "08-Jan 1991 13:30pm",
        "Measurement": "Total Coliforms",
        "Value": "0",
        "Units": "number/100mL"
    },
    {
        "Site ID": "M36/1058",
        "SampleID": "CQ910013",
        "Collection Date": "08-Jan 1991 13:30pm",
        "Measurement": "Tribromomethane",
        "Value": "<0.600",
        "Units": "ug/L"
    },
    {
        "Site ID": "M36/1058",
        "SampleID": "CQ910013",
        "Collection Date": "08-Jan 1991 13:30pm",
        "Measurement": "Trichloroethene",
        "Value": "<0.600",
        "Units": "ug/L"
    },
    {
        "Site ID": "M36/1058",
        "SampleID": "CQ910013",
        "Collection Date": "08-Jan 1991 13:30pm",
        "Measurement": "Xylenes",
        "Value": "<3.000",
        "Units": "ug/L"
    },
    {
        "Site ID": "M36/1058",
        "SampleID": "NCY851929",
        "Collection Date": "14-Aug 1985 00:05am",
        "Measurement": "Alkalinity to pH 4.5 as HCO3",
        "Value": "59.000",
        "Units": "mg/L  as HCO3"
    },
    {
        "Site ID": "M36/1058",
        "SampleID": "NCY851929",
        "Collection Date": "14-Aug 1985 00:05am",
        "Measurement": "Ammoniacal Nitrogen",
        "Value": "0.000",
        "Units": "mg/L"
    },
    {
        "Site ID": "M36/1058",
        "SampleID": "NCY851929",
        "Collection Date": "14-Aug 1985 00:05am",
        "Measurement": "Bromide",
        "Value": "0.000",
        "Units": "g/m3"
    },
    {
        "Site ID": "M36/1058",
        "SampleID": "NCY851929",
        "Collection Date": "14-Aug 1985 00:05am",
        "Measurement": "Calcium, Dissolved",
        "Value": "13.000",
        "Units": "mg/L"
    },
    {
        "Site ID": "M36/1058",
        "SampleID": "NCY851929",
        "Collection Date": "14-Aug 1985 00:05am",
        "Measurement": "Carbonate Alkalinity",
        "Value": "0.000",
        "Units": "mg/L CO3"
    },
    {
        "Site ID": "M36/1058",
        "SampleID": "NCY851929",
        "Collection Date": "14-Aug 1985 00:05am",
        "Measurement": "Chloride",
        "Value": "4.500",
        "Units": "mg/L"
    },
    {
        "Site ID": "M36/1058",
        "SampleID": "NCY851929",
        "Collection Date": "14-Aug 1985 00:05am",
        "Measurement": "Conductivity",
        "Value": "11.2",
        "Units": "mS/m"
    },
    {
        "Site ID": "M36/1058",
        "SampleID": "NCY851929",
        "Collection Date": "14-Aug 1985 00:05am",
        "Measurement": "Free Carbon Dioxide",
        "Value": "2.000",
        "Units": "g/m3 at 25\u00b0;C"
    },
    {
        "Site ID": "M36/1058",
        "SampleID": "NCY851929",
        "Collection Date": "14-Aug 1985 00:05am",
        "Measurement": "Hardness, Total",
        "Value": "39.000",
        "Units": "g/m3 as CaCO3"
    },
    {
        "Site ID": "M36/1058",
        "SampleID": "NCY851929",
        "Collection Date": "14-Aug 1985 00:05am",
        "Measurement": "Iron, Dissolved",
        "Value": "0.710",
        "Units": "mg/L"
    },
    {
        "Site ID": "M36/1058",
        "SampleID": "NCY851929",
        "Collection Date": "14-Aug 1985 00:05am",
        "Measurement": "Magnesium, Dissolved",
        "Value": "1.600",
        "Units": "mg/L"
    },
    {
        "Site ID": "M36/1058",
        "SampleID": "NCY851929",
        "Collection Date": "14-Aug 1985 00:05am",
        "Measurement": "Manganese, Dissolved",
        "Value": "0.0900",
        "Units": "mg/L"
    },
    {
        "Site ID": "M36/1058",
        "SampleID": "NCY851929",
        "Collection Date": "14-Aug 1985 00:05am",
        "Measurement": "Nitrate Nitrogen",
        "Value": "0.300",
        "Units": "mg/L"
    },
    {
        "Site ID": "M36/1058",
        "SampleID": "NCY851929",
        "Collection Date": "14-Aug 1985 00:05am",
        "Measurement": "pH",
        "Value": "7.7",
        "Units": ""
    },
    {
        "Site ID": "M36/1058",
        "SampleID": "NCY851929",
        "Collection Date": "14-Aug 1985 00:05am",
        "Measurement": "Potassium, Dissolved",
        "Value": "0.000",
        "Units": "mg/L"
    },
    {
        "Site ID": "M36/1058",
        "SampleID": "NCY851929",
        "Collection Date": "14-Aug 1985 00:05am",
        "Measurement": "Silica, Reactive",
        "Value": "24.000",
        "Units": "mg/L  as SiO2"
    },
    {
        "Site ID": "M36/1058",
        "SampleID": "NCY851929",
        "Collection Date": "14-Aug 1985 00:05am",
        "Measurement": "Sodium, Dissolved",
        "Value": "7.200",
        "Units": "mg/L"
    },
    {
        "Site ID": "M36/1058",
        "SampleID": "NCY851929",
        "Collection Date": "14-Aug 1985 00:05am",
        "Measurement": "Sulphate",
        "Value": "3.300",
        "Units": "mg/L"
    },
    {
        "Site ID": "M36/1058",
        "SampleID": "NCY851929",
        "Collection Date": "14-Aug 1985 00:05am",
        "Measurement": "Total Phosphorus",
        "Value": "0.000",
        "Units": "g/m3"
    },
    {
        "Site ID": "M36/1058",
        "SampleID": "ISOTO3199",
        "Collection Date": "14-Aug 1985 00:00am",
        "Measurement": "Oxygen 18",
        "Value": "-9.200",
        "Units": "\u0089"
    },
    {
        "Site ID": "M36/1058",
        "SampleID": "ISOTO3199",
        "Collection Date": "14-Aug 1985 00:00am",
        "Measurement": "Oxygen 18 Error of Measurement",
        "Value": "0.100",
        "Units": "%"
    },
    {
        "Site ID": "M36/1058",
        "SampleID": "NCY810403",
        "Collection Date": "27-Jul 1981 00:00am",
        "Measurement": "Alkalinity to pH 4.5 as HCO3",
        "Value": "55.000",
        "Units": "mg/L  as HCO3"
    },
    {
        "Site ID": "M36/1058",
        "SampleID": "NCY810403",
        "Collection Date": "27-Jul 1981 00:00am",
        "Measurement": "Calcium, Dissolved",
        "Value": "14.000",
        "Units": "mg/L"
    },
    {
        "Site ID": "M36/1058",
        "SampleID": "NCY810403",
        "Collection Date": "27-Jul 1981 00:00am",
        "Measurement": "Chloride",
        "Value": "4.000",
        "Units": "mg/L"
    },
    {
        "Site ID": "M36/1058",
        "SampleID": "NCY810403",
        "Collection Date": "27-Jul 1981 00:00am",
        "Measurement": "Conductivity",
        "Value": "10.2",
        "Units": "mS/m"
    },
    {
        "Site ID": "M36/1058",
        "SampleID": "NCY810403",
        "Collection Date": "27-Jul 1981 00:00am",
        "Measurement": "Hardness, Total",
        "Value": "39.000",
        "Units": "g/m3 as CaCO3"
    },
    {
        "Site ID": "M36/1058",
        "SampleID": "NCY810403",
        "Collection Date": "27-Jul 1981 00:00am",
        "Measurement": "Iron, Dissolved",
        "Value": "0.000",
        "Units": "mg/L"
    },
    {
        "Site ID": "M36/1058",
        "SampleID": "NCY810403",
        "Collection Date": "27-Jul 1981 00:00am",
        "Measurement": "Magnesium, Dissolved",
        "Value": "1.000",
        "Units": "mg/L"
    },
    {
        "Site ID": "M36/1058",
        "SampleID": "NCY810403",
        "Collection Date": "27-Jul 1981 00:00am",
        "Measurement": "Manganese, Dissolved",
        "Value": "0.0000",
        "Units": "mg/L"
    },
    {
        "Site ID": "M36/1058",
        "SampleID": "NCY810403",
        "Collection Date": "27-Jul 1981 00:00am",
        "Measurement": "Nitrate Nitrogen",
        "Value": "0.700",
        "Units": "mg/L"
    },
    {
        "Site ID": "M36/1058",
        "SampleID": "NCY810403",
        "Collection Date": "27-Jul 1981 00:00am",
        "Measurement": "pH",
        "Value": "7.9",
        "Units": ""
    },
    {
        "Site ID": "M36/1058",
        "SampleID": "NCY810403",
        "Collection Date": "27-Jul 1981 00:00am",
        "Measurement": "Potassium, Dissolved",
        "Value": "0.700",
        "Units": "mg/L"
    },
    {
        "Site ID": "M36/1058",
        "SampleID": "NCY810403",
        "Collection Date": "27-Jul 1981 00:00am",
        "Measurement": "Silica, Reactive",
        "Value": "20.500",
        "Units": "mg/L  as SiO2"
    },
    {
        "Site ID": "M36/1058",
        "SampleID": "NCY810403",
        "Collection Date": "27-Jul 1981 00:00am",
        "Measurement": "Sodium, Dissolved",
        "Value": "6.800",
        "Units": "mg/L"
    },
    {
        "Site ID": "M36/1058",
        "SampleID": "NCY810403",
        "Collection Date": "27-Jul 1981 00:00am",
        "Measurement": "Sulphate",
        "Value": "5.500",
        "Units": "mg/L"
    },
    {
        "Site ID": "M36/1058",
        "SampleID": "NCY780755",
        "Collection Date": "11-Apr 1978 00:00am",
        "Measurement": "Ammoniacal Nitrogen",
        "Value": "0.005",
        "Units": "mg/L"
    },
    {
        "Site ID": "M36/1058",
        "SampleID": "NCY780755",
        "Collection Date": "11-Apr 1978 00:00am",
        "Measurement": "Calcium, Dissolved",
        "Value": "13.500",
        "Units": "mg/L"
    },
    {
        "Site ID": "M36/1058",
        "SampleID": "NCY780755",
        "Collection Date": "11-Apr 1978 00:00am",
        "Measurement": "Chloride",
        "Value": "3.000",
        "Units": "mg/L"
    },
    {
        "Site ID": "M36/1058",
        "SampleID": "NCY780755",
        "Collection Date": "11-Apr 1978 00:00am",
        "Measurement": "Conductivity",
        "Value": "12.2",
        "Units": "mS/m"
    },
    {
        "Site ID": "M36/1058",
        "SampleID": "NCY780755",
        "Collection Date": "11-Apr 1978 00:00am",
        "Measurement": "Magnesium, Dissolved",
        "Value": "3.600",
        "Units": "mg/L"
    },
    {
        "Site ID": "M36/1058",
        "SampleID": "NCY780755",
        "Collection Date": "11-Apr 1978 00:00am",
        "Measurement": "Nitrate Nitrogen",
        "Value": "0.300",
        "Units": "mg/L"
    },
    {
        "Site ID": "M36/1058",
        "SampleID": "NCY780755",
        "Collection Date": "11-Apr 1978 00:00am",
        "Measurement": "Potassium, Dissolved",
        "Value": "0.800",
        "Units": "mg/L"
    },
    {
        "Site ID": "M36/1058",
        "SampleID": "NCY780755",
        "Collection Date": "11-Apr 1978 00:00am",
        "Measurement": "Sodium, Dissolved",
        "Value": "7.000",
        "Units": "mg/L"
    },
    {
        "Site ID": "M36/1058",
        "SampleID": "NCY780755",
        "Collection Date": "11-Apr 1978 00:00am",
        "Measurement": "Sulphate",
        "Value": "5.000",
        "Units": "mg/L"
    },
    {
        "Site ID": "M36/1058",
        "SampleID": "NCY780755",
        "Collection Date": "11-Apr 1978 00:00am",
        "Measurement": "Water Temperature (Field)",
        "Value": "13.0",
        "Units": "C"
    },
    {
        "Site ID": "M36/1058",
        "SampleID": "ISOTO3197",
        "Collection Date": "20-May 1970 00:05am",
        "Measurement": "Oxygen 18",
        "Value": "-9.100",
        "Units": "\u0089"
    },
    {
        "Site ID": "M36/1058",
        "SampleID": "ISOTO3197",
        "Collection Date": "20-May 1970 00:05am",
        "Measurement": "Oxygen 18 Error of Measurement",
        "Value": "0.280",
        "Units": "%"
    },
    {
        "Site ID": "M36/1058",
        "SampleID": "ISOTO3196",
        "Collection Date": "20-May 1970 00:00am",
        "Measurement": "Tritium concentration",
        "Value": "2.900",
        "Units": "TU"
    },
    {
        "Site ID": "M36/1058",
        "SampleID": "ISOTO3196",
        "Collection Date": "20-May 1970 00:00am",
        "Measurement": "Tritium standard uncertainty",
        "Value": "0.200",
        "Units": "TU"
    }
]