[
    {
        "Site ID": "M36/1965",
        "SampleID": "IS100922B",
        "Collection Date": "22-Sep 2010 00:00am",
        "Measurement": "Argon",
        "Value": "0.494",
        "Units": "mL(STP)/kg"
    },
    {
        "Site ID": "M36/1965",
        "SampleID": "IS100922B",
        "Collection Date": "22-Sep 2010 00:00am",
        "Measurement": "Argon, Standard uncertainty",
        "Value": "0.008",
        "Units": "mL(STP)/kg"
    },
    {
        "Site ID": "M36/1965",
        "SampleID": "IS100922B",
        "Collection Date": "22-Sep 2010 00:00am",
        "Measurement": "CFC-11 95% confidence interval age range",
        "Value": "48.000",
        "Units": "Year"
    },
    {
        "Site ID": "M36/1965",
        "SampleID": "IS100922B",
        "Collection Date": "22-Sep 2010 00:00am",
        "Measurement": "CFC-11 age",
        "Value": "52.000",
        "Units": "Year"
    },
    {
        "Site ID": "M36/1965",
        "SampleID": "IS100922B",
        "Collection Date": "22-Sep 2010 00:00am",
        "Measurement": "CFC-11 partial pressure",
        "Value": "77.800",
        "Units": "pptv"
    },
    {
        "Site ID": "M36/1965",
        "SampleID": "IS100922B",
        "Collection Date": "22-Sep 2010 00:00am",
        "Measurement": "CFC-11 partial pressure Standard Uncertainty",
        "Value": "7.900",
        "Units": "pptv"
    },
    {
        "Site ID": "M36/1965",
        "SampleID": "IS100922B",
        "Collection Date": "22-Sep 2010 00:00am",
        "Measurement": "CFC-11, Dissolved",
        "Value": "2.100",
        "Units": "pmol/kg"
    },
    {
        "Site ID": "M36/1965",
        "SampleID": "IS100922B",
        "Collection Date": "22-Sep 2010 00:00am",
        "Measurement": "CFC-11, Dissolved Uncertainty",
        "Value": "0.100",
        "Units": "pmol/kg"
    },
    {
        "Site ID": "M36/1965",
        "SampleID": "IS100922B",
        "Collection Date": "22-Sep 2010 00:00am",
        "Measurement": "CFC-12 95% confidence interval age range",
        "Value": "41.000",
        "Units": "Year"
    },
    {
        "Site ID": "M36/1965",
        "SampleID": "IS100922B",
        "Collection Date": "22-Sep 2010 00:00am",
        "Measurement": "CFC-12 age",
        "Value": "46.000",
        "Units": "Year"
    },
    {
        "Site ID": "M36/1965",
        "SampleID": "IS100922B",
        "Collection Date": "22-Sep 2010 00:00am",
        "Measurement": "CFC-12 partial pressure",
        "Value": "190.900",
        "Units": "pptv"
    },
    {
        "Site ID": "M36/1965",
        "SampleID": "IS100922B",
        "Collection Date": "22-Sep 2010 00:00am",
        "Measurement": "CFC-12 partial pressure Standard Uncertainty",
        "Value": "21.300",
        "Units": "pptv"
    },
    {
        "Site ID": "M36/1965",
        "SampleID": "IS100922B",
        "Collection Date": "22-Sep 2010 00:00am",
        "Measurement": "CFC-12, Dissolved",
        "Value": "1.300",
        "Units": "pmol/kg"
    },
    {
        "Site ID": "M36/1965",
        "SampleID": "IS100922B",
        "Collection Date": "22-Sep 2010 00:00am",
        "Measurement": "CFC-12, Dissolved Uncertainty",
        "Value": "0.100",
        "Units": "pmol/kg"
    },
    {
        "Site ID": "M36/1965",
        "SampleID": "IS100922B",
        "Collection Date": "22-Sep 2010 00:00am",
        "Measurement": "Excess air",
        "Value": "7.500",
        "Units": "mL(STP)/kg"
    },
    {
        "Site ID": "M36/1965",
        "SampleID": "IS100922B",
        "Collection Date": "22-Sep 2010 00:00am",
        "Measurement": "Excess air standard uncertainty",
        "Value": "1.200",
        "Units": "mL(STP)/kg"
    },
    {
        "Site ID": "M36/1965",
        "SampleID": "IS100922B",
        "Collection Date": "22-Sep 2010 00:00am",
        "Measurement": "Exponential Mixed Flow",
        "Value": "60.000",
        "Units": "%"
    },
    {
        "Site ID": "M36/1965",
        "SampleID": "IS100922B",
        "Collection Date": "22-Sep 2010 00:00am",
        "Measurement": "IGNS Sample Reference",
        "Value": "*",
        "Units": ""
    },
    {
        "Site ID": "M36/1965",
        "SampleID": "IS100922B",
        "Collection Date": "22-Sep 2010 00:00am",
        "Measurement": "Nitrogen, Gas",
        "Value": "21.750",
        "Units": "mL(STP)/kg"
    },
    {
        "Site ID": "M36/1965",
        "SampleID": "IS100922B",
        "Collection Date": "22-Sep 2010 00:00am",
        "Measurement": "Nitrogen, Gas standard uncertainty",
        "Value": "0.430",
        "Units": "mL(STP)/kg"
    },
    {
        "Site ID": "M36/1965",
        "SampleID": "IS100922B",
        "Collection Date": "22-Sep 2010 00:00am",
        "Measurement": "Recharge temperature",
        "Value": "6.200",
        "Units": "\u00b0C"
    },
    {
        "Site ID": "M36/1965",
        "SampleID": "IS100922B",
        "Collection Date": "22-Sep 2010 00:00am",
        "Measurement": "Recharge temperature standard uncertaint",
        "Value": "1.700",
        "Units": "\u00b0C"
    },
    {
        "Site ID": "M36/1965",
        "SampleID": "IS100922B",
        "Collection Date": "22-Sep 2010 00:00am",
        "Measurement": "SF6 95% confidence interval age range",
        "Value": "28.000",
        "Units": "Year"
    },
    {
        "Site ID": "M36/1965",
        "SampleID": "IS100922B",
        "Collection Date": "22-Sep 2010 00:00am",
        "Measurement": "SF6 age",
        "Value": "31.000",
        "Units": "Year"
    },
    {
        "Site ID": "M36/1965",
        "SampleID": "IS100922B",
        "Collection Date": "22-Sep 2010 00:00am",
        "Measurement": "SF6 partial pressure",
        "Value": "1.580",
        "Units": " pptv"
    },
    {
        "Site ID": "M36/1965",
        "SampleID": "IS100922B",
        "Collection Date": "22-Sep 2010 00:00am",
        "Measurement": "SF6 partial pressure standard uncertainty",
        "Value": "0.190",
        "Units": " pptv"
    },
    {
        "Site ID": "M36/1965",
        "SampleID": "IS100922B",
        "Collection Date": "22-Sep 2010 00:00am",
        "Measurement": "SF6, Dissolved",
        "Value": "1.284",
        "Units": "fmol/kg"
    },
    {
        "Site ID": "M36/1965",
        "SampleID": "IS100922B",
        "Collection Date": "22-Sep 2010 00:00am",
        "Measurement": "SF6, Dissolved Uncertainty",
        "Value": "0.043",
        "Units": "fmol/kg"
    },
    {
        "Site ID": "M36/1965",
        "SampleID": "IS100922B",
        "Collection Date": "22-Sep 2010 00:00am",
        "Measurement": "Tritium 95% confidence interval age range",
        "Value": ">123.000",
        "Units": "Year"
    },
    {
        "Site ID": "M36/1965",
        "SampleID": "IS100922B",
        "Collection Date": "22-Sep 2010 00:00am",
        "Measurement": "Tritium age",
        "Value": "141.000",
        "Units": "Year"
    },
    {
        "Site ID": "M36/1965",
        "SampleID": "IS100922B",
        "Collection Date": "22-Sep 2010 00:00am",
        "Measurement": "Tritium concentration",
        "Value": "0.012",
        "Units": "TU"
    },
    {
        "Site ID": "M36/1965",
        "SampleID": "ISOTO4521",
        "Collection Date": "12-Feb 2001 00:05am",
        "Measurement": "Oxygen 18",
        "Value": "-8.890",
        "Units": "\u0089"
    },
    {
        "Site ID": "M36/1965",
        "SampleID": "IS010212A",
        "Collection Date": "12-Feb 2001 00:00am",
        "Measurement": "CFC preferred recharge year",
        "Value": "<1940.000",
        "Units": "Year"
    },
    {
        "Site ID": "M36/1965",
        "SampleID": "IS010212A",
        "Collection Date": "12-Feb 2001 00:00am",
        "Measurement": "CFC-11 partial pressure",
        "Value": "0.200",
        "Units": "pptv"
    },
    {
        "Site ID": "M36/1965",
        "SampleID": "IS010212A",
        "Collection Date": "12-Feb 2001 00:00am",
        "Measurement": "CFC-11 partial pressure Standard Deviation",
        "Value": "0.100",
        "Units": "pptv"
    },
    {
        "Site ID": "M36/1965",
        "SampleID": "IS010212A",
        "Collection Date": "12-Feb 2001 00:00am",
        "Measurement": "CFC-11 recharge year",
        "Value": "<1950.000",
        "Units": "Year"
    },
    {
        "Site ID": "M36/1965",
        "SampleID": "IS010212A",
        "Collection Date": "12-Feb 2001 00:00am",
        "Measurement": "CFC-11, Dissolved",
        "Value": "0.000",
        "Units": "pmol/kg"
    },
    {
        "Site ID": "M36/1965",
        "SampleID": "IS010212A",
        "Collection Date": "12-Feb 2001 00:00am",
        "Measurement": "CFC-11, Dissolved Standard Deviation",
        "Value": "0.000",
        "Units": "pmol/kg"
    },
    {
        "Site ID": "M36/1965",
        "SampleID": "IS010212A",
        "Collection Date": "12-Feb 2001 00:00am",
        "Measurement": "CFC-12 partial pressure",
        "Value": "0.000",
        "Units": "pptv"
    },
    {
        "Site ID": "M36/1965",
        "SampleID": "IS010212A",
        "Collection Date": "12-Feb 2001 00:00am",
        "Measurement": "CFC-12 partial pressure Standard Deviation",
        "Value": "0.000",
        "Units": "pptv"
    },
    {
        "Site ID": "M36/1965",
        "SampleID": "IS010212A",
        "Collection Date": "12-Feb 2001 00:00am",
        "Measurement": "CFC-12 recharge year",
        "Value": "<1940.000",
        "Units": "Year"
    },
    {
        "Site ID": "M36/1965",
        "SampleID": "IS010212A",
        "Collection Date": "12-Feb 2001 00:00am",
        "Measurement": "CFC-12, Dissolved",
        "Value": "0.000",
        "Units": "pmol/kg"
    },
    {
        "Site ID": "M36/1965",
        "SampleID": "IS010212A",
        "Collection Date": "12-Feb 2001 00:00am",
        "Measurement": "CFC-12, Dissolved Standard Deviation",
        "Value": "0.000",
        "Units": "pmol/kg"
    },
    {
        "Site ID": "M36/1965",
        "SampleID": "IS010212A",
        "Collection Date": "12-Feb 2001 00:00am",
        "Measurement": "CFC-13, Dissolved Uncertainty",
        "Value": "11.500",
        "Units": "pmol/kg"
    },
    {
        "Site ID": "M36/1965",
        "SampleID": "IS010212A",
        "Collection Date": "12-Feb 2001 00:00am",
        "Measurement": "IGNS Sample Reference",
        "Value": "*",
        "Units": ""
    },
    {
        "Site ID": "M36/1965",
        "SampleID": "IS010212A",
        "Collection Date": "12-Feb 2001 00:00am",
        "Measurement": "Recharge elevation",
        "Value": "0.000",
        "Units": "m"
    },
    {
        "Site ID": "M36/1965",
        "SampleID": "IS010212A",
        "Collection Date": "12-Feb 2001 00:00am",
        "Measurement": "Recharge temperature",
        "Value": "11.500",
        "Units": "\u00b0C"
    },
    {
        "Site ID": "M36/1965",
        "SampleID": "IS010212A",
        "Collection Date": "12-Feb 2001 00:00am",
        "Measurement": "Recommended model age",
        "Value": "0.000",
        "Units": "Year"
    },
    {
        "Site ID": "M36/1965",
        "SampleID": "IS010212A",
        "Collection Date": "12-Feb 2001 00:00am",
        "Measurement": "Relative humidity",
        "Value": "0.000",
        "Units": "%"
    },
    {
        "Site ID": "M36/1965",
        "SampleID": "IS010212A",
        "Collection Date": "12-Feb 2001 00:00am",
        "Measurement": "Tritium age",
        "Value": ">61.000",
        "Units": "Year"
    }
]