[
    {
        "Site ID": "N32/0056",
        "SampleID": "NCY870966",
        "Collection Date": "15-Jul 1987 13:00pm",
        "Measurement": "Alkalinity to pH 4.5 as HCO3",
        "Value": "46.000",
        "Units": "mg/L  as HCO3"
    },
    {
        "Site ID": "N32/0056",
        "SampleID": "NCY870966",
        "Collection Date": "15-Jul 1987 13:00pm",
        "Measurement": "Calcium, Dissolved",
        "Value": "12.000",
        "Units": "mg/L"
    },
    {
        "Site ID": "N32/0056",
        "SampleID": "NCY870966",
        "Collection Date": "15-Jul 1987 13:00pm",
        "Measurement": "Chloride",
        "Value": "3.000",
        "Units": "mg/L"
    },
    {
        "Site ID": "N32/0056",
        "SampleID": "NCY870966",
        "Collection Date": "15-Jul 1987 13:00pm",
        "Measurement": "Conductivity",
        "Value": "10.7",
        "Units": "mS/m"
    },
    {
        "Site ID": "N32/0056",
        "SampleID": "NCY870966",
        "Collection Date": "15-Jul 1987 13:00pm",
        "Measurement": "Free Carbon Dioxide",
        "Value": "6.000",
        "Units": "g/m3 at 25\u00b0;C"
    },
    {
        "Site ID": "N32/0056",
        "SampleID": "NCY870966",
        "Collection Date": "15-Jul 1987 13:00pm",
        "Measurement": "Hardness, Total",
        "Value": "36.000",
        "Units": "g/m3 as CaCO3"
    },
    {
        "Site ID": "N32/0056",
        "SampleID": "NCY870966",
        "Collection Date": "15-Jul 1987 13:00pm",
        "Measurement": "Iron, Dissolved",
        "Value": "0.130",
        "Units": "mg/L"
    },
    {
        "Site ID": "N32/0056",
        "SampleID": "NCY870966",
        "Collection Date": "15-Jul 1987 13:00pm",
        "Measurement": "Magnesium, Dissolved",
        "Value": "1.500",
        "Units": "mg/L"
    },
    {
        "Site ID": "N32/0056",
        "SampleID": "NCY870966",
        "Collection Date": "15-Jul 1987 13:00pm",
        "Measurement": "Manganese, Dissolved",
        "Value": "0.0000",
        "Units": "mg/L"
    },
    {
        "Site ID": "N32/0056",
        "SampleID": "NCY870966",
        "Collection Date": "15-Jul 1987 13:00pm",
        "Measurement": "Nitrate Nitrogen",
        "Value": "0.790",
        "Units": "mg/L"
    },
    {
        "Site ID": "N32/0056",
        "SampleID": "NCY870966",
        "Collection Date": "15-Jul 1987 13:00pm",
        "Measurement": "pH",
        "Value": "7.3",
        "Units": ""
    },
    {
        "Site ID": "N32/0056",
        "SampleID": "NCY870966",
        "Collection Date": "15-Jul 1987 13:00pm",
        "Measurement": "Potassium, Dissolved",
        "Value": "0.660",
        "Units": "mg/L"
    },
    {
        "Site ID": "N32/0056",
        "SampleID": "NCY870966",
        "Collection Date": "15-Jul 1987 13:00pm",
        "Measurement": "Silica, Reactive",
        "Value": "8.700",
        "Units": "mg/L  as SiO2"
    },
    {
        "Site ID": "N32/0056",
        "SampleID": "NCY870966",
        "Collection Date": "15-Jul 1987 13:00pm",
        "Measurement": "Sodium, Dissolved",
        "Value": "3.700",
        "Units": "mg/L"
    },
    {
        "Site ID": "N32/0056",
        "SampleID": "NCY870966",
        "Collection Date": "15-Jul 1987 13:00pm",
        "Measurement": "Sulphate",
        "Value": "10.000",
        "Units": "mg/L"
    },
    {
        "Site ID": "N32/0056",
        "SampleID": "NCY870966",
        "Collection Date": "15-Jul 1987 13:00pm",
        "Measurement": "Water Temperature (Field)",
        "Value": "13.0",
        "Units": "C"
    },
    {
        "Site ID": "N32/0056",
        "SampleID": "NCY750006",
        "Collection Date": "04-Nov 1975 00:00am",
        "Measurement": "Alkalinity to pH 4.5 as HCO3",
        "Value": "53.000",
        "Units": "mg/L  as HCO3"
    },
    {
        "Site ID": "N32/0056",
        "SampleID": "NCY750006",
        "Collection Date": "04-Nov 1975 00:00am",
        "Measurement": "Free Carbon Dioxide",
        "Value": "4.000",
        "Units": "g/m3 at 25\u00b0;C"
    },
    {
        "Site ID": "N32/0056",
        "SampleID": "NCY750006",
        "Collection Date": "04-Nov 1975 00:00am",
        "Measurement": "Hardness, Total",
        "Value": "44.000",
        "Units": "g/m3 as CaCO3"
    },
    {
        "Site ID": "N32/0056",
        "SampleID": "NCY750006",
        "Collection Date": "04-Nov 1975 00:00am",
        "Measurement": "Iron, Dissolved",
        "Value": "0.120",
        "Units": "mg/L"
    },
    {
        "Site ID": "N32/0056",
        "SampleID": "NCY750006",
        "Collection Date": "04-Nov 1975 00:00am",
        "Measurement": "Manganese, Dissolved",
        "Value": "0.0000",
        "Units": "mg/L"
    },
    {
        "Site ID": "N32/0056",
        "SampleID": "NCY750006",
        "Collection Date": "04-Nov 1975 00:00am",
        "Measurement": "pH",
        "Value": "7.3",
        "Units": ""
    },
    {
        "Site ID": "N32/0056",
        "SampleID": "CQ747640",
        "Collection Date": "09-Apr 1974 13:50pm",
        "Measurement": "Faecal Coliforms",
        "Value": "2500",
        "Units": "cfu/100mL"
    },
    {
        "Site ID": "N32/0056",
        "SampleID": "CQ747640",
        "Collection Date": "09-Apr 1974 13:50pm",
        "Measurement": "Total Coliforms",
        "Value": "6000",
        "Units": "number/100mL"
    },
    {
        "Site ID": "N32/0056",
        "SampleID": "NCY740002",
        "Collection Date": "19-Feb 1974 00:00am",
        "Measurement": "Alkalinity to pH 4.5 as HCO3",
        "Value": "44.000",
        "Units": "mg/L  as HCO3"
    },
    {
        "Site ID": "N32/0056",
        "SampleID": "NCY740002",
        "Collection Date": "19-Feb 1974 00:00am",
        "Measurement": "Ammoniacal Nitrogen",
        "Value": "0.006",
        "Units": "mg/L"
    },
    {
        "Site ID": "N32/0056",
        "SampleID": "NCY740002",
        "Collection Date": "19-Feb 1974 00:00am",
        "Measurement": "Calcium, Dissolved",
        "Value": "12.000",
        "Units": "mg/L"
    },
    {
        "Site ID": "N32/0056",
        "SampleID": "NCY740002",
        "Collection Date": "19-Feb 1974 00:00am",
        "Measurement": "Carbonate Alkalinity",
        "Value": "0.000",
        "Units": "mg/L CO3"
    },
    {
        "Site ID": "N32/0056",
        "SampleID": "NCY740002",
        "Collection Date": "19-Feb 1974 00:00am",
        "Measurement": "Chloride",
        "Value": "1.000",
        "Units": "mg/L"
    },
    {
        "Site ID": "N32/0056",
        "SampleID": "NCY740002",
        "Collection Date": "19-Feb 1974 00:00am",
        "Measurement": "Free Carbon Dioxide",
        "Value": "3.000",
        "Units": "g/m3 at 25\u00b0;C"
    },
    {
        "Site ID": "N32/0056",
        "SampleID": "NCY740002",
        "Collection Date": "19-Feb 1974 00:00am",
        "Measurement": "Hardness, Total",
        "Value": "37.000",
        "Units": "g/m3 as CaCO3"
    },
    {
        "Site ID": "N32/0056",
        "SampleID": "NCY740002",
        "Collection Date": "19-Feb 1974 00:00am",
        "Measurement": "Iron, Dissolved",
        "Value": "0.200",
        "Units": "mg/L"
    },
    {
        "Site ID": "N32/0056",
        "SampleID": "NCY740002",
        "Collection Date": "19-Feb 1974 00:00am",
        "Measurement": "Magnesium, Dissolved",
        "Value": "1.000",
        "Units": "mg/L"
    },
    {
        "Site ID": "N32/0056",
        "SampleID": "NCY740002",
        "Collection Date": "19-Feb 1974 00:00am",
        "Measurement": "Manganese, Dissolved",
        "Value": "0.0000",
        "Units": "mg/L"
    },
    {
        "Site ID": "N32/0056",
        "SampleID": "NCY740002",
        "Collection Date": "19-Feb 1974 00:00am",
        "Measurement": "Nitrate Nitrogen",
        "Value": "0.150",
        "Units": "mg/L"
    },
    {
        "Site ID": "N32/0056",
        "SampleID": "NCY740002",
        "Collection Date": "19-Feb 1974 00:00am",
        "Measurement": "Nitrite Nitrogen",
        "Value": "0.000",
        "Units": "mg/L"
    },
    {
        "Site ID": "N32/0056",
        "SampleID": "NCY740002",
        "Collection Date": "19-Feb 1974 00:00am",
        "Measurement": "pH",
        "Value": "7.4",
        "Units": ""
    },
    {
        "Site ID": "N32/0056",
        "SampleID": "NCY740002",
        "Collection Date": "19-Feb 1974 00:00am",
        "Measurement": "Potassium, Dissolved",
        "Value": "0.600",
        "Units": "mg/L"
    },
    {
        "Site ID": "N32/0056",
        "SampleID": "NCY740002",
        "Collection Date": "19-Feb 1974 00:00am",
        "Measurement": "Sodium, Dissolved",
        "Value": "4.300",
        "Units": "mg/L"
    },
    {
        "Site ID": "N32/0056",
        "SampleID": "NCY740002",
        "Collection Date": "19-Feb 1974 00:00am",
        "Measurement": "Sulphate",
        "Value": "1.000",
        "Units": "mg/L"
    },
    {
        "Site ID": "N32/0056",
        "SampleID": "NCY740002",
        "Collection Date": "19-Feb 1974 00:00am",
        "Measurement": "Total Coliforms",
        "Value": "6.00",
        "Units": "number/100mL"
    },
    {
        "Site ID": "N32/0056",
        "SampleID": "NCY740002",
        "Collection Date": "19-Feb 1974 00:00am",
        "Measurement": "Turbidity",
        "Value": "0.0",
        "Units": "NTU"
    },
    {
        "Site ID": "N32/0056",
        "SampleID": "NCY730004",
        "Collection Date": "21-Aug 1973 00:00am",
        "Measurement": "Alkalinity to pH 4.5 as HCO3",
        "Value": "44.000",
        "Units": "mg/L  as HCO3"
    },
    {
        "Site ID": "N32/0056",
        "SampleID": "NCY730004",
        "Collection Date": "21-Aug 1973 00:00am",
        "Measurement": "Ammoniacal Nitrogen",
        "Value": "0.005",
        "Units": "mg/L"
    },
    {
        "Site ID": "N32/0056",
        "SampleID": "NCY730004",
        "Collection Date": "21-Aug 1973 00:00am",
        "Measurement": "Calcium, Dissolved",
        "Value": "13.000",
        "Units": "mg/L"
    },
    {
        "Site ID": "N32/0056",
        "SampleID": "NCY730004",
        "Collection Date": "21-Aug 1973 00:00am",
        "Measurement": "Carbonate Alkalinity",
        "Value": "0.000",
        "Units": "mg/L CO3"
    },
    {
        "Site ID": "N32/0056",
        "SampleID": "NCY730004",
        "Collection Date": "21-Aug 1973 00:00am",
        "Measurement": "Chloride",
        "Value": "4.000",
        "Units": "mg/L"
    },
    {
        "Site ID": "N32/0056",
        "SampleID": "NCY730004",
        "Collection Date": "21-Aug 1973 00:00am",
        "Measurement": "Fluoride",
        "Value": "0.100",
        "Units": "g/m3"
    },
    {
        "Site ID": "N32/0056",
        "SampleID": "NCY730004",
        "Collection Date": "21-Aug 1973 00:00am",
        "Measurement": "Free Carbon Dioxide",
        "Value": "3.000",
        "Units": "g/m3 at 25\u00b0;C"
    },
    {
        "Site ID": "N32/0056",
        "SampleID": "NCY730004",
        "Collection Date": "21-Aug 1973 00:00am",
        "Measurement": "Hardness, Total",
        "Value": "40.000",
        "Units": "g/m3 as CaCO3"
    },
    {
        "Site ID": "N32/0056",
        "SampleID": "NCY730004",
        "Collection Date": "21-Aug 1973 00:00am",
        "Measurement": "Iron, Dissolved",
        "Value": "0.160",
        "Units": "mg/L"
    },
    {
        "Site ID": "N32/0056",
        "SampleID": "NCY730004",
        "Collection Date": "21-Aug 1973 00:00am",
        "Measurement": "Magnesium, Dissolved",
        "Value": "2.000",
        "Units": "mg/L"
    },
    {
        "Site ID": "N32/0056",
        "SampleID": "NCY730004",
        "Collection Date": "21-Aug 1973 00:00am",
        "Measurement": "Manganese, Dissolved",
        "Value": "0.0000",
        "Units": "mg/L"
    },
    {
        "Site ID": "N32/0056",
        "SampleID": "NCY730004",
        "Collection Date": "21-Aug 1973 00:00am",
        "Measurement": "Nitrate Nitrogen",
        "Value": "0.240",
        "Units": "mg/L"
    },
    {
        "Site ID": "N32/0056",
        "SampleID": "NCY730004",
        "Collection Date": "21-Aug 1973 00:00am",
        "Measurement": "Nitrite Nitrogen",
        "Value": "0.000",
        "Units": "mg/L"
    },
    {
        "Site ID": "N32/0056",
        "SampleID": "NCY730004",
        "Collection Date": "21-Aug 1973 00:00am",
        "Measurement": "pH",
        "Value": "7.3",
        "Units": ""
    },
    {
        "Site ID": "N32/0056",
        "SampleID": "NCY730004",
        "Collection Date": "21-Aug 1973 00:00am",
        "Measurement": "Potassium, Dissolved",
        "Value": "0.800",
        "Units": "mg/L"
    },
    {
        "Site ID": "N32/0056",
        "SampleID": "NCY730004",
        "Collection Date": "21-Aug 1973 00:00am",
        "Measurement": "Sodium, Dissolved",
        "Value": "4.400",
        "Units": "mg/L"
    },
    {
        "Site ID": "N32/0056",
        "SampleID": "NCY730004",
        "Collection Date": "21-Aug 1973 00:00am",
        "Measurement": "Sulphate",
        "Value": "10.000",
        "Units": "mg/L"
    },
    {
        "Site ID": "N32/0056",
        "SampleID": "NCY730004",
        "Collection Date": "21-Aug 1973 00:00am",
        "Measurement": "Turbidity",
        "Value": "0.0",
        "Units": "NTU"
    },
    {
        "Site ID": "N32/0056",
        "SampleID": "NCY680001",
        "Collection Date": "10-Apr 1968 00:00am",
        "Measurement": "Alkalinity to pH 4.5 as HCO3",
        "Value": "40.000",
        "Units": "mg/L  as HCO3"
    },
    {
        "Site ID": "N32/0056",
        "SampleID": "NCY680001",
        "Collection Date": "10-Apr 1968 00:00am",
        "Measurement": "Ammoniacal Nitrogen",
        "Value": "0.000",
        "Units": "mg/L"
    },
    {
        "Site ID": "N32/0056",
        "SampleID": "NCY680001",
        "Collection Date": "10-Apr 1968 00:00am",
        "Measurement": "Carbonate Alkalinity",
        "Value": "0.000",
        "Units": "mg/L CO3"
    },
    {
        "Site ID": "N32/0056",
        "SampleID": "NCY680001",
        "Collection Date": "10-Apr 1968 00:00am",
        "Measurement": "Chloride",
        "Value": "5.000",
        "Units": "mg/L"
    },
    {
        "Site ID": "N32/0056",
        "SampleID": "NCY680001",
        "Collection Date": "10-Apr 1968 00:00am",
        "Measurement": "Free Carbon Dioxide",
        "Value": "3.000",
        "Units": "g/m3 at 25\u00b0;C"
    },
    {
        "Site ID": "N32/0056",
        "SampleID": "NCY680001",
        "Collection Date": "10-Apr 1968 00:00am",
        "Measurement": "Hardness, Total",
        "Value": "45.000",
        "Units": "g/m3 as CaCO3"
    },
    {
        "Site ID": "N32/0056",
        "SampleID": "NCY680001",
        "Collection Date": "10-Apr 1968 00:00am",
        "Measurement": "Iron, Dissolved",
        "Value": "0.000",
        "Units": "mg/L"
    },
    {
        "Site ID": "N32/0056",
        "SampleID": "NCY680001",
        "Collection Date": "10-Apr 1968 00:00am",
        "Measurement": "Manganese, Dissolved",
        "Value": "0.0000",
        "Units": "mg/L"
    },
    {
        "Site ID": "N32/0056",
        "SampleID": "NCY680001",
        "Collection Date": "10-Apr 1968 00:00am",
        "Measurement": "Nitrate Nitrogen",
        "Value": "0.000",
        "Units": "mg/L"
    },
    {
        "Site ID": "N32/0056",
        "SampleID": "NCY680001",
        "Collection Date": "10-Apr 1968 00:00am",
        "Measurement": "Nitrite Nitrogen",
        "Value": "0.000",
        "Units": "mg/L"
    },
    {
        "Site ID": "N32/0056",
        "SampleID": "NCY680001",
        "Collection Date": "10-Apr 1968 00:00am",
        "Measurement": "pH",
        "Value": "7.1",
        "Units": ""
    },
    {
        "Site ID": "N32/0056",
        "SampleID": "NCY680001",
        "Collection Date": "10-Apr 1968 00:00am",
        "Measurement": "Total Coliforms",
        "Value": "0",
        "Units": "number/100mL"
    },
    {
        "Site ID": "N32/0056",
        "SampleID": "NCY680001",
        "Collection Date": "10-Apr 1968 00:00am",
        "Measurement": "Turbidity",
        "Value": "0.0",
        "Units": "NTU"
    }
]