Site ID,H39/0021
Site Name,-
Site ID,SampleID,Collection Date,Measurement,Value,Units
"H39/0021","2501290","02-Mar 2005 11:05am","Alkalinity to pH 4.5 as HCO3","37.000","mg/L  as HCO3"
"H39/0021","2501290","02-Mar 2005 11:05am","Ammoniacal Nitrogen","0.024","mg/L"
"H39/0021","2501290","02-Mar 2005 11:05am","Calcium, Dissolved","6.700","mg/L"
"H39/0021","2501290","02-Mar 2005 11:05am","Chloride","1.500","mg/L"
"H39/0021","2501290","02-Mar 2005 11:05am","Conductivity","7.0","mS/m"
"H39/0021","2501290","02-Mar 2005 11:05am","Conductivity (Field)","7.50","mS/m"
"H39/0021","2501290","02-Mar 2005 11:05am","Difference in Ion Balance","-3.100","%"
"H39/0021","2501290","02-Mar 2005 11:05am","Dissolved Oxygen","7.120","mg/L"
"H39/0021","2501290","02-Mar 2005 11:05am","Dissolved Oxygen Saturation","70.900","%"
"H39/0021","2501290","02-Mar 2005 11:05am","Hardness, Total","25.000","g/m3 as CaCO3"
"H39/0021","2501290","02-Mar 2005 11:05am","Iron, Dissolved","<0.030","mg/L"
"H39/0021","2501290","02-Mar 2005 11:05am","Magnesium, Dissolved","2.100","mg/L"
"H39/0021","2501290","02-Mar 2005 11:05am","Manganese, Dissolved","<0.0100","mg/L"
"H39/0021","2501290","02-Mar 2005 11:05am","Nitrate Nitrogen","0.400","mg/L"
"H39/0021","2501290","02-Mar 2005 11:05am","pH","6.5",""
"H39/0021","2501290","02-Mar 2005 11:05am","pH (Field)","5.90",""
"H39/0021","2501290","02-Mar 2005 11:05am","Potassium, Dissolved","0.700","mg/L"
"H39/0021","2501290","02-Mar 2005 11:05am","Silica, Reactive","14.000","mg/L  as SiO2"
"H39/0021","2501290","02-Mar 2005 11:05am","Sodium, Dissolved","4.300","mg/L"
"H39/0021","2501290","02-Mar 2005 11:05am","Sulphate","3.900","mg/L"
"H39/0021","2501290","02-Mar 2005 11:05am","Sum of anions","0.759","meq/L"
"H39/0021","2501290","02-Mar 2005 11:05am","Sum of cations","0.713","meq/L"
"H39/0021","2501290","02-Mar 2005 11:05am","Water Temperature (Field)","13.3","C"