Site ID,L37/1138
Site Name,Bridge Street No.1
Site ID,SampleID,Collection Date,Measurement,Value,Units
"L37/1138","IS060519A","19-May 2006 00:00am","Argon","0.440","mL(STP)/kg"
"L37/1138","IS060519A","19-May 2006 00:00am","Argon, Standard deviation","0.001","mL(STP)/kg"
"L37/1138","IS060519A","19-May 2006 00:00am","CFC-11 95% confidence interval age range","*","Year"
"L37/1138","IS060519A","19-May 2006 00:00am","CFC-11 age","79.000","Year"
"L37/1138","IS060519A","19-May 2006 00:00am","CFC-11 partial pressure","3.700","pptv"
"L37/1138","IS060519A","19-May 2006 00:00am","CFC-11 partial pressure Standard Deviation","0.100","pptv"
"L37/1138","IS060519A","19-May 2006 00:00am","CFC-11, Dissolved","0.100","pmol/kg"
"L37/1138","IS060519A","19-May 2006 00:00am","CFC-11, Dissolved Standard Deviation","0.000","pmol/kg"
"L37/1138","IS060519A","19-May 2006 00:00am","CFC-12 95% confidence interval age range","*","Year"
"L37/1138","IS060519A","19-May 2006 00:00am","CFC-12 age","62.000","Year"
"L37/1138","IS060519A","19-May 2006 00:00am","CFC-12 partial pressure","41.000","pptv"
"L37/1138","IS060519A","19-May 2006 00:00am","CFC-12 partial pressure Standard Deviation","0.400","pptv"
"L37/1138","IS060519A","19-May 2006 00:00am","CFC-12, Dissolved","0.200","pmol/kg"
"L37/1138","IS060519A","19-May 2006 00:00am","CFC-12, Dissolved Standard Deviation","0.000","pmol/kg"
"L37/1138","IS060519A","19-May 2006 00:00am","Excess air","4.800","mL(STP)/kg"
"L37/1138","IS060519A","19-May 2006 00:00am","Excess air standard deviation","0.000","mL(STP)/kg"
"L37/1138","IS060519A","19-May 2006 00:00am","Exponential Mixed Flow","50.000","%"
"L37/1138","IS060519A","19-May 2006 00:00am","IGNS Sample Reference","*",""
"L37/1138","IS060519A","19-May 2006 00:00am","Nitrogen, Gas","18.630","mL(STP)/kg"
"L37/1138","IS060519A","19-May 2006 00:00am","Nitrogen, Gas standard deviation","0.030","mL(STP)/kg"
"L37/1138","IS060519A","19-May 2006 00:00am","Recharge temperature","8.600","°C"
"L37/1138","IS060519A","19-May 2006 00:00am","Recharge temperature standard deviation","0.000","°C"
"L37/1138","IS060519A","19-May 2006 00:00am","SF6 95% confidence interval age range","*","Year"
"L37/1138","IS060519A","19-May 2006 00:00am","SF6 age","39.000","Year"
"L37/1138","IS060519A","19-May 2006 00:00am","SF6 partial pressure","0.500"," pptv"
"L37/1138","IS060519A","19-May 2006 00:00am","SF6, Dissolved","0.324","fmol/kg"
"L37/1138","IS060519A","19-May 2006 00:00am","Tritium 95% confidence interval age range","*","Year"
"L37/1138","IS060519A","19-May 2006 00:00am","Tritium age","71.000","Year"
"L37/1138","IS060519A","19-May 2006 00:00am","Tritium concentration","0.036","TU"