Site ID,L37/0273
Site Name,Missing Name
Site ID,SampleID,Collection Date,Measurement,Value,Units
"L37/0273","2009289","02-Nov 2000 12:35pm","Conductivity","22.0","mS/m"
"L37/0273","2009289","02-Nov 2000 12:35pm","Nitrate Nitrogen","7.900","mg/L"
"L37/0273","2009289","02-Nov 2000 12:35pm","pH","7.1",""
"L37/0273","2009289","02-Nov 2000 12:35pm","Water Temperature (Field)","14.0","C"