Site ID,M35/18638
Site Name,Two Chain Road No 2 Well
Site ID,SampleID,Collection Date,Measurement,Value,Units
"M35/18638","IS110526","26-May 2011 00:00am","Argon","0.367","mL(STP)/kg"
"M35/18638","IS110526","26-May 2011 00:00am","Argon, Standard uncertainty","0.007","mL(STP)/kg"
"M35/18638","IS110526","26-May 2011 00:00am","CFC-11 age","*","Year"
"M35/18638","IS110526","26-May 2011 00:00am","CFC-11 partial pressure","359.100","pptv"
"M35/18638","IS110526","26-May 2011 00:00am","CFC-11 partial pressure Standard Uncertainty","31.400","pptv"
"M35/18638","IS110526","26-May 2011 00:00am","CFC-11, Dissolved","6.500","pmol/kg"
"M35/18638","IS110526","26-May 2011 00:00am","CFC-11, Dissolved Uncertainty","0.100","pmol/kg"
"M35/18638","IS110526","26-May 2011 00:00am","CFC-12 95% confidence interval age range","<19.000","Year"
"M35/18638","IS110526","26-May 2011 00:00am","CFC-12 age","2.000","Year"
"M35/18638","IS110526","26-May 2011 00:00am","CFC-12 partial pressure","531.300","pptv"
"M35/18638","IS110526","26-May 2011 00:00am","CFC-12 partial pressure Standard Uncertainty","46.000","pptv"
"M35/18638","IS110526","26-May 2011 00:00am","CFC-12, Dissolved","2.600","pmol/kg"
"M35/18638","IS110526","26-May 2011 00:00am","CFC-12, Dissolved Uncertainty","0.100","pmol/kg"
"M35/18638","IS110526","26-May 2011 00:00am","Excess air","0.400","mL(STP)/kg"
"M35/18638","IS110526","26-May 2011 00:00am","Excess air standard uncertainty","0.700","mL(STP)/kg"
"M35/18638","IS110526","26-May 2011 00:00am","Exponential Mixed Flow","70.000","%"
"M35/18638","IS110526","26-May 2011 00:00am","IGNS Sample Reference","*",""
"M35/18638","IS110526","26-May 2011 00:00am","Nitrogen, Gas","14.090","mL(STP)/kg"
"M35/18638","IS110526","26-May 2011 00:00am","Nitrogen, Gas standard uncertainty","0.190","mL(STP)/kg"
"M35/18638","IS110526","26-May 2011 00:00am","Recharge temperature","12.400","°C"
"M35/18638","IS110526","26-May 2011 00:00am","Recharge temperature standard uncertaint","1.600","°C"
"M35/18638","IS110526","26-May 2011 00:00am","SF6 95% confidence interval age range","<8.000","Year"
"M35/18638","IS110526","26-May 2011 00:00am","SF6 age","2.000","Year"
"M35/18638","IS110526","26-May 2011 00:00am","SF6 partial pressure","6.530"," pptv"
"M35/18638","IS110526","26-May 2011 00:00am","SF6 partial pressure standard uncertainty","0.720"," pptv"
"M35/18638","IS110526","26-May 2011 00:00am","SF6, Dissolved","2.481","fmol/kg"
"M35/18638","IS110526","26-May 2011 00:00am","SF6, Dissolved Uncertainty","0.065","fmol/kg"
"M35/18638","IS110526","26-May 2011 00:00am","Tritium 95% confidence interval age range","*","Year"
"M35/18638","IS110526","26-May 2011 00:00am","Tritium age","3.000","Year"
"M35/18638","IS110526","26-May 2011 00:00am","Tritium concentration","0.036","TU"