Site ID,M35/2243
Site Name,Montreal Stn Well 1
Site ID,SampleID,Collection Date,Measurement,Value,Units
"M35/2243","ISOTO3405","01-Sep 1987 00:00am","14C age","5450.000","Year"
"M35/2243","ISOTO3405","01-Sep 1987 00:00am","14C Age Error","100.000","Year"
"M35/2243","ISOTO3405","01-Sep 1987 00:00am","IGNS Sample Reference","*",""
"M35/2243","ISOTO3405","01-Sep 1987 00:00am","Material Type Sampled","*",""
"M35/2243","ISOTO3405","01-Sep 1987 00:00am","Sample Depth below GL","19.000",""
"M35/2243","NCY810514","03-Aug 1981 00:00am","Alkalinity to pH 4.5 as HCO3","50.000","mg/L  as HCO3"
"M35/2243","NCY810514","03-Aug 1981 00:00am","Calcium, Dissolved","12.800","mg/L"
"M35/2243","NCY810514","03-Aug 1981 00:00am","Chloride","4.000","mg/L"
"M35/2243","NCY810514","03-Aug 1981 00:00am","Conductivity","9.8","mS/m"
"M35/2243","NCY810514","03-Aug 1981 00:00am","Hardness, Total","38.000","g/m3 as CaCO3"
"M35/2243","NCY810514","03-Aug 1981 00:00am","Iron, Dissolved","0.000","mg/L"
"M35/2243","NCY810514","03-Aug 1981 00:00am","Magnesium, Dissolved","1.500","mg/L"
"M35/2243","NCY810514","03-Aug 1981 00:00am","Manganese, Dissolved","0.0000","mg/L"
"M35/2243","NCY810514","03-Aug 1981 00:00am","Nitrate Nitrogen","0.500","mg/L"
"M35/2243","NCY810514","03-Aug 1981 00:00am","pH","7.5",""
"M35/2243","NCY810514","03-Aug 1981 00:00am","Potassium, Dissolved","0.700","mg/L"
"M35/2243","NCY810514","03-Aug 1981 00:00am","Silica, Reactive","18.900","mg/L  as SiO2"
"M35/2243","NCY810514","03-Aug 1981 00:00am","Sodium, Dissolved","6.000","mg/L"
"M35/2243","NCY810514","03-Aug 1981 00:00am","Sulphate","5.000","mg/L"
"M35/2243","ISOTO3180","20-May 1970 00:00am","Oxygen 18","-9.230",""
"M35/2243","ISOTO3180","20-May 1970 00:00am","Oxygen 18 Error of Measurement","0.100","%"
"M35/2243","NCY690003","27-Feb 1969 00:00am","Alkalinity to pH 4.5 as HCO3","55.000","mg/L  as HCO3"
"M35/2243","NCY690003","27-Feb 1969 00:00am","Ammoniacal Nitrogen","0.020","mg/L"
"M35/2243","NCY690003","27-Feb 1969 00:00am","Calcium, Dissolved","13.000","mg/L"
"M35/2243","NCY690003","27-Feb 1969 00:00am","Carbonate Alkalinity","0.000","mg/L CO3"
"M35/2243","NCY690003","27-Feb 1969 00:00am","Chloride","5.000","mg/L"
"M35/2243","NCY690003","27-Feb 1969 00:00am","Free Carbon Dioxide","2.000","g/m3 at 25°;C"
"M35/2243","NCY690003","27-Feb 1969 00:00am","Hardness, Total","42.000","g/m3 as CaCO3"
"M35/2243","NCY690003","27-Feb 1969 00:00am","Iron, Dissolved","0.120","mg/L"
"M35/2243","NCY690003","27-Feb 1969 00:00am","Magnesium, Dissolved","3.000","mg/L"
"M35/2243","NCY690003","27-Feb 1969 00:00am","Manganese, Dissolved","0.0000","mg/L"
"M35/2243","NCY690003","27-Feb 1969 00:00am","Nitrate Nitrogen","0.000","mg/L"
"M35/2243","NCY690003","27-Feb 1969 00:00am","Nitrite Nitrogen","0.000","mg/L"
"M35/2243","NCY690003","27-Feb 1969 00:00am","pH","7.5",""
"M35/2243","NCY690003","27-Feb 1969 00:00am","Silica, Reactive","20.000","mg/L  as SiO2"
"M35/2243","NCY690003","27-Feb 1969 00:00am","Total Coliforms","0","number/100mL"
"M35/2243","NCY690003","27-Feb 1969 00:00am","Turbidity","0.0","NTU"