Site ID,M35/0055
Site Name,West Eyreton Well No 2
Site ID,SampleID,Collection Date,Measurement,Value,Units
"M35/0055","CQ961200","19-Apr 1996 13:00pm","4,4'-DDD","<0.0100000","mg/L"
"M35/0055","CQ961200","19-Apr 1996 13:00pm","4,4'-DDE","<0.0100000","mg/L"
"M35/0055","CQ961200","19-Apr 1996 13:00pm","4,4'-DDT","<0.0100000","mg/L"
"M35/0055","CQ961200","19-Apr 1996 13:00pm","Alachlor","<0.010000","mg/L"
"M35/0055","CQ961200","19-Apr 1996 13:00pm","Aldrin","<0.0100000","mg/L"
"M35/0055","CQ961200","19-Apr 1996 13:00pm","Atrazine","<0.010000","mg/L"
"M35/0055","CQ961200","19-Apr 1996 13:00pm","Azinphos-methyl","<0.010000","mg/L"
"M35/0055","CQ961200","19-Apr 1996 13:00pm","Bromacil","<0.020000","mg/L"
"M35/0055","CQ961200","19-Apr 1996 13:00pm","Chlorpyrifos","<0.010000","mg/L"
"M35/0055","CQ961200","19-Apr 1996 13:00pm","Cyanazine","<0.020000","mg/L"
"M35/0055","CQ961200","19-Apr 1996 13:00pm","Diazinon","<0.010000","mg/L"
"M35/0055","CQ961200","19-Apr 1996 13:00pm","Dieldrin","<0.0100000","mg/L"
"M35/0055","CQ961200","19-Apr 1996 13:00pm","Diuron","<0.030000","mg/L"
"M35/0055","CQ961200","19-Apr 1996 13:00pm","Hexazinone","<0.020000","mg/L"
"M35/0055","CQ961200","19-Apr 1996 13:00pm","Lindane","<0.0100000","mg/L"
"M35/0055","CQ961200","19-Apr 1996 13:00pm","Linuron","<0.020000","mg/L"
"M35/0055","CQ961200","19-Apr 1996 13:00pm","Metribuzin","<0.010000","mg/L"
"M35/0055","CQ961200","19-Apr 1996 13:00pm","Oxidiazon","<0.020","ug/L"
"M35/0055","CQ961200","19-Apr 1996 13:00pm","Oxyfluorfen","<0.020000","mg/L"
"M35/0055","CQ961200","19-Apr 1996 13:00pm","Pendimethalin","<0.020000","mg/L"
"M35/0055","CQ961200","19-Apr 1996 13:00pm","Phorate sulfoxide","<0.030","ug/L"
"M35/0055","CQ961200","19-Apr 1996 13:00pm","Phorate sulphone","<0.030","ug/L"
"M35/0055","CQ961200","19-Apr 1996 13:00pm","Pirimiphos-methyl","<0.010000","mg/L"
"M35/0055","CQ961200","19-Apr 1996 13:00pm","Procymidone","<0.010000","mg/L"
"M35/0055","CQ961200","19-Apr 1996 13:00pm","Prometryn","<0.050000","mg/L"
"M35/0055","CQ961200","19-Apr 1996 13:00pm","Simazine","<0.010000","mg/L"
"M35/0055","CQ961200","19-Apr 1996 13:00pm","Terbuthylazine","<0.020000","mg/L"
"M35/0055","CQ961200","19-Apr 1996 13:00pm","Vinclozolin","<0.020000","mg/L"
"M35/0055","NCY800010","22-May 1980 00:00am","Chloride","4.500","mg/L"
"M35/0055","NCY800010","22-May 1980 00:00am","Conductivity","11.5","mS/m"
"M35/0055","NCY800010","22-May 1980 00:00am","Faecal Coliforms","4","cfu/100mL"
"M35/0055","NCY800010","22-May 1980 00:00am","Nitrate Nitrogen","1.900","mg/L"
"M35/0055","NCY800010","22-May 1980 00:00am","Total Coliforms","6.00","number/100mL"
"M35/0055","NCY800010","22-May 1980 00:00am","Water Temperature (Field)","14.0","C"