Site ID,M35/0496
Site Name,PINEACRES MOTOR CAMP
Site ID,SampleID,Collection Date,Measurement,Value,Units
"M35/0496","1000929","19-May 2010 11:30am","Alkalinity to pH 4.5 as HCO3","115.000","mg/L  as HCO3"
"M35/0496","1000929","19-May 2010 11:30am","Ammoniacal Nitrogen","0.310","mg/L"
"M35/0496","1000929","19-May 2010 11:30am","Calcium, Dissolved","16.000","mg/L"
"M35/0496","1000929","19-May 2010 11:30am","Chloride","8.400","mg/L"
"M35/0496","1000929","19-May 2010 11:30am","Conductivity","20.0","mS/m"
"M35/0496","1000929","19-May 2010 11:30am","Conductivity (Field)","19.50","mS/m"
"M35/0496","1000929","19-May 2010 11:30am","Difference in Ion Balance","-2.400","%"
"M35/0496","1000929","19-May 2010 11:30am","Dissolved Oxygen","0.200","mg/L"
"M35/0496","1000929","19-May 2010 11:30am","Dissolved Oxygen Saturation","1.800","%"
"M35/0496","1000929","19-May 2010 11:30am","Dissolved Reactive Phosphorus","0.1400","mg/L"
"M35/0496","1000929","19-May 2010 11:30am","Hardness, Total","59.000","g/m3 as CaCO3"
"M35/0496","1000929","19-May 2010 11:30am","Iron, Dissolved","0.920","mg/L"
"M35/0496","1000929","19-May 2010 11:30am","Magnesium, Dissolved","4.700","mg/L"
"M35/0496","1000929","19-May 2010 11:30am","Manganese, Dissolved","0.1600","mg/L"
"M35/0496","1000929","19-May 2010 11:30am","Nitrate Nitrogen","<0.100","mg/L"
"M35/0496","1000929","19-May 2010 11:30am","Oxygen 18","-8.780","Â‰"
"M35/0496","1000929","19-May 2010 11:30am","pH","7.2",""
"M35/0496","1000929","19-May 2010 11:30am","pH (Field)","7.50",""
"M35/0496","1000929","19-May 2010 11:30am","Potassium, Dissolved","0.900","mg/L"
"M35/0496","1000929","19-May 2010 11:30am","Silica, Reactive","23.000","mg/L  as SiO2"
"M35/0496","1000929","19-May 2010 11:30am","Sodium, Dissolved","18.000","mg/L"
"M35/0496","1000929","19-May 2010 11:30am","Sulphate","0.400","mg/L"
"M35/0496","1000929","19-May 2010 11:30am","Sum of anions","2.138","meq/L"
"M35/0496","1000929","19-May 2010 11:30am","Sum of cations","2.038","meq/L"
"M35/0496","1000929","19-May 2010 11:30am","Water Temperature (Field)","12.9","C"