Site ID,M35/1554
Site Name,EFFINGHAM STN WELL 1
Site ID,SampleID,Collection Date,Measurement,Value,Units
"M35/1554","184410304","14-Sep 2017 14:05pm","Alkalinity, Total","48.0","g/m3 as CaCO3"
"M35/1554","184410304","14-Sep 2017 14:05pm","Ammoniacal Nitrogen","<0.010","mg/L"
"M35/1554","184410304","14-Sep 2017 14:05pm","Bicarbonate","58.000","mg/L  at 25°C"
"M35/1554","184410304","14-Sep 2017 14:05pm","Boron, Dissolved","0.017","mg/L"
"M35/1554","184410304","14-Sep 2017 14:05pm","Bromide","<0.050","g/m3"
"M35/1554","184410304","14-Sep 2017 14:05pm","Calcium, Dissolved","11.200","mg/L"
"M35/1554","184410304","14-Sep 2017 14:05pm","Chloride","6.800","mg/L"
"M35/1554","184410304","14-Sep 2017 14:05pm","Conductivity","11.9","mS/m"
"M35/1554","184410304","14-Sep 2017 14:05pm","Conductivity (Field)","12.16","mS/m"
"M35/1554","184410304","14-Sep 2017 14:05pm","Deuterium","-62.460",""
"M35/1554","184410304","14-Sep 2017 14:05pm","Difference in Ion Balance","1.040","%"
"M35/1554","184410304","14-Sep 2017 14:05pm","Dissolved Oxygen","3.920","mg/L"
"M35/1554","184410304","14-Sep 2017 14:05pm","Dissolved Oxygen Saturation","39.500","%"
"M35/1554","184410304","14-Sep 2017 14:05pm","Dissolved Reactive Phosphorus","0.0099","mg/L"
"M35/1554","184410304","14-Sep 2017 14:05pm","Hardness, Total","38.000","g/m3 as CaCO3"
"M35/1554","184410304","14-Sep 2017 14:05pm","Iron, Dissolved","0.020","mg/L"
"M35/1554","184410304","14-Sep 2017 14:05pm","Magnesium, Dissolved","2.300","mg/L"
"M35/1554","184410304","14-Sep 2017 14:05pm","Manganese, Dissolved","0.0068","mg/L"
"M35/1554","184410304","14-Sep 2017 14:05pm","Nitrate Nitrogen","0.151","mg/L"
"M35/1554","184410304","14-Sep 2017 14:05pm","Nitrate-N Nitrite-N","0.151","g/m3"
"M35/1554","184410304","14-Sep 2017 14:05pm","Nitrite Nitrogen","<0.002","mg/L"
"M35/1554","184410304","14-Sep 2017 14:05pm","Oxidation Reduction Potential","84.900","mV"
"M35/1554","184410304","14-Sep 2017 14:05pm","Oxygen 18","-8.960",""
"M35/1554","184410304","14-Sep 2017 14:05pm","pH","8.0",""
"M35/1554","184410304","14-Sep 2017 14:05pm","pH (Field)","8.37",""
"M35/1554","184410304","14-Sep 2017 14:05pm","Potassium, Dissolved","0.820","mg/L"
"M35/1554","184410304","14-Sep 2017 14:05pm","Silica, Reactive","18.700","mg/L  as SiO2"
"M35/1554","184410304","14-Sep 2017 14:05pm","Sodium, Dissolved","9.400","mg/L"
"M35/1554","184410304","14-Sep 2017 14:05pm","Sulphate","2.500","mg/L"
"M35/1554","184410304","14-Sep 2017 14:05pm","Sum of anions","1.210","meq/L"
"M35/1554","184410304","14-Sep 2017 14:05pm","Sum of cations","1.180","meq/L"
"M35/1554","184410304","14-Sep 2017 14:05pm","Water Temperature (Field)","15.4","C"
"M35/1554","NCY810465","06-Jul 1981 00:00am","Alkalinity to pH 4.5 as HCO3","52.000","mg/L  as HCO3"
"M35/1554","NCY810465","06-Jul 1981 00:00am","Calcium, Dissolved","11.000","mg/L"
"M35/1554","NCY810465","06-Jul 1981 00:00am","Chloride","6.000","mg/L"
"M35/1554","NCY810465","06-Jul 1981 00:00am","Conductivity","9.9","mS/m"
"M35/1554","NCY810465","06-Jul 1981 00:00am","Hardness, Total","34.000","g/m3 as CaCO3"
"M35/1554","NCY810465","06-Jul 1981 00:00am","Iron, Dissolved","0.000","mg/L"
"M35/1554","NCY810465","06-Jul 1981 00:00am","Magnesium, Dissolved","1.000","mg/L"
"M35/1554","NCY810465","06-Jul 1981 00:00am","Manganese, Dissolved","0.0000","mg/L"
"M35/1554","NCY810465","06-Jul 1981 00:00am","Nitrate Nitrogen","0.100","mg/L"
"M35/1554","NCY810465","06-Jul 1981 00:00am","pH","7.8",""
"M35/1554","NCY810465","06-Jul 1981 00:00am","Potassium, Dissolved","0.700","mg/L"
"M35/1554","NCY810465","06-Jul 1981 00:00am","Silica, Reactive","22.300","mg/L  as SiO2"
"M35/1554","NCY810465","06-Jul 1981 00:00am","Sodium, Dissolved","9.000","mg/L"
"M35/1554","NCY810465","06-Jul 1981 00:00am","Sulphate","5.300","mg/L"
"M35/1554","NCY730019","20-Jun 1973 00:00am","Alkalinity to pH 4.5 as HCO3","55.000","mg/L  as HCO3"
"M35/1554","NCY730019","20-Jun 1973 00:00am","Ammoniacal Nitrogen","0.000","mg/L"
"M35/1554","NCY730019","20-Jun 1973 00:00am","Calcium, Dissolved","12.000","mg/L"
"M35/1554","NCY730019","20-Jun 1973 00:00am","Carbonate Alkalinity","0.000","mg/L CO3"
"M35/1554","NCY730019","20-Jun 1973 00:00am","Chloride","6.000","mg/L"
"M35/1554","NCY730019","20-Jun 1973 00:00am","Dissolved Oxygen","7.000","mg/L"
"M35/1554","NCY730019","20-Jun 1973 00:00am","Dissolved Reactive Phosphorus","0.0130","mg/L"
"M35/1554","NCY730019","20-Jun 1973 00:00am","Fluoride","0.100","g/m3"
"M35/1554","NCY730019","20-Jun 1973 00:00am","Free Carbon Dioxide","2.000","g/m3 at 25°;C"
"M35/1554","NCY730019","20-Jun 1973 00:00am","Hardness, Total","38.000","g/m3 as CaCO3"
"M35/1554","NCY730019","20-Jun 1973 00:00am","Iron, Dissolved","0.000","mg/L"
"M35/1554","NCY730019","20-Jun 1973 00:00am","Magnesium, Dissolved","2.000","mg/L"
"M35/1554","NCY730019","20-Jun 1973 00:00am","Manganese, Dissolved","0.0000","mg/L"
"M35/1554","NCY730019","20-Jun 1973 00:00am","Nitrate Nitrogen","0.200","mg/L"
"M35/1554","NCY730019","20-Jun 1973 00:00am","Nitrite Nitrogen","0.000","mg/L"
"M35/1554","NCY730019","20-Jun 1973 00:00am","pH","7.8",""
"M35/1554","NCY730019","20-Jun 1973 00:00am","Potassium, Dissolved","0.700","mg/L"
"M35/1554","NCY730019","20-Jun 1973 00:00am","Silica, Reactive","20.000","mg/L  as SiO2"
"M35/1554","NCY730019","20-Jun 1973 00:00am","Sodium, Dissolved","8.900","mg/L"
"M35/1554","NCY730019","20-Jun 1973 00:00am","Sulphate","4.000","mg/L"
"M35/1554","NCY730019","20-Jun 1973 00:00am","Total Coliforms","0","number/100mL"
"M35/1554","NCY730019","20-Jun 1973 00:00am","Turbidity","0.0","NTU"
"M35/1554","NCY650007","21-Oct 1965 00:00am","Alkalinity to pH 4.5 as HCO3","57.000","mg/L  as HCO3"
"M35/1554","NCY650007","21-Oct 1965 00:00am","Ammoniacal Nitrogen","0.000","mg/L"
"M35/1554","NCY650007","21-Oct 1965 00:00am","Chloride","8.000","mg/L"
"M35/1554","NCY650007","21-Oct 1965 00:00am","Hardness, Total","40.000","g/m3 as CaCO3"
"M35/1554","NCY650007","21-Oct 1965 00:00am","Iron, Dissolved","0.900","mg/L"
"M35/1554","NCY650007","21-Oct 1965 00:00am","Nitrate Nitrogen","0.000","mg/L"
"M35/1554","NCY650007","21-Oct 1965 00:00am","Nitrite Nitrogen","0.000","mg/L"
"M35/1554","NCY650007","21-Oct 1965 00:00am","pH","7.6",""
"M35/1554","NCY650007","21-Oct 1965 00:00am","Total Coliforms","0","number/100mL"