Site ID,M35/2873
Site Name,Jowers Road Water Supply
Site ID,SampleID,Collection Date,Measurement,Value,Units
"M35/2873","IS100415B","15-Apr 2010 00:00am","Argon","0.396","mL(STP)/kg"
"M35/2873","IS100415B","15-Apr 2010 00:00am","Argon, Standard uncertainty","0.006","mL(STP)/kg"
"M35/2873","IS100415B","15-Apr 2010 00:00am","CFC-11 95% confidence interval age range","36.000","Year"
"M35/2873","IS100415B","15-Apr 2010 00:00am","CFC-11 age","39.000","Year"
"M35/2873","IS100415B","15-Apr 2010 00:00am","CFC-11 partial pressure","93.600","pptv"
"M35/2873","IS100415B","15-Apr 2010 00:00am","CFC-11 partial pressure Standard Uncertainty","7.600","pptv"
"M35/2873","IS100415B","15-Apr 2010 00:00am","CFC-11, Dissolved","1.900","pmol/kg"
"M35/2873","IS100415B","15-Apr 2010 00:00am","CFC-11, Dissolved Uncertainty","0.000","pmol/kg"
"M35/2873","IS100415B","15-Apr 2010 00:00am","CFC-12 95% confidence interval age range","22.000","Year"
"M35/2873","IS100415B","15-Apr 2010 00:00am","CFC-12 age","26.000","Year"
"M35/2873","IS100415B","15-Apr 2010 00:00am","CFC-12 partial pressure","365.400","pptv"
"M35/2873","IS100415B","15-Apr 2010 00:00am","CFC-12 partial pressure Standard Uncertainty","32.000","pptv"
"M35/2873","IS100415B","15-Apr 2010 00:00am","CFC-12, Dissolved","1.900","pmol/kg"
"M35/2873","IS100415B","15-Apr 2010 00:00am","CFC-12, Dissolved Uncertainty","0.100","pmol/kg"
"M35/2873","IS100415B","15-Apr 2010 00:00am","Excess air","2.000","mL(STP)/kg"
"M35/2873","IS100415B","15-Apr 2010 00:00am","Excess air standard uncertainty","0.800","mL(STP)/kg"
"M35/2873","IS100415B","15-Apr 2010 00:00am","Exponential Mixed Flow","30.000","%"
"M35/2873","IS100415B","15-Apr 2010 00:00am","IGNS Sample Reference","*",""
"M35/2873","IS100415B","15-Apr 2010 00:00am","Nitrogen, Gas","15.820","mL(STP)/kg"
"M35/2873","IS100415B","15-Apr 2010 00:00am","Nitrogen, Gas standard uncertainty","0.260","mL(STP)/kg"
"M35/2873","IS100415B","15-Apr 2010 00:00am","Recharge temperature","10.600","°C"
"M35/2873","IS100415B","15-Apr 2010 00:00am","Recharge temperature standard uncertaint","1.500","°C"
"M35/2873","IS100415B","15-Apr 2010 00:00am","SF6 95% confidence interval age range","7.000","Year"
"M35/2873","IS100415B","15-Apr 2010 00:00am","SF6 age","10.000","Year"
"M35/2873","IS100415B","15-Apr 2010 00:00am","SF6 partial pressure","4.310"," pptv"
"M35/2873","IS100415B","15-Apr 2010 00:00am","SF6 partial pressure standard uncertainty","0.440"," pptv"
"M35/2873","IS100415B","15-Apr 2010 00:00am","SF6, Dissolved","2.057","fmol/kg"
"M35/2873","IS100415B","15-Apr 2010 00:00am","SF6, Dissolved Uncertainty","0.060","fmol/kg"
"M35/2873","IS100415B","15-Apr 2010 00:00am","Tritium 95% confidence interval age range","44.000","Year"
"M35/2873","IS100415B","15-Apr 2010 00:00am","Tritium age","48.000","Year"
"M35/2873","IS100415B","15-Apr 2010 00:00am","Tritium concentration","0.040","TU"
"M35/2873","ISOTO4569","16-Feb 2001 00:05am","Oxygen 18","-8.910",""
"M35/2873","IS010216D","16-Feb 2001 00:00am","CFC preferred recharge year","1972.000","Year"
"M35/2873","IS010216D","16-Feb 2001 00:00am","CFC-11 partial pressure","66.100","pptv"
"M35/2873","IS010216D","16-Feb 2001 00:00am","CFC-11 partial pressure Standard Deviation","0.500","pptv"
"M35/2873","IS010216D","16-Feb 2001 00:00am","CFC-11 recharge year","1972.000","Year"
"M35/2873","IS010216D","16-Feb 2001 00:00am","CFC-11, Dissolved","1.300","pmol/kg"
"M35/2873","IS010216D","16-Feb 2001 00:00am","CFC-11, Dissolved Standard Deviation","0.010","pmol/kg"
"M35/2873","IS010216D","16-Feb 2001 00:00am","CFC-12 partial pressure","272.800","pptv"
"M35/2873","IS010216D","16-Feb 2001 00:00am","CFC-12 partial pressure Standard Deviation","0.000","pptv"
"M35/2873","IS010216D","16-Feb 2001 00:00am","CFC-12 recharge year","1979.000","Year"
"M35/2873","IS010216D","16-Feb 2001 00:00am","CFC-12, Dissolved","1.400","pmol/kg"
"M35/2873","IS010216D","16-Feb 2001 00:00am","CFC-12, Dissolved Standard Deviation","0.000","pmol/kg"
"M35/2873","IS010216D","16-Feb 2001 00:00am","CFC-13, Dissolved Uncertainty","11.500","pmol/kg"
"M35/2873","IS010216D","16-Feb 2001 00:00am","IGNS Sample Reference","*",""
"M35/2873","IS010216D","16-Feb 2001 00:00am","Recharge elevation","0.000","m"
"M35/2873","IS010216D","16-Feb 2001 00:00am","Recharge temperature","11.500","°C"
"M35/2873","IS010216D","16-Feb 2001 00:00am","Recommended model age","0.000","Year"
"M35/2873","IS010216D","16-Feb 2001 00:00am","Relative humidity","0.000","%"
"M35/2873","IS010216D","16-Feb 2001 00:00am","Tritium age","29.000","Year"