Site ID,M35/3673
Site Name,Edendale Water Supply
Site ID,SampleID,Collection Date,Measurement,Value,Units
"M35/3673","IS100415A","15-Apr 2010 00:00am","Argon","0.407","mL(STP)/kg"
"M35/3673","IS100415A","15-Apr 2010 00:00am","Argon, Standard uncertainty","0.006","mL(STP)/kg"
"M35/3673","IS100415A","15-Apr 2010 00:00am","CFC-11 95% confidence interval age range","37.000","Year"
"M35/3673","IS100415A","15-Apr 2010 00:00am","CFC-11 age","40.000","Year"
"M35/3673","IS100415A","15-Apr 2010 00:00am","CFC-11 partial pressure","102.900","pptv"
"M35/3673","IS100415A","15-Apr 2010 00:00am","CFC-11 partial pressure Standard Uncertainty","7.800","pptv"
"M35/3673","IS100415A","15-Apr 2010 00:00am","CFC-11, Dissolved","2.200","pmol/kg"
"M35/3673","IS100415A","15-Apr 2010 00:00am","CFC-11, Dissolved Uncertainty","0.000","pmol/kg"
"M35/3673","IS100415A","15-Apr 2010 00:00am","CFC-12 95% confidence interval age range","29.000","Year"
"M35/3673","IS100415A","15-Apr 2010 00:00am","CFC-12 age","32.000","Year"
"M35/3673","IS100415A","15-Apr 2010 00:00am","CFC-12 partial pressure","285.100","pptv"
"M35/3673","IS100415A","15-Apr 2010 00:00am","CFC-12 partial pressure Standard Uncertainty","25.500","pptv"
"M35/3673","IS100415A","15-Apr 2010 00:00am","CFC-12, Dissolved","1.600","pmol/kg"
"M35/3673","IS100415A","15-Apr 2010 00:00am","CFC-12, Dissolved Uncertainty","0.100","pmol/kg"
"M35/3673","IS100415A","15-Apr 2010 00:00am","Excess air","2.300","mL(STP)/kg"
"M35/3673","IS100415A","15-Apr 2010 00:00am","Excess air standard uncertainty","0.700","mL(STP)/kg"
"M35/3673","IS100415A","15-Apr 2010 00:00am","Exponential Mixed Flow","45.000","%"
"M35/3673","IS100415A","15-Apr 2010 00:00am","IGNS Sample Reference","*",""
"M35/3673","IS100415A","15-Apr 2010 00:00am","Nitrogen, Gas","16.340","mL(STP)/kg"
"M35/3673","IS100415A","15-Apr 2010 00:00am","Nitrogen, Gas standard uncertainty","0.220","mL(STP)/kg"
"M35/3673","IS100415A","15-Apr 2010 00:00am","Recharge temperature","9.600","°C"
"M35/3673","IS100415A","15-Apr 2010 00:00am","Recharge temperature standard uncertaint","1.400","°C"
"M35/3673","IS100415A","15-Apr 2010 00:00am","SF6 95% confidence interval age range","13.000","Year"
"M35/3673","IS100415A","15-Apr 2010 00:00am","SF6 age","15.500","Year"
"M35/3673","IS100415A","15-Apr 2010 00:00am","SF6 partial pressure","3.290"," pptv"
"M35/3673","IS100415A","15-Apr 2010 00:00am","SF6 partial pressure standard uncertainty","0.310"," pptv"
"M35/3673","IS100415A","15-Apr 2010 00:00am","SF6, Dissolved","1.671","fmol/kg"
"M35/3673","IS100415A","15-Apr 2010 00:00am","SF6, Dissolved Uncertainty","0.049","fmol/kg"
"M35/3673","IS100415A","15-Apr 2010 00:00am","Tritium 95% confidence interval age range","55.000","Year"
"M35/3673","IS100415A","15-Apr 2010 00:00am","Tritium age","57.000","Year"
"M35/3673","IS100415A","15-Apr 2010 00:00am","Tritium concentration","0.035","TU"
"M35/3673","2603556","17-May 2006 10:15am","Alkalinity to pH 4.5 as HCO3","53.000","mg/L  as HCO3"
"M35/3673","2603556","17-May 2006 10:15am","Ammoniacal Nitrogen","0.017","mg/L"
"M35/3673","2603556","17-May 2006 10:15am","Calcium, Dissolved","18.000","mg/L"
"M35/3673","2603556","17-May 2006 10:15am","Chloride","12.000","mg/L"
"M35/3673","2603556","17-May 2006 10:15am","Conductivity","18.0","mS/m"
"M35/3673","2603556","17-May 2006 10:15am","Conductivity (Field)","17.80","mS/m"
"M35/3673","2603556","17-May 2006 10:15am","Difference in Ion Balance","0.230","%"
"M35/3673","2603556","17-May 2006 10:15am","Dissolved Oxygen","7.000","mg/L"
"M35/3673","2603556","17-May 2006 10:15am","Dissolved Oxygen Saturation","64.300","%"
"M35/3673","2603556","17-May 2006 10:15am","Hardness, Total","61.000","g/m3 as CaCO3"
"M35/3673","2603556","17-May 2006 10:15am","Iron, Dissolved","<0.030","mg/L"
"M35/3673","2603556","17-May 2006 10:15am","Magnesium, Dissolved","3.900","mg/L"
"M35/3673","2603556","17-May 2006 10:15am","Manganese, Dissolved","<0.0100","mg/L"
"M35/3673","2603556","17-May 2006 10:15am","Nitrate Nitrogen","5.400","mg/L"
"M35/3673","2603556","17-May 2006 10:15am","pH","7.1",""
"M35/3673","2603556","17-May 2006 10:15am","pH (Field)","7.30",""
"M35/3673","2603556","17-May 2006 10:15am","Potassium, Dissolved","0.800","mg/L"
"M35/3673","2603556","17-May 2006 10:15am","Silica, Reactive","14.000","mg/L  as SiO2"
"M35/3673","2603556","17-May 2006 10:15am","Sodium, Dissolved","11.000","mg/L"
"M35/3673","2603556","17-May 2006 10:15am","Sulphate","5.500","mg/L"
"M35/3673","2603556","17-May 2006 10:15am","Sum of anions","1.708","meq/L"
"M35/3673","2603556","17-May 2006 10:15am","Sum of cations","1.716","meq/L"
"M35/3673","2603556","17-May 2006 10:15am","Water Temperature (Field)","12.0","C"
"M35/3673","2402174","07-Apr 2004 14:15pm","Alkalinity to pH 4.5 as HCO3","57.000","mg/L  as HCO3"
"M35/3673","2402174","07-Apr 2004 14:15pm","Calcium, Dissolved","19.000","mg/L"
"M35/3673","2402174","07-Apr 2004 14:15pm","Chloride","14.000","mg/L"
"M35/3673","2402174","07-Apr 2004 14:15pm","Conductivity","20.0","mS/m"
"M35/3673","2402174","07-Apr 2004 14:15pm","Conductivity (Field)","20.20","mS/m"
"M35/3673","2402174","07-Apr 2004 14:15pm","Dissolved Oxygen","5.300","mg/L"
"M35/3673","2402174","07-Apr 2004 14:15pm","Dissolved Oxygen Saturation","49.900","%"
"M35/3673","2402174","07-Apr 2004 14:15pm","Magnesium, Dissolved","3.900","mg/L"
"M35/3673","2402174","07-Apr 2004 14:15pm","Nitrate Nitrogen","6.500","mg/L"
"M35/3673","2402174","07-Apr 2004 14:15pm","pH","7.3",""
"M35/3673","2402174","07-Apr 2004 14:15pm","pH (Field)","6.70",""
"M35/3673","2402174","07-Apr 2004 14:15pm","Potassium, Dissolved","1.000","mg/L"
"M35/3673","2402174","07-Apr 2004 14:15pm","Sodium, Dissolved","11.000","mg/L"
"M35/3673","2402174","07-Apr 2004 14:15pm","Sulphate","4.900","mg/L"
"M35/3673","2402174","07-Apr 2004 14:15pm","Water Temperature (Field)","12.5","C"
"M35/3673","IS040407","07-Apr 2004 00:00am","Argon","0.509","mL(STP)/kg"
"M35/3673","IS040407","07-Apr 2004 00:00am","Argon, Standard deviation","0.003","mL(STP)/kg"
"M35/3673","IS040407","07-Apr 2004 00:00am","CFC-11 partial pressure","0.700","pptv"
"M35/3673","IS040407","07-Apr 2004 00:00am","CFC-11 partial pressure Standard Deviation","0.000","pptv"
"M35/3673","IS040407","07-Apr 2004 00:00am","CFC-11, Dissolved","0.020","pmol/kg"
"M35/3673","IS040407","07-Apr 2004 00:00am","CFC-11, Dissolved Standard Deviation","0.000","pmol/kg"
"M35/3673","IS040407","07-Apr 2004 00:00am","CFC-12 partial pressure","24.800","pptv"
"M35/3673","IS040407","07-Apr 2004 00:00am","CFC-12 partial pressure Standard Deviation","0.200","pptv"
"M35/3673","IS040407","07-Apr 2004 00:00am","CFC-12, Dissolved","0.150","pmol/kg"
"M35/3673","IS040407","07-Apr 2004 00:00am","CFC-12, Dissolved Standard Deviation","0.000","pmol/kg"
"M35/3673","IS040407","07-Apr 2004 00:00am","Excess air","12.500","mL(STP)/kg"
"M35/3673","IS040407","07-Apr 2004 00:00am","Excess air standard deviation","0.200","mL(STP)/kg"
"M35/3673","IS040407","07-Apr 2004 00:00am","IGNS Sample Reference","*",""
"M35/3673","IS040407","07-Apr 2004 00:00am","Nitrogen, Gas","24.560","mL(STP)/kg"
"M35/3673","IS040407","07-Apr 2004 00:00am","Nitrogen, Gas standard deviation","0.210","mL(STP)/kg"
"M35/3673","IS040407","07-Apr 2004 00:00am","Recharge temperature","8.800","°C"
"M35/3673","IS040407","07-Apr 2004 00:00am","Recharge temperature standard deviation","0.100","°C"
"M35/3673","IS040407","07-Apr 2004 00:00am","SF6 partial pressure","0.300"," pptv"
"M35/3673","IS040407","07-Apr 2004 00:00am","SF6, Dissolved","0.290","fmol/kg"
"M35/3673","IS040407","07-Apr 2004 00:00am","Tritium concentration","1.500","TU"
"M35/3673","ISOTO4488","16-Feb 2001 00:05am","Oxygen 18","-8.440",""
"M35/3673","IS010216C","16-Feb 2001 00:00am","CFC preferred recharge year","1956.000","Year"
"M35/3673","IS010216C","16-Feb 2001 00:00am","CFC-11 partial pressure","3.600","pptv"
"M35/3673","IS010216C","16-Feb 2001 00:00am","CFC-11 partial pressure Standard Deviation","0.200","pptv"
"M35/3673","IS010216C","16-Feb 2001 00:00am","CFC-11 recharge year","1956.000","Year"
"M35/3673","IS010216C","16-Feb 2001 00:00am","CFC-11, Dissolved","0.070","pmol/kg"
"M35/3673","IS010216C","16-Feb 2001 00:00am","CFC-11, Dissolved Standard Deviation","0.000","pmol/kg"
"M35/3673","IS010216C","16-Feb 2001 00:00am","CFC-12 partial pressure","25.800","pptv"
"M35/3673","IS010216C","16-Feb 2001 00:00am","CFC-12 partial pressure Standard Deviation","1.000","pptv"
"M35/3673","IS010216C","16-Feb 2001 00:00am","CFC-12 recharge year","1959.000","Year"
"M35/3673","IS010216C","16-Feb 2001 00:00am","CFC-12, Dissolved","0.130","pmol/kg"
"M35/3673","IS010216C","16-Feb 2001 00:00am","CFC-12, Dissolved Standard Deviation","0.000","pmol/kg"
"M35/3673","IS010216C","16-Feb 2001 00:00am","CFC-13, Dissolved Uncertainty","11.500","pmol/kg"
"M35/3673","IS010216C","16-Feb 2001 00:00am","IGNS Sample Reference","*",""
"M35/3673","IS010216C","16-Feb 2001 00:00am","Recharge elevation","0.000","m"
"M35/3673","IS010216C","16-Feb 2001 00:00am","Recharge temperature","11.500","°C"
"M35/3673","IS010216C","16-Feb 2001 00:00am","Recommended model age","0.000","Year"
"M35/3673","IS010216C","16-Feb 2001 00:00am","Relative humidity","0.000","%"
"M35/3673","IS010216C","16-Feb 2001 00:00am","Tritium age","45.000","Year"