Site ID,M35/1870
Site Name,Averill Stn Well 4
Site ID,SampleID,Collection Date,Measurement,Value,Units
"M35/1870","NCY821172","07-Dec 1982 00:00am","Alkalinity to pH 4.5 as HCO3","56.000","mg/L  as HCO3"
"M35/1870","NCY821172","07-Dec 1982 00:00am","Ammoniacal Nitrogen","0.027","mg/L"
"M35/1870","NCY821172","07-Dec 1982 00:00am","Bromide","0.000","g/m3"
"M35/1870","NCY821172","07-Dec 1982 00:00am","Calcium, Dissolved","12.000","mg/L"
"M35/1870","NCY821172","07-Dec 1982 00:00am","Chloride","5.000","mg/L"
"M35/1870","NCY821172","07-Dec 1982 00:00am","Conductivity","10.8","mS/m"
"M35/1870","NCY821172","07-Dec 1982 00:00am","Hardness, Total","39.000","g/m3 as CaCO3"
"M35/1870","NCY821172","07-Dec 1982 00:00am","Iron, Dissolved","0.000","mg/L"
"M35/1870","NCY821172","07-Dec 1982 00:00am","Magnesium, Dissolved","2.200","mg/L"
"M35/1870","NCY821172","07-Dec 1982 00:00am","Manganese, Dissolved","0.0000","mg/L"
"M35/1870","NCY821172","07-Dec 1982 00:00am","Nitrate Nitrogen","0.100","mg/L"
"M35/1870","NCY821172","07-Dec 1982 00:00am","pH","7.9",""
"M35/1870","NCY821172","07-Dec 1982 00:00am","Potassium, Dissolved","0.700","mg/L"
"M35/1870","NCY821172","07-Dec 1982 00:00am","Sodium, Dissolved","7.800","mg/L"
"M35/1870","NCY821172","07-Dec 1982 00:00am","Sulphate","3.400","mg/L"
"M35/1870","NCY640014","01-Jul 1964 00:00am","Alkalinity to pH 4.5 as HCO3","63.000","mg/L  as HCO3"
"M35/1870","NCY640014","01-Jul 1964 00:00am","Calcium, Dissolved","11.000","mg/L"
"M35/1870","NCY640014","01-Jul 1964 00:00am","Chloride","5.000","mg/L"
"M35/1870","NCY640014","01-Jul 1964 00:00am","Dissolved Oxygen","5.400","mg/L"
"M35/1870","NCY640014","01-Jul 1964 00:00am","Hardness, Total","39.000","g/m3 as CaCO3"
"M35/1870","NCY640014","01-Jul 1964 00:00am","Magnesium, Dissolved","3.000","mg/L"
"M35/1870","NCY640014","01-Jul 1964 00:00am","Nitrate Nitrogen","0.100","mg/L"
"M35/1870","NCY640014","01-Jul 1964 00:00am","pH","7.6",""
"M35/1870","NCY640014","01-Jul 1964 00:00am","Silica, Reactive","12.000","mg/L  as SiO2"