Site ID,M35/0216
Site Name,Ayres Street Well No 1
Site ID,SampleID,Collection Date,Measurement,Value,Units
"M35/0216","NCY790028","26-Jul 1979 00:00am","Chloride","3.000","mg/L"
"M35/0216","NCY790028","26-Jul 1979 00:00am","Conductivity","8.3","mS/m"
"M35/0216","NCY790028","26-Jul 1979 00:00am","Nitrate Nitrogen","0.800","mg/L"
"M35/0216","NCY790028","26-Jul 1979 00:00am","Water Temperature (Field)","13.0","C"
"M35/0216","NCY730087","23-Jul 1973 00:00am","Alkalinity to pH 4.5 as HCO3","40.000","mg/L  as HCO3"
"M35/0216","NCY730087","23-Jul 1973 00:00am","Ammoniacal Nitrogen","0.005","mg/L"
"M35/0216","NCY730087","23-Jul 1973 00:00am","Calcium, Dissolved","10.000","mg/L"
"M35/0216","NCY730087","23-Jul 1973 00:00am","Carbonate Alkalinity","0.000","mg/L CO3"
"M35/0216","NCY730087","23-Jul 1973 00:00am","Chloride","4.000","mg/L"
"M35/0216","NCY730087","23-Jul 1973 00:00am","Fluoride","0.100","g/m3"
"M35/0216","NCY730087","23-Jul 1973 00:00am","Free Carbon Dioxide","8.000","g/m3 at 25째;C"
"M35/0216","NCY730087","23-Jul 1973 00:00am","Hardness, Total","32.000","g/m3 as CaCO3"
"M35/0216","NCY730087","23-Jul 1973 00:00am","Iron, Dissolved","0.050","mg/L"
"M35/0216","NCY730087","23-Jul 1973 00:00am","Magnesium, Dissolved","1.000","mg/L"
"M35/0216","NCY730087","23-Jul 1973 00:00am","Manganese, Dissolved","0.0100","mg/L"
"M35/0216","NCY730087","23-Jul 1973 00:00am","Nitrate Nitrogen","0.300","mg/L"
"M35/0216","NCY730087","23-Jul 1973 00:00am","Nitrite Nitrogen","0.001","mg/L"
"M35/0216","NCY730087","23-Jul 1973 00:00am","pH","6.9",""
"M35/0216","NCY730087","23-Jul 1973 00:00am","Potassium, Dissolved","0.800","mg/L"
"M35/0216","NCY730087","23-Jul 1973 00:00am","Sodium, Dissolved","5.000","mg/L"
"M35/0216","NCY730087","23-Jul 1973 00:00am","Sulphate","5.000","mg/L"
"M35/0216","NCY730087","23-Jul 1973 00:00am","Total Coliforms","0","number/100mL"
"M35/0216","NCY730087","23-Jul 1973 00:00am","Turbidity","0.0","NTU"
"M35/0216","NCY600003","17-Feb 1960 00:00am","Ammoniacal Nitrogen","0.000","mg/L"
"M35/0216","NCY600003","17-Feb 1960 00:00am","Chloride","4.000","mg/L"
"M35/0216","NCY600003","17-Feb 1960 00:00am","Hardness, Total","31.000","g/m3 as CaCO3"
"M35/0216","NCY600003","17-Feb 1960 00:00am","Iron, Dissolved","0.000","mg/L"
"M35/0216","NCY600003","17-Feb 1960 00:00am","Nitrate Nitrogen","0.100","mg/L"
"M35/0216","NCY600003","17-Feb 1960 00:00am","Nitrite Nitrogen","0.000","mg/L"
"M35/0216","NCY600003","17-Feb 1960 00:00am","pH","6.6",""
"M35/0216","NCY600003","17-Feb 1960 00:00am","Total Coliforms","0","number/100mL"
"M35/0216","NCY580012","14-Feb 1958 00:00am","Free Carbon Dioxide","10.000","g/m3 at 25째;C"
"M35/0216","NCY580012","14-Feb 1958 00:00am","pH","6.6",""
"M35/0216","NCY570008","16-Jul 1957 00:05am","Alkalinity to pH 4.5 as HCO3","37.000","mg/L  as HCO3"
"M35/0216","NCY570008","16-Jul 1957 00:05am","Free Carbon Dioxide","12.000","g/m3 at 25째;C"
"M35/0216","NCY570008","16-Jul 1957 00:05am","pH","6.6",""
"M35/0216","NCY570004","16-Jul 1957 00:00am","Alkalinity to pH 4.5 as HCO3","30.000","mg/L  as HCO3"
"M35/0216","NCY570004","16-Jul 1957 00:00am","Free Carbon Dioxide","12.000","g/m3 at 25째;C"
"M35/0216","NCY570004","16-Jul 1957 00:00am","pH","6.6",""