Site ID,M35/0225
Site Name,Chinnerys Road No.1
Site ID,SampleID,Collection Date,Measurement,Value,Units
"M35/0225","2900214","14-Jan 2009 10:30am","Alkalinity to pH 4.5 as HCO3","63.000","mg/L  as HCO3"
"M35/0225","2900214","14-Jan 2009 10:30am","Ammoniacal Nitrogen","0.031","mg/L"
"M35/0225","2900214","14-Jan 2009 10:30am","Calcium, Dissolved","12.000","mg/L"
"M35/0225","2900214","14-Jan 2009 10:30am","Chloride","4.400","mg/L"
"M35/0225","2900214","14-Jan 2009 10:30am","Conductivity","12.0","mS/m"
"M35/0225","2900214","14-Jan 2009 10:30am","Conductivity (Field)","12.30","mS/m"
"M35/0225","2900214","14-Jan 2009 10:30am","Difference in Ion Balance","0.120","%"
"M35/0225","2900214","14-Jan 2009 10:30am","Dissolved Oxygen","0.110","mg/L"
"M35/0225","2900214","14-Jan 2009 10:30am","Dissolved Oxygen Saturation","1.000","%"
"M35/0225","2900214","14-Jan 2009 10:30am","Dissolved Reactive Phosphorus","0.0050","mg/L"
"M35/0225","2900214","14-Jan 2009 10:30am","Hardness, Total","42.000","g/m3 as CaCO3"
"M35/0225","2900214","14-Jan 2009 10:30am","Iron, Dissolved","0.560","mg/L"
"M35/0225","2900214","14-Jan 2009 10:30am","Magnesium, Dissolved","3.000","mg/L"
"M35/0225","2900214","14-Jan 2009 10:30am","Manganese, Dissolved","<0.0100","mg/L"
"M35/0225","2900214","14-Jan 2009 10:30am","Nitrate Nitrogen","<0.100","mg/L"
"M35/0225","2900214","14-Jan 2009 10:30am","pH","7.0",""
"M35/0225","2900214","14-Jan 2009 10:30am","pH (Field)","6.20",""
"M35/0225","2900214","14-Jan 2009 10:30am","Potassium, Dissolved","1.100","mg/L"
"M35/0225","2900214","14-Jan 2009 10:30am","Silica, Reactive","14.000","mg/L  as SiO2"
"M35/0225","2900214","14-Jan 2009 10:30am","Sodium, Dissolved","7.400","mg/L"
"M35/0225","2900214","14-Jan 2009 10:30am","Sulphate","2.300","mg/L"
"M35/0225","2900214","14-Jan 2009 10:30am","Sum of anions","1.212","meq/L"
"M35/0225","2900214","14-Jan 2009 10:30am","Sum of cations","1.215","meq/L"
"M35/0225","2900214","14-Jan 2009 10:30am","Water Temperature (Field)","13.0","C"
"M35/0225","ISOTO3983","10-Feb 2000 00:00am","Oxygen 18","-9.380",""
"M35/0225","ISOTO3983","10-Feb 2000 00:00am","Oxygen 18 Error of Measurement","0.100","%"
"M35/0225","IS000209C","09-Feb 2000 00:00am","CFC preferred recharge year","1965.000","Year"
"M35/0225","IS000209C","09-Feb 2000 00:00am","CFC-11 95% confidence interval age range","40.000","Year"
"M35/0225","IS000209C","09-Feb 2000 00:00am","CFC-11 age","43.000","Year"
"M35/0225","IS000209C","09-Feb 2000 00:00am","CFC-11 partial pressure","24.800","pptv"
"M35/0225","IS000209C","09-Feb 2000 00:00am","CFC-11 partial pressure Standard Deviation","1.200","pptv"
"M35/0225","IS000209C","09-Feb 2000 00:00am","CFC-11 partial pressure Standard Uncertainty","4.600","pptv"
"M35/0225","IS000209C","09-Feb 2000 00:00am","CFC-11 recharge year","1965.000","Year"
"M35/0225","IS000209C","09-Feb 2000 00:00am","CFC-11, Dissolved","0.500","pmol/kg"
"M35/0225","IS000209C","09-Feb 2000 00:00am","CFC-11, Dissolved Standard Deviation","0.020","pmol/kg"
"M35/0225","IS000209C","09-Feb 2000 00:00am","CFC-11, Dissolved Uncertainty","0.070","pmol/kg"
"M35/0225","IS000209C","09-Feb 2000 00:00am","CFC-12 95% confidence interval age range","26.000","Year"
"M35/0225","IS000209C","09-Feb 2000 00:00am","CFC-12 age","30.000","Year"
"M35/0225","IS000209C","09-Feb 2000 00:00am","CFC-12 partial pressure","165.000","pptv"
"M35/0225","IS000209C","09-Feb 2000 00:00am","CFC-12 partial pressure Standard Deviation","1.600","pptv"
"M35/0225","IS000209C","09-Feb 2000 00:00am","CFC-12 partial pressure Standard Uncertainty","24.100","pptv"
"M35/0225","IS000209C","09-Feb 2000 00:00am","CFC-12 recharge year","1973.000","Year"
"M35/0225","IS000209C","09-Feb 2000 00:00am","CFC-12, Dissolved","0.800","pmol/kg"
"M35/0225","IS000209C","09-Feb 2000 00:00am","CFC-12, Dissolved Standard Deviation","0.010","pmol/kg"
"M35/0225","IS000209C","09-Feb 2000 00:00am","CFC-12, Dissolved Uncertainty","0.090","pmol/kg"
"M35/0225","IS000209C","09-Feb 2000 00:00am","CFC-13, Dissolved Uncertainty","11.500","pmol/kg"
"M35/0225","IS000209C","09-Feb 2000 00:00am","Excess air","1.300","mL(STP)/kg"
"M35/0225","IS000209C","09-Feb 2000 00:00am","Excess air standard uncertainty","1.300","mL(STP)/kg"
"M35/0225","IS000209C","09-Feb 2000 00:00am","Exponential Mixed Flow","40.000","%"
"M35/0225","IS000209C","09-Feb 2000 00:00am","IGNS Sample Reference","*",""
"M35/0225","IS000209C","09-Feb 2000 00:00am","Recharge elevation","14.000","m"
"M35/0225","IS000209C","09-Feb 2000 00:00am","Recharge temperature","11.600","°C"
"M35/0225","IS000209C","09-Feb 2000 00:00am","Recharge temperature standard uncertaint","2.000","°C"
"M35/0225","IS000209C","09-Feb 2000 00:00am","Recommended model age","0.000","Year"
"M35/0225","IS000209C","09-Feb 2000 00:00am","Relative humidity","0.000","%"
"M35/0225","IS000209C","09-Feb 2000 00:00am","Residence time","35.000","Year"
"M35/0225","IS000209C","09-Feb 2000 00:00am","Tritium age","35.000","Year"