Site ID,M35/9439
Site Name,Burnside Stn Well 5
Site ID,SampleID,Collection Date,Measurement,Value,Units
"M35/9439","184265402","12-Sep 2017 11:30am","Alkalinity, Total","49.0","g/m3 as CaCO3"
"M35/9439","184265402","12-Sep 2017 11:30am","Ammoniacal Nitrogen","<0.010","mg/L"
"M35/9439","184265402","12-Sep 2017 11:30am","Bicarbonate","60.000","mg/L  at 25°C"
"M35/9439","184265402","12-Sep 2017 11:30am","Boron, Dissolved","0.018","mg/L"
"M35/9439","184265402","12-Sep 2017 11:30am","Bromide","<0.050","g/m3"
"M35/9439","184265402","12-Sep 2017 11:30am","Calcium, Dissolved","11.600","mg/L"
"M35/9439","184265402","12-Sep 2017 11:30am","Chloride","5.300","mg/L"
"M35/9439","184265402","12-Sep 2017 11:30am","Conductivity","11.8","mS/m"
"M35/9439","184265402","12-Sep 2017 11:30am","Conductivity (Field)","12.10","mS/m"
"M35/9439","184265402","12-Sep 2017 11:30am","Deuterium","-62.220",""
"M35/9439","184265402","12-Sep 2017 11:30am","Difference in Ion Balance","0.850","%"
"M35/9439","184265402","12-Sep 2017 11:30am","Dissolved Oxygen","6.660","mg/L"
"M35/9439","184265402","12-Sep 2017 11:30am","Dissolved Oxygen Saturation","66.300","%"
"M35/9439","184265402","12-Sep 2017 11:30am","Dissolved Reactive Phosphorus","0.0117","mg/L"
"M35/9439","184265402","12-Sep 2017 11:30am","Hardness, Total","40.000","g/m3 as CaCO3"
"M35/9439","184265402","12-Sep 2017 11:30am","Iron, Dissolved","<0.020","mg/L"
"M35/9439","184265402","12-Sep 2017 11:30am","Magnesium, Dissolved","2.700","mg/L"
"M35/9439","184265402","12-Sep 2017 11:30am","Manganese, Dissolved","<0.0005","mg/L"
"M35/9439","184265402","12-Sep 2017 11:30am","Nitrate Nitrogen","0.123","mg/L"
"M35/9439","184265402","12-Sep 2017 11:30am","Nitrate-N Nitrite-N","0.123","g/m3"
"M35/9439","184265402","12-Sep 2017 11:30am","Nitrite Nitrogen","<0.002","mg/L"
"M35/9439","184265402","12-Sep 2017 11:30am","Oxidation Reduction Potential","116.700","mV"
"M35/9439","184265402","12-Sep 2017 11:30am","Oxygen 18","-9.000",""
"M35/9439","184265402","12-Sep 2017 11:30am","pH","7.7",""
"M35/9439","184265402","12-Sep 2017 11:30am","pH (Field)","8.03",""
"M35/9439","184265402","12-Sep 2017 11:30am","Potassium, Dissolved","0.810","mg/L"
"M35/9439","184265402","12-Sep 2017 11:30am","Silica, Reactive","19.700","mg/L  as SiO2"
"M35/9439","184265402","12-Sep 2017 11:30am","Sodium, Dissolved","8.300","mg/L"
"M35/9439","184265402","12-Sep 2017 11:30am","Sulphate","2.900","mg/L"
"M35/9439","184265402","12-Sep 2017 11:30am","Sum of anions","1.200","meq/L"
"M35/9439","184265402","12-Sep 2017 11:30am","Sum of cations","1.180","meq/L"
"M35/9439","184265402","12-Sep 2017 11:30am","Water Temperature (Field)","14.5","C"