Site ID,M35/11713
Site Name,Pegasus Well 2 (PW 2)
Site ID,SampleID,Collection Date,Measurement,Value,Units
"M35/11713","IS070928","28-Sep 2007 00:00am","Argon","0.427","mL(STP)/kg"
"M35/11713","IS070928","28-Sep 2007 00:00am","Argon, Standard deviation","0.003","mL(STP)/kg"
"M35/11713","IS070928","28-Sep 2007 00:00am","Argon, Standard uncertainty","0.010","mL(STP)/kg"
"M35/11713","IS070928","28-Sep 2007 00:00am","CFC-11 95% confidence interval age range",">55.000","Year"
"M35/11713","IS070928","28-Sep 2007 00:00am","CFC-11 age","68.000","Year"
"M35/11713","IS070928","28-Sep 2007 00:00am","CFC-11 partial pressure","2.400","pptv"
"M35/11713","IS070928","28-Sep 2007 00:00am","CFC-11 partial pressure Standard Deviation","1.900","pptv"
"M35/11713","IS070928","28-Sep 2007 00:00am","CFC-11 partial pressure Standard Uncertainty","5.200","pptv"
"M35/11713","IS070928","28-Sep 2007 00:00am","CFC-11, Dissolved","0.100","pmol/kg"
"M35/11713","IS070928","28-Sep 2007 00:00am","CFC-11, Dissolved Standard Deviation","0.000","pmol/kg"
"M35/11713","IS070928","28-Sep 2007 00:00am","CFC-11, Dissolved Uncertainty","0.100","pmol/kg"
"M35/11713","IS070928","28-Sep 2007 00:00am","CFC-12 95% confidence interval age range",">46.000","Year"
"M35/11713","IS070928","28-Sep 2007 00:00am","CFC-12 age","53.000","Year"
"M35/11713","IS070928","28-Sep 2007 00:00am","CFC-12 partial pressure","10.000","pptv"
"M35/11713","IS070928","28-Sep 2007 00:00am","CFC-12 partial pressure Standard Deviation","9.400","pptv"
"M35/11713","IS070928","28-Sep 2007 00:00am","CFC-12 partial pressure Standard Uncertainty","28.200","pptv"
"M35/11713","IS070928","28-Sep 2007 00:00am","CFC-12, Dissolved","0.100","pmol/kg"
"M35/11713","IS070928","28-Sep 2007 00:00am","CFC-12, Dissolved Standard Deviation","0.100","pmol/kg"
"M35/11713","IS070928","28-Sep 2007 00:00am","CFC-12, Dissolved Uncertainty","0.200","pmol/kg"
"M35/11713","IS070928","28-Sep 2007 00:00am","Excess air","3.700","mL(STP)/kg"
"M35/11713","IS070928","28-Sep 2007 00:00am","Excess air standard deviation","0.000","mL(STP)/kg"
"M35/11713","IS070928","28-Sep 2007 00:00am","Excess air standard uncertainty","2.400","mL(STP)/kg"
"M35/11713","IS070928","28-Sep 2007 00:00am","Exponential Mixed Flow","70.000","%"
"M35/11713","IS070928","28-Sep 2007 00:00am","IGNS Sample Reference","*",""
"M35/11713","IS070928","28-Sep 2007 00:00am","Nitrogen, Gas","17.670","mL(STP)/kg"
"M35/11713","IS070928","28-Sep 2007 00:00am","Nitrogen, Gas standard deviation","0.090","mL(STP)/kg"
"M35/11713","IS070928","28-Sep 2007 00:00am","Nitrogen, Gas standard uncertainty","0.990","mL(STP)/kg"
"M35/11713","IS070928","28-Sep 2007 00:00am","Recharge temperature","9.400","°C"
"M35/11713","IS070928","28-Sep 2007 00:00am","Recharge temperature standard deviation","0.400","°C"
"M35/11713","IS070928","28-Sep 2007 00:00am","Recharge temperature standard uncertaint","3.000","°C"
"M35/11713","IS070928","28-Sep 2007 00:00am","SF6 95% confidence interval age range",">60.000","Year"
"M35/11713","IS070928","28-Sep 2007 00:00am","SF6 age","69.000","Year"
"M35/11713","IS070928","28-Sep 2007 00:00am","SF6 partial pressure","0.140"," pptv"
"M35/11713","IS070928","28-Sep 2007 00:00am","SF6 partial pressure standard uncertainty","0.050"," pptv"
"M35/11713","IS070928","28-Sep 2007 00:00am","SF6, Dissolved","0.082","fmol/kg"
"M35/11713","IS070928","28-Sep 2007 00:00am","SF6, Dissolved Uncertainty","0.023","fmol/kg"
"M35/11713","IS070928","28-Sep 2007 00:00am","Tritium 95% confidence interval age range",">83.000","Year"
"M35/11713","IS070928","28-Sep 2007 00:00am","Tritium age","103.000","Year"
"M35/11713","IS070928","28-Sep 2007 00:00am","Tritium concentration","0.015","TU"
"M35/11713","IS070907","07-Sep 2007 00:00am","Argon","0.424","mL(STP)/kg"
"M35/11713","IS070907","07-Sep 2007 00:00am","Argon, Standard deviation","0.002","mL(STP)/kg"
"M35/11713","IS070907","07-Sep 2007 00:00am","Argon, Standard uncertainty","0.008","mL(STP)/kg"
"M35/11713","IS070907","07-Sep 2007 00:00am","CFC-11 partial pressure","6.100","pptv"
"M35/11713","IS070907","07-Sep 2007 00:00am","CFC-11 partial pressure Standard Deviation","0.900","pptv"
"M35/11713","IS070907","07-Sep 2007 00:00am","CFC-11 partial pressure Standard Uncertainty","1.200","pptv"
"M35/11713","IS070907","07-Sep 2007 00:00am","CFC-11, Dissolved","0.100","pmol/kg"
"M35/11713","IS070907","07-Sep 2007 00:00am","CFC-11, Dissolved Standard Deviation","0.000","pmol/kg"
"M35/11713","IS070907","07-Sep 2007 00:00am","CFC-11, Dissolved Uncertainty","0.000","pmol/kg"
"M35/11713","IS070907","07-Sep 2007 00:00am","CFC-12 partial pressure","21.500","pptv"
"M35/11713","IS070907","07-Sep 2007 00:00am","CFC-12 partial pressure Standard Deviation","3.600","pptv"
"M35/11713","IS070907","07-Sep 2007 00:00am","CFC-12 partial pressure Standard Uncertainty","7.000","pptv"
"M35/11713","IS070907","07-Sep 2007 00:00am","CFC-12, Dissolved","0.100","pmol/kg"
"M35/11713","IS070907","07-Sep 2007 00:00am","CFC-12, Dissolved Standard Deviation","0.000","pmol/kg"
"M35/11713","IS070907","07-Sep 2007 00:00am","CFC-12, Dissolved Uncertainty","0.000","pmol/kg"
"M35/11713","IS070907","07-Sep 2007 00:00am","Excess air","2.600","mL(STP)/kg"
"M35/11713","IS070907","07-Sep 2007 00:00am","Excess air standard deviation","0.900","mL(STP)/kg"
"M35/11713","IS070907","07-Sep 2007 00:00am","Excess air standard uncertainty","1.100","mL(STP)/kg"
"M35/11713","IS070907","07-Sep 2007 00:00am","IGNS Sample Reference","*",""
"M35/11713","IS070907","07-Sep 2007 00:00am","Nitrogen, Gas","17.070","mL(STP)/kg"
"M35/11713","IS070907","07-Sep 2007 00:00am","Nitrogen, Gas standard deviation","0.490","mL(STP)/kg"
"M35/11713","IS070907","07-Sep 2007 00:00am","Nitrogen, Gas standard uncertainty","0.370","mL(STP)/kg"
"M35/11713","IS070907","07-Sep 2007 00:00am","Recharge temperature","8.500","°C"
"M35/11713","IS070907","07-Sep 2007 00:00am","Recharge temperature standard deviation","0.700","°C"
"M35/11713","IS070907","07-Sep 2007 00:00am","Recharge temperature standard uncertaint","1.700","°C"
"M35/11713","IS070907","07-Sep 2007 00:00am","SF6 partial pressure","0.120"," pptv"
"M35/11713","IS070907","07-Sep 2007 00:00am","SF6 partial pressure standard uncertainty","0.040"," pptv"
"M35/11713","IS070907","07-Sep 2007 00:00am","SF6, Dissolved","0.065","fmol/kg"
"M35/11713","IS070907","07-Sep 2007 00:00am","SF6, Dissolved Uncertainty","0.022","fmol/kg"
"M35/11713","IS070907","07-Sep 2007 00:00am","Tritium concentration","0.018","TU"