Site ID,M36/0698
Site Name,Southbridge Taioroa St well
Site ID,SampleID,Collection Date,Measurement,Value,Units
"M36/0698","20196926","03-Dec 2019 09:30am","Alkalinity, Total","71.0","g/m3 as CaCO3"
"M36/0698","20196926","03-Dec 2019 09:30am","Ammoniacal Nitrogen","<0.010","mg/L"
"M36/0698","20196926","03-Dec 2019 09:30am","Bicarbonate","86.000","mg/L  at 25°C"
"M36/0698","20196926","03-Dec 2019 09:30am","Boron, Dissolved","0.023","mg/L"
"M36/0698","20196926","03-Dec 2019 09:30am","Bromide","0.028","g/m3"
"M36/0698","20196926","03-Dec 2019 09:30am","Calcium, Dissolved","28.000","mg/L"
"M36/0698","20196926","03-Dec 2019 09:30am","Chloride","6.900","mg/L"
"M36/0698","20196926","03-Dec 2019 09:30am","Conductivity","21.6","mS/m"
"M36/0698","20196926","03-Dec 2019 09:30am","Conductivity (Field)","21.54","mS/m"
"M36/0698","20196926","03-Dec 2019 09:30am","Copper, Dissolved","0.0012","mg/L"
"M36/0698","20196926","03-Dec 2019 09:30am","Difference in Ion Balance","0.270","%"
"M36/0698","20196926","03-Dec 2019 09:30am","Dissolved Oxygen","7.750","mg/L"
"M36/0698","20196926","03-Dec 2019 09:30am","Dissolved Oxygen Saturation","81.600","%"
"M36/0698","20196926","03-Dec 2019 09:30am","Dissolved Reactive Phosphorus","0.0047","mg/L"
"M36/0698","20196926","03-Dec 2019 09:30am","E. coli","<1","MPN/100mL"
"M36/0698","20196926","03-Dec 2019 09:30am","Hardness, Total","86.000","g/m3 as CaCO3"
"M36/0698","20196926","03-Dec 2019 09:30am","Iron, Dissolved","<0.020","mg/L"
"M36/0698","20196926","03-Dec 2019 09:30am","Magnesium, Dissolved","3.700","mg/L"
"M36/0698","20196926","03-Dec 2019 09:30am","Manganese, Dissolved","0.0012","mg/L"
"M36/0698","20196926","03-Dec 2019 09:30am","Nitrate Nitrogen","4.200","mg/L"
"M36/0698","20196926","03-Dec 2019 09:30am","Oxidation Reduction Potential","171.800","mV"
"M36/0698","20196926","03-Dec 2019 09:30am","pH","7.6",""
"M36/0698","20196926","03-Dec 2019 09:30am","pH (Field)","7.13",""
"M36/0698","20196926","03-Dec 2019 09:30am","Potassium, Dissolved","1.340","mg/L"
"M36/0698","20196926","03-Dec 2019 09:30am","Silica, Reactive","13.100","mg/L  as SiO2"
"M36/0698","20196926","03-Dec 2019 09:30am","Sodium, Dissolved","8.700","mg/L"
"M36/0698","20196926","03-Dec 2019 09:30am","Sulphate","9.500","mg/L"
"M36/0698","20196926","03-Dec 2019 09:30am","Sum of anions","2.100","meq/L"
"M36/0698","20196926","03-Dec 2019 09:30am","Sum of cations","2.100","meq/L"
"M36/0698","20196926","03-Dec 2019 09:30am","Total Coliforms","<1.00","number/100mL"
"M36/0698","20196926","03-Dec 2019 09:30am","Water Temperature (Field)","13.4","C"
"M36/0698","20196926","03-Dec 2019 09:30am","Zinc, Dissolved","0.032","mg/L"
"M36/0698","20185041","06-Sep 2018 09:30am","Alkalinity, Total","67.0","g/m3 as CaCO3"
"M36/0698","20185041","06-Sep 2018 09:30am","Ammoniacal Nitrogen","<0.010","mg/L"
"M36/0698","20185041","06-Sep 2018 09:30am","Bicarbonate","82.000","mg/L  at 25°C"
"M36/0698","20185041","06-Sep 2018 09:30am","Boron, Dissolved","0.023","mg/L"
"M36/0698","20185041","06-Sep 2018 09:30am","Bromide","0.023","g/m3"
"M36/0698","20185041","06-Sep 2018 09:30am","Calcium, Dissolved","28.000","mg/L"
"M36/0698","20185041","06-Sep 2018 09:30am","Chloride","7.400","mg/L"
"M36/0698","20185041","06-Sep 2018 09:30am","Conductivity","21.5","mS/m"
"M36/0698","20185041","06-Sep 2018 09:30am","Conductivity (Field)","20.77","mS/m"
"M36/0698","20185041","06-Sep 2018 09:30am","Difference in Ion Balance","0.740","%"
"M36/0698","20185041","06-Sep 2018 09:30am","Dissolved Oxygen","8.190","mg/L"
"M36/0698","20185041","06-Sep 2018 09:30am","Dissolved Oxygen Saturation","79.500","%"
"M36/0698","20185041","06-Sep 2018 09:30am","Dissolved Reactive Phosphorus","0.0027","mg/L"
"M36/0698","20185041","06-Sep 2018 09:30am","E. coli","<1","MPN/100mL"
"M36/0698","20185041","06-Sep 2018 09:30am","Hardness, Total","83.000","g/m3 as CaCO3"
"M36/0698","20185041","06-Sep 2018 09:30am","Iron, Dissolved","<0.020","mg/L"
"M36/0698","20185041","06-Sep 2018 09:30am","Magnesium, Dissolved","3.300","mg/L"
"M36/0698","20185041","06-Sep 2018 09:30am","Manganese, Dissolved","0.0013","mg/L"
"M36/0698","20185041","06-Sep 2018 09:30am","Nitrate Nitrogen","4.700","mg/L"
"M36/0698","20185041","06-Sep 2018 09:30am","Oxidation Reduction Potential","275.000","mV"
"M36/0698","20185041","06-Sep 2018 09:30am","pH","7.5",""
"M36/0698","20185041","06-Sep 2018 09:30am","pH (Field)","7.15",""
"M36/0698","20185041","06-Sep 2018 09:30am","Potassium, Dissolved","1.320","mg/L"
"M36/0698","20185041","06-Sep 2018 09:30am","Silica, Reactive","13.200","mg/L  as SiO2"
"M36/0698","20185041","06-Sep 2018 09:30am","Sodium, Dissolved","8.500","mg/L"
"M36/0698","20185041","06-Sep 2018 09:30am","Sulphate","10.000","mg/L"
"M36/0698","20185041","06-Sep 2018 09:30am","Sum of anions","2.100","meq/L"
"M36/0698","20185041","06-Sep 2018 09:30am","Sum of cations","2.100","meq/L"
"M36/0698","20185041","06-Sep 2018 09:30am","Total Coliforms","<1.00","number/100mL"
"M36/0698","20185041","06-Sep 2018 09:30am","Water Temperature (Field)","14.8","C"
"M36/0698","183968102","07-Sep 2017 16:30pm","Alkalinity, Total","63.0","g/m3 as CaCO3"
"M36/0698","183968102","07-Sep 2017 16:30pm","Ammoniacal Nitrogen","<0.010","mg/L"
"M36/0698","183968102","07-Sep 2017 16:30pm","Bicarbonate","77.000","mg/L  at 25°C"
"M36/0698","183968102","07-Sep 2017 16:30pm","Calcium, Dissolved","24.000","mg/L"
"M36/0698","183968102","07-Sep 2017 16:30pm","Chloride","4.900","mg/L"
"M36/0698","183968102","07-Sep 2017 16:30pm","Conductivity","18.6","mS/m"
"M36/0698","183968102","07-Sep 2017 16:30pm","Conductivity (Field)","18.62","mS/m"
"M36/0698","183968102","07-Sep 2017 16:30pm","Difference in Ion Balance","0.490","%"
"M36/0698","183968102","07-Sep 2017 16:30pm","Dissolved Oxygen","8.080","mg/L"
"M36/0698","183968102","07-Sep 2017 16:30pm","Dissolved Oxygen Saturation","78.700","%"
"M36/0698","183968102","07-Sep 2017 16:30pm","Dissolved Reactive Phosphorus","<0.0010","mg/L"
"M36/0698","183968102","07-Sep 2017 16:30pm","E. coli","<1","MPN/100mL"
"M36/0698","183968102","07-Sep 2017 16:30pm","Hardness, Total","72.000","g/m3 as CaCO3"
"M36/0698","183968102","07-Sep 2017 16:30pm","Iron, Dissolved","<0.020","mg/L"
"M36/0698","183968102","07-Sep 2017 16:30pm","Magnesium, Dissolved","2.900","mg/L"
"M36/0698","183968102","07-Sep 2017 16:30pm","Manganese, Dissolved","0.0007","mg/L"
"M36/0698","183968102","07-Sep 2017 16:30pm","Nitrate Nitrogen","3.500","mg/L"
"M36/0698","183968102","07-Sep 2017 16:30pm","Oxidation Reduction Potential","136.900","mV"
"M36/0698","183968102","07-Sep 2017 16:30pm","pH","7.6",""
"M36/0698","183968102","07-Sep 2017 16:30pm","pH (Field)","7.28",""
"M36/0698","183968102","07-Sep 2017 16:30pm","Potassium, Dissolved","1.250","mg/L"
"M36/0698","183968102","07-Sep 2017 16:30pm","Silica, Reactive","13.500","mg/L  as SiO2"
"M36/0698","183968102","07-Sep 2017 16:30pm","Sodium, Dissolved","7.500","mg/L"
"M36/0698","183968102","07-Sep 2017 16:30pm","Sulphate","8.100","mg/L"
"M36/0698","183968102","07-Sep 2017 16:30pm","Sum of anions","1.830","meq/L"
"M36/0698","183968102","07-Sep 2017 16:30pm","Sum of cations","1.810","meq/L"
"M36/0698","183968102","07-Sep 2017 16:30pm","Total Coliforms","<1.00","number/100mL"
"M36/0698","183968102","07-Sep 2017 16:30pm","Water Temperature (Field)","13.0","C"
"M36/0698","167836203","10-Nov 2016 08:40am","Alkalinity, Total","65.0","g/m3 as CaCO3"
"M36/0698","167836203","10-Nov 2016 08:40am","Ammoniacal Nitrogen","<0.010","mg/L"
"M36/0698","167836203","10-Nov 2016 08:40am","Bicarbonate","79.000","mg/L  at 25°C"
"M36/0698","167836203","10-Nov 2016 08:40am","Calcium, Dissolved","24.000","mg/L"
"M36/0698","167836203","10-Nov 2016 08:40am","Chloride","5.000","mg/L"
"M36/0698","167836203","10-Nov 2016 08:40am","Conductivity","19.2","mS/m"
"M36/0698","167836203","10-Nov 2016 08:40am","Conductivity (Field)","18.13","mS/m"
"M36/0698","167836203","10-Nov 2016 08:40am","Difference in Ion Balance","0.440","%"
"M36/0698","167836203","10-Nov 2016 08:40am","Dissolved Oxygen","7.900","mg/L"
"M36/0698","167836203","10-Nov 2016 08:40am","Dissolved Oxygen Saturation","76.400","%"
"M36/0698","167836203","10-Nov 2016 08:40am","Dissolved Reactive Phosphorus","0.0048","mg/L"
"M36/0698","167836203","10-Nov 2016 08:40am","E. coli","<1","MPN/100mL"
"M36/0698","167836203","10-Nov 2016 08:40am","Hardness, Total","73.000","g/m3 as CaCO3"
"M36/0698","167836203","10-Nov 2016 08:40am","Iron, Dissolved","<0.020","mg/L"
"M36/0698","167836203","10-Nov 2016 08:40am","Magnesium, Dissolved","3.200","mg/L"
"M36/0698","167836203","10-Nov 2016 08:40am","Manganese, Dissolved","0.0005","mg/L"
"M36/0698","167836203","10-Nov 2016 08:40am","Nitrate Nitrogen","3.800","mg/L"
"M36/0698","167836203","10-Nov 2016 08:40am","Oxidation Reduction Potential","168.300","mV"
"M36/0698","167836203","10-Nov 2016 08:40am","pH","7.7",""
"M36/0698","167836203","10-Nov 2016 08:40am","pH (Field)","7.26",""
"M36/0698","167836203","10-Nov 2016 08:40am","Potassium, Dissolved","1.280","mg/L"
"M36/0698","167836203","10-Nov 2016 08:40am","Silica, Reactive","12.800","mg/L  as SiO2"
"M36/0698","167836203","10-Nov 2016 08:40am","Sodium, Dissolved","8.400","mg/L"
"M36/0698","167836203","10-Nov 2016 08:40am","Sulphate","8.200","mg/L"
"M36/0698","167836203","10-Nov 2016 08:40am","Sum of anions","1.880","meq/L"
"M36/0698","167836203","10-Nov 2016 08:40am","Sum of cations","1.870","meq/L"
"M36/0698","167836203","10-Nov 2016 08:40am","Total Coliforms","<1.00","number/100mL"
"M36/0698","167836203","10-Nov 2016 08:40am","Water Temperature (Field)","13.7","C"
"M36/0698","147903403","22-Sep 2015 12:15pm","Alkalinity, Total","63.0","g/m3 as CaCO3"
"M36/0698","147903403","22-Sep 2015 12:15pm","Ammoniacal Nitrogen","<0.010","mg/L"
"M36/0698","147903403","22-Sep 2015 12:15pm","Bicarbonate","77.000","mg/L  at 25°C"
"M36/0698","147903403","22-Sep 2015 12:15pm","Calcium, Dissolved","25.000","mg/L"
"M36/0698","147903403","22-Sep 2015 12:15pm","Chloride","5.600","mg/L"
"M36/0698","147903403","22-Sep 2015 12:15pm","Conductivity","18.9","mS/m"
"M36/0698","147903403","22-Sep 2015 12:15pm","Conductivity (Field)","18.30","mS/m"
"M36/0698","147903403","22-Sep 2015 12:15pm","Difference in Ion Balance","1.330","%"
"M36/0698","147903403","22-Sep 2015 12:15pm","Dissolved Oxygen","7.740","mg/L"
"M36/0698","147903403","22-Sep 2015 12:15pm","Dissolved Oxygen Saturation","73.000","%"
"M36/0698","147903403","22-Sep 2015 12:15pm","Dissolved Reactive Phosphorus","0.0053","mg/L"
"M36/0698","147903403","22-Sep 2015 12:15pm","E. coli","<1","MPN/100mL"
"M36/0698","147903403","22-Sep 2015 12:15pm","Hardness, Total","74.000","g/m3 as CaCO3"
"M36/0698","147903403","22-Sep 2015 12:15pm","Iron, Dissolved","<0.020","mg/L"
"M36/0698","147903403","22-Sep 2015 12:15pm","Magnesium, Dissolved","3.100","mg/L"
"M36/0698","147903403","22-Sep 2015 12:15pm","Manganese, Dissolved","0.0013","mg/L"
"M36/0698","147903403","22-Sep 2015 12:15pm","Nitrate Nitrogen","3.700","mg/L"
"M36/0698","147903403","22-Sep 2015 12:15pm","pH","7.6",""
"M36/0698","147903403","22-Sep 2015 12:15pm","pH (Field)","6.48",""
"M36/0698","147903403","22-Sep 2015 12:15pm","Potassium, Dissolved","1.380","mg/L"
"M36/0698","147903403","22-Sep 2015 12:15pm","Silica, Reactive","14.300","mg/L  as SiO2"
"M36/0698","147903403","22-Sep 2015 12:15pm","Sodium, Dissolved","8.900","mg/L"
"M36/0698","147903403","22-Sep 2015 12:15pm","Sulphate","8.100","mg/L"
"M36/0698","147903403","22-Sep 2015 12:15pm","Sum of anions","1.860","meq/L"
"M36/0698","147903403","22-Sep 2015 12:15pm","Sum of cations","1.910","meq/L"
"M36/0698","147903403","22-Sep 2015 12:15pm","Total Coliforms","<1.00","number/100mL"
"M36/0698","147903403","22-Sep 2015 12:15pm","Water Temperature (Field)","12.7","C"
"M36/0698","134527906","30-Oct 2014 12:30pm","Alkalinity, Total","67.0","g/m3 as CaCO3"
"M36/0698","134527906","30-Oct 2014 12:30pm","Ammoniacal Nitrogen","<0.010","mg/L"
"M36/0698","134527906","30-Oct 2014 12:30pm","Bicarbonate","82.000","mg/L  at 25°C"
"M36/0698","134527906","30-Oct 2014 12:30pm","Calcium, Dissolved","30.000","mg/L"
"M36/0698","134527906","30-Oct 2014 12:30pm","Chloride","7.400","mg/L"
"M36/0698","134527906","30-Oct 2014 12:30pm","Conductivity","21.5","mS/m"
"M36/0698","134527906","30-Oct 2014 12:30pm","Conductivity (Field)","21.50","mS/m"
"M36/0698","134527906","30-Oct 2014 12:30pm","Difference in Ion Balance","2.200","%"
"M36/0698","134527906","30-Oct 2014 12:30pm","Dissolved Oxygen","8.200","mg/L"
"M36/0698","134527906","30-Oct 2014 12:30pm","Dissolved Oxygen Saturation","77.000","%"
"M36/0698","134527906","30-Oct 2014 12:30pm","Dissolved Reactive Phosphorus","0.0030","mg/L"
"M36/0698","134527906","30-Oct 2014 12:30pm","E. coli","<1","MPN/100mL"
"M36/0698","134527906","30-Oct 2014 12:30pm","Hardness, Total","91.000","g/m3 as CaCO3"
"M36/0698","134527906","30-Oct 2014 12:30pm","Iron, Dissolved","<0.020","mg/L"
"M36/0698","134527906","30-Oct 2014 12:30pm","Magnesium, Dissolved","4.100","mg/L"
"M36/0698","134527906","30-Oct 2014 12:30pm","Manganese, Dissolved","0.0015","mg/L"
"M36/0698","134527906","30-Oct 2014 12:30pm","Nitrate Nitrogen","5.500","mg/L"
"M36/0698","134527906","30-Oct 2014 12:30pm","pH","7.4",""
"M36/0698","134527906","30-Oct 2014 12:30pm","pH (Field)","7.20",""
"M36/0698","134527906","30-Oct 2014 12:30pm","Potassium, Dissolved","1.320","mg/L"
"M36/0698","134527906","30-Oct 2014 12:30pm","Silica, Reactive","13.700","mg/L  as SiO2"
"M36/0698","134527906","30-Oct 2014 12:30pm","Sodium, Dissolved","9.800","mg/L"
"M36/0698","134527906","30-Oct 2014 12:30pm","Sulphate","11.200","mg/L"
"M36/0698","134527906","30-Oct 2014 12:30pm","Sum of anions","2.200","meq/L"
"M36/0698","134527906","30-Oct 2014 12:30pm","Sum of cations","2.300","meq/L"
"M36/0698","134527906","30-Oct 2014 12:30pm","Total Coliforms","<1.00","number/100mL"
"M36/0698","134527906","30-Oct 2014 12:30pm","Total Dissolved Phosphorus","0.004","mg/L"
"M36/0698","134527906","30-Oct 2014 12:30pm","Total Dissolved Phosphorus Digestion","*",""
"M36/0698","134527906","30-Oct 2014 12:30pm","Water Temperature (Field)","14.5","C"
"M36/0698","120659002","22-Nov 2013 09:45am","Alkalinity, Total","64.0","g/m3 as CaCO3"
"M36/0698","120659002","22-Nov 2013 09:45am","Ammoniacal Nitrogen","<0.010","mg/L"
"M36/0698","120659002","22-Nov 2013 09:45am","Bicarbonate","77.000","mg/L  at 25°C"
"M36/0698","120659002","22-Nov 2013 09:45am","Calcium, Dissolved","27.000","mg/L"
"M36/0698","120659002","22-Nov 2013 09:45am","Chloride","7.200","mg/L"
"M36/0698","120659002","22-Nov 2013 09:45am","Conductivity","20.9","mS/m"
"M36/0698","120659002","22-Nov 2013 09:45am","Conductivity (Field)","20.50","mS/m"
"M36/0698","120659002","22-Nov 2013 09:45am","Difference in Ion Balance","1.000","%"
"M36/0698","120659002","22-Nov 2013 09:45am","Dissolved Oxygen","8.200","mg/L"
"M36/0698","120659002","22-Nov 2013 09:45am","Dissolved Oxygen Saturation","77.000","%"
"M36/0698","120659002","22-Nov 2013 09:45am","E. coli","<1","MPN/100mL"
"M36/0698","120659002","22-Nov 2013 09:45am","Hardness, Total","81.000","g/m3 as CaCO3"
"M36/0698","120659002","22-Nov 2013 09:45am","Iron, Dissolved","<0.020","mg/L"
"M36/0698","120659002","22-Nov 2013 09:45am","Magnesium, Dissolved","3.400","mg/L"
"M36/0698","120659002","22-Nov 2013 09:45am","Manganese, Dissolved","<0.0005","mg/L"
"M36/0698","120659002","22-Nov 2013 09:45am","Nitrate Nitrogen","5.000","mg/L"
"M36/0698","120659002","22-Nov 2013 09:45am","pH","7.9",""
"M36/0698","120659002","22-Nov 2013 09:45am","pH (Field)","6.90",""
"M36/0698","120659002","22-Nov 2013 09:45am","Potassium, Dissolved","1.290","mg/L"
"M36/0698","120659002","22-Nov 2013 09:45am","Silica, Reactive","13.200","mg/L  as SiO2"
"M36/0698","120659002","22-Nov 2013 09:45am","Sodium, Dissolved","8.400","mg/L"
"M36/0698","120659002","22-Nov 2013 09:45am","Sulphate","10.700","mg/L"
"M36/0698","120659002","22-Nov 2013 09:45am","Sum of anions","2.100","meq/L"
"M36/0698","120659002","22-Nov 2013 09:45am","Sum of cations","2.000","meq/L"
"M36/0698","120659002","22-Nov 2013 09:45am","Total Coliforms","<1.00","number/100mL"
"M36/0698","120659002","22-Nov 2013 09:45am","Water Temperature (Field)","12.7","C"
"M36/0698","1204480","01-Nov 2012 13:30pm","Alkalinity to pH 4.5 as HCO3","76.000","mg/L  as HCO3"
"M36/0698","1204480","01-Nov 2012 13:30pm","Ammoniacal Nitrogen","<0.005","mg/L"
"M36/0698","1204480","01-Nov 2012 13:30pm","Boron, Dissolved","0.019","mg/L"
"M36/0698","1204480","01-Nov 2012 13:30pm","Cadmium, Dissolved","<0.000050","mg/L"
"M36/0698","1204480","01-Nov 2012 13:30pm","Calcium, Dissolved","24.500","mg/L"
"M36/0698","1204480","01-Nov 2012 13:30pm","Chloride","5.800","mg/L"
"M36/0698","1204480","01-Nov 2012 13:30pm","Conductivity","17.0","mS/m"
"M36/0698","1204480","01-Nov 2012 13:30pm","Conductivity (Field)","*","mS/m"
"M36/0698","1204480","01-Nov 2012 13:30pm","Difference in Ion Balance","-0.550","%"
"M36/0698","1204480","01-Nov 2012 13:30pm","Dissolved Oxygen","7.600","mg/L"
"M36/0698","1204480","01-Nov 2012 13:30pm","Dissolved Oxygen Saturation","73.000","%"
"M36/0698","1204480","01-Nov 2012 13:30pm","E. coli","<1","MPN/100mL"
"M36/0698","1204480","01-Nov 2012 13:30pm","Hardness, Total","73.000","g/m3 as CaCO3"
"M36/0698","1204480","01-Nov 2012 13:30pm","Iron, Dissolved","<0.020","mg/L"
"M36/0698","1204480","01-Nov 2012 13:30pm","Magnesium, Dissolved","2.890","mg/L"
"M36/0698","1204480","01-Nov 2012 13:30pm","Manganese, Dissolved","<0.0005","mg/L"
"M36/0698","1204480","01-Nov 2012 13:30pm","Nitrate Nitrogen","3.700","mg/L"
"M36/0698","1204480","01-Nov 2012 13:30pm","pH","7.6",""
"M36/0698","1204480","01-Nov 2012 13:30pm","pH (Field)","*",""
"M36/0698","1204480","01-Nov 2012 13:30pm","Potassium, Dissolved","1.138","mg/L"
"M36/0698","1204480","01-Nov 2012 13:30pm","Silica, Reactive","12.000","mg/L  as SiO2"
"M36/0698","1204480","01-Nov 2012 13:30pm","Sodium, Dissolved","7.290","mg/L"
"M36/0698","1204480","01-Nov 2012 13:30pm","Sulphate","7.300","mg/L"
"M36/0698","1204480","01-Nov 2012 13:30pm","Sum of anions","1.826","meq/L"
"M36/0698","1204480","01-Nov 2012 13:30pm","Sum of cations","1.806","meq/L"
"M36/0698","1204480","01-Nov 2012 13:30pm","Total Coliforms","<1.00","number/100mL"
"M36/0698","1204480","01-Nov 2012 13:30pm","Water Temperature (Field)","*","C"
"M36/0698","1105266","01-Sep 2011 15:00pm","Alkalinity to pH 4.5 as HCO3","73.000","mg/L  as HCO3"
"M36/0698","1105266","01-Sep 2011 15:00pm","Ammoniacal Nitrogen","0.005","mg/L"
"M36/0698","1105266","01-Sep 2011 15:00pm","Calcium, Dissolved","23.000","mg/L"
"M36/0698","1105266","01-Sep 2011 15:00pm","Chloride","5.300","mg/L"
"M36/0698","1105266","01-Sep 2011 15:00pm","Conductivity","17.0","mS/m"
"M36/0698","1105266","01-Sep 2011 15:00pm","Conductivity (Field)","17.90","mS/m"
"M36/0698","1105266","01-Sep 2011 15:00pm","Difference in Ion Balance","-0.910","%"
"M36/0698","1105266","01-Sep 2011 15:00pm","Dissolved Oxygen","7.100","mg/L"
"M36/0698","1105266","01-Sep 2011 15:00pm","Dissolved Oxygen Saturation","67.000","%"
"M36/0698","1105266","01-Sep 2011 15:00pm","E. coli","<1","MPN/100mL"
"M36/0698","1105266","01-Sep 2011 15:00pm","Hardness, Total","69.000","g/m3 as CaCO3"
"M36/0698","1105266","01-Sep 2011 15:00pm","Iron, Dissolved","<0.020","mg/L"
"M36/0698","1105266","01-Sep 2011 15:00pm","Magnesium, Dissolved","2.800","mg/L"
"M36/0698","1105266","01-Sep 2011 15:00pm","Manganese, Dissolved","<0.0005","mg/L"
"M36/0698","1105266","01-Sep 2011 15:00pm","Nitrate Nitrogen","3.600","mg/L"
"M36/0698","1105266","01-Sep 2011 15:00pm","pH","7.7",""
"M36/0698","1105266","01-Sep 2011 15:00pm","pH (Field)","6.80",""
"M36/0698","1105266","01-Sep 2011 15:00pm","Potassium, Dissolved","1.100","mg/L"
"M36/0698","1105266","01-Sep 2011 15:00pm","Silica, Reactive","13.000","mg/L  as SiO2"
"M36/0698","1105266","01-Sep 2011 15:00pm","Sodium, Dissolved","7.600","mg/L"
"M36/0698","1105266","01-Sep 2011 15:00pm","Sulphate","7.900","mg/L"
"M36/0698","1105266","01-Sep 2011 15:00pm","Sum of anions","1.768","meq/L"
"M36/0698","1105266","01-Sep 2011 15:00pm","Sum of cations","1.736","meq/L"
"M36/0698","1105266","01-Sep 2011 15:00pm","Total Coliforms","<1.00","number/100mL"
"M36/0698","1105266","01-Sep 2011 15:00pm","Water Temperature (Field)","12.5","C"
"M36/0698","1005358","13-Sep 2010 10:00am","Alkalinity to pH 4.5 as HCO3","69.000","mg/L  as HCO3"
"M36/0698","1005358","13-Sep 2010 10:00am","Ammoniacal Nitrogen","0.013","mg/L"
"M36/0698","1005358","13-Sep 2010 10:00am","Calcium, Dissolved","23.000","mg/L"
"M36/0698","1005358","13-Sep 2010 10:00am","Chloride","6.900","mg/L"
"M36/0698","1005358","13-Sep 2010 10:00am","Conductivity","19.0","mS/m"
"M36/0698","1005358","13-Sep 2010 10:00am","Conductivity (Field)","19.40","mS/m"
"M36/0698","1005358","13-Sep 2010 10:00am","Difference in Ion Balance","-1.500","%"
"M36/0698","1005358","13-Sep 2010 10:00am","Dissolved Oxygen","8.900","mg/L"
"M36/0698","1005358","13-Sep 2010 10:00am","Dissolved Oxygen Saturation","82.000","%"
"M36/0698","1005358","13-Sep 2010 10:00am","E. coli","<1","MPN/100mL"
"M36/0698","1005358","13-Sep 2010 10:00am","Hardness, Total","70.000","g/m3 as CaCO3"
"M36/0698","1005358","13-Sep 2010 10:00am","Iron, Dissolved","<0.030","mg/L"
"M36/0698","1005358","13-Sep 2010 10:00am","Magnesium, Dissolved","3.100","mg/L"
"M36/0698","1005358","13-Sep 2010 10:00am","Manganese, Dissolved","<0.0100","mg/L"
"M36/0698","1005358","13-Sep 2010 10:00am","Nitrate Nitrogen","4.100","mg/L"
"M36/0698","1005358","13-Sep 2010 10:00am","pH","7.5",""
"M36/0698","1005358","13-Sep 2010 10:00am","pH (Field)","6.70",""
"M36/0698","1005358","13-Sep 2010 10:00am","Potassium, Dissolved","0.900","mg/L"
"M36/0698","1005358","13-Sep 2010 10:00am","Silica, Reactive","13.000","mg/L  as SiO2"
"M36/0698","1005358","13-Sep 2010 10:00am","Sodium, Dissolved","7.800","mg/L"
"M36/0698","1005358","13-Sep 2010 10:00am","Sulphate","9.600","mg/L"
"M36/0698","1005358","13-Sep 2010 10:00am","Sum of anions","1.819","meq/L"
"M36/0698","1005358","13-Sep 2010 10:00am","Sum of cations","1.765","meq/L"
"M36/0698","1005358","13-Sep 2010 10:00am","Total Coliforms","<1.00","number/100mL"
"M36/0698","1005358","13-Sep 2010 10:00am","Water Temperature (Field)","12.1","C"
"M36/0698","2905694","09-Nov 2009 13:30pm","Alkalinity to pH 4.5 as HCO3","75.000","mg/L  as HCO3"
"M36/0698","2905694","09-Nov 2009 13:30pm","Ammoniacal Nitrogen","0.019","mg/L"
"M36/0698","2905694","09-Nov 2009 13:30pm","Calcium, Dissolved","21.000","mg/L"
"M36/0698","2905694","09-Nov 2009 13:30pm","Chloride","6.000","mg/L"
"M36/0698","2905694","09-Nov 2009 13:30pm","Conductivity","18.0","mS/m"
"M36/0698","2905694","09-Nov 2009 13:30pm","Conductivity (Field)","17.40","mS/m"
"M36/0698","2905694","09-Nov 2009 13:30pm","Difference in Ion Balance","-5.800","%"
"M36/0698","2905694","09-Nov 2009 13:30pm","Dissolved Oxygen","6.500","mg/L"
"M36/0698","2905694","09-Nov 2009 13:30pm","Dissolved Oxygen Saturation","64.000","%"
"M36/0698","2905694","09-Nov 2009 13:30pm","E. coli","<1","MPN/100mL"
"M36/0698","2905694","09-Nov 2009 13:30pm","Hardness, Total","65.000","g/m3 as CaCO3"
"M36/0698","2905694","09-Nov 2009 13:30pm","Iron, Dissolved","0.040","mg/L"
"M36/0698","2905694","09-Nov 2009 13:30pm","Magnesium, Dissolved","3.000","mg/L"
"M36/0698","2905694","09-Nov 2009 13:30pm","Manganese, Dissolved","<0.0100","mg/L"
"M36/0698","2905694","09-Nov 2009 13:30pm","Nitrate Nitrogen","3.600","mg/L"
"M36/0698","2905694","09-Nov 2009 13:30pm","pH","7.4",""
"M36/0698","2905694","09-Nov 2009 13:30pm","pH (Field)","6.80",""
"M36/0698","2905694","09-Nov 2009 13:30pm","Potassium, Dissolved","1.000","mg/L"
"M36/0698","2905694","09-Nov 2009 13:30pm","Silica, Reactive","12.000","mg/L  as SiO2"
"M36/0698","2905694","09-Nov 2009 13:30pm","Sodium, Dissolved","7.300","mg/L"
"M36/0698","2905694","09-Nov 2009 13:30pm","Sulphate","8.800","mg/L"
"M36/0698","2905694","09-Nov 2009 13:30pm","Sum of anions","1.839","meq/L"
"M36/0698","2905694","09-Nov 2009 13:30pm","Sum of cations","1.639","meq/L"
"M36/0698","2905694","09-Nov 2009 13:30pm","Total Coliforms","<1.00","number/100mL"
"M36/0698","2905694","09-Nov 2009 13:30pm","Water Temperature (Field)","14.4","C"
"M36/0698","IS091106D","06-Nov 2009 00:00am","Argon","0.381","mL(STP)/kg"
"M36/0698","IS091106D","06-Nov 2009 00:00am","Argon, Standard uncertainty","0.007","mL(STP)/kg"
"M36/0698","IS091106D","06-Nov 2009 00:00am","CFC-11 95% confidence interval age range","30.000","Year"
"M36/0698","IS091106D","06-Nov 2009 00:00am","CFC-11 age","38.000","Year"
"M36/0698","IS091106D","06-Nov 2009 00:00am","CFC-11 partial pressure","140.700","pptv"
"M36/0698","IS091106D","06-Nov 2009 00:00am","CFC-11 partial pressure Standard Uncertainty","12.600","pptv"
"M36/0698","IS091106D","06-Nov 2009 00:00am","CFC-11, Dissolved","2.800","pmol/kg"
"M36/0698","IS091106D","06-Nov 2009 00:00am","CFC-11, Dissolved Uncertainty","0.100","pmol/kg"
"M36/0698","IS091106D","06-Nov 2009 00:00am","CFC-12 95% confidence interval age range","10.000","Year"
"M36/0698","IS091106D","06-Nov 2009 00:00am","CFC-12 age","19.000","Year"
"M36/0698","IS091106D","06-Nov 2009 00:00am","CFC-12 partial pressure","424.300","pptv"
"M36/0698","IS091106D","06-Nov 2009 00:00am","CFC-12 partial pressure Standard Uncertainty","41.600","pptv"
"M36/0698","IS091106D","06-Nov 2009 00:00am","CFC-12, Dissolved","2.200","pmol/kg"
"M36/0698","IS091106D","06-Nov 2009 00:00am","CFC-12, Dissolved Uncertainty","0.100","pmol/kg"
"M36/0698","IS091106D","06-Nov 2009 00:00am","Excess air","0.500","mL(STP)/kg"
"M36/0698","IS091106D","06-Nov 2009 00:00am","Excess air standard uncertainty","1.000","mL(STP)/kg"
"M36/0698","IS091106D","06-Nov 2009 00:00am","Exponential Mixed Flow","90.000","%"
"M36/0698","IS091106D","06-Nov 2009 00:00am","IGNS Sample Reference","*",""
"M36/0698","IS091106D","06-Nov 2009 00:00am","Nitrogen, Gas","14.630","mL(STP)/kg"
"M36/0698","IS091106D","06-Nov 2009 00:00am","Nitrogen, Gas standard uncertainty","0.350","mL(STP)/kg"
"M36/0698","IS091106D","06-Nov 2009 00:00am","Recharge temperature","11.000","°C"
"M36/0698","IS091106D","06-Nov 2009 00:00am","Recharge temperature standard uncertaint","1.600","°C"
"M36/0698","IS091106D","06-Nov 2009 00:00am","SF6 95% confidence interval age range","1.000","Year"
"M36/0698","IS091106D","06-Nov 2009 00:00am","SF6 age","7.000","Year"
"M36/0698","IS091106D","06-Nov 2009 00:00am","SF6 partial pressure","5.050"," pptv"
"M36/0698","IS091106D","06-Nov 2009 00:00am","SF6 partial pressure standard uncertainty","0.690"," pptv"
"M36/0698","IS091106D","06-Nov 2009 00:00am","SF6, Dissolved","2.058","fmol/kg"
"M36/0698","IS091106D","06-Nov 2009 00:00am","SF6, Dissolved Uncertainty","0.112","fmol/kg"
"M36/0698","IS091106D","06-Nov 2009 00:00am","Tritium 95% confidence interval age range","6.000","Year"
"M36/0698","IS091106D","06-Nov 2009 00:00am","Tritium age","7.000","Year"
"M36/0698","IS091106D","06-Nov 2009 00:00am","Tritium concentration","0.040","TU"
"M36/0698","2806449","18-Nov 2008 09:45am","Alkalinity to pH 4.5 as HCO3","61.000","mg/L  as HCO3"
"M36/0698","2806449","18-Nov 2008 09:45am","Ammoniacal Nitrogen","0.022","mg/L"
"M36/0698","2806449","18-Nov 2008 09:45am","Calcium, Dissolved","25.000","mg/L"
"M36/0698","2806449","18-Nov 2008 09:45am","Chloride","7.800","mg/L"
"M36/0698","2806449","18-Nov 2008 09:45am","Conductivity","18.0","mS/m"
"M36/0698","2806449","18-Nov 2008 09:45am","Conductivity (Field)","19.50","mS/m"
"M36/0698","2806449","18-Nov 2008 09:45am","Difference in Ion Balance","4.300","%"
"M36/0698","2806449","18-Nov 2008 09:45am","Dissolved Oxygen","8.700","mg/L"
"M36/0698","2806449","18-Nov 2008 09:45am","Dissolved Oxygen Saturation","81.000","%"
"M36/0698","2806449","18-Nov 2008 09:45am","Dissolved Reactive Phosphorus","0.0050","mg/L"
"M36/0698","2806449","18-Nov 2008 09:45am","E. coli","<1","MPN/100mL"
"M36/0698","2806449","18-Nov 2008 09:45am","Hardness, Total","75.000","g/m3 as CaCO3"
"M36/0698","2806449","18-Nov 2008 09:45am","Iron, Dissolved","0.040","mg/L"
"M36/0698","2806449","18-Nov 2008 09:45am","Magnesium, Dissolved","3.100","mg/L"
"M36/0698","2806449","18-Nov 2008 09:45am","Manganese, Dissolved","<0.0100","mg/L"
"M36/0698","2806449","18-Nov 2008 09:45am","Nitrate Nitrogen","4.200","mg/L"
"M36/0698","2806449","18-Nov 2008 09:45am","Oxygen 18","-8.920",""
"M36/0698","2806449","18-Nov 2008 09:45am","pH","7.2",""
"M36/0698","2806449","18-Nov 2008 09:45am","pH (Field)","6.70",""
"M36/0698","2806449","18-Nov 2008 09:45am","Potassium, Dissolved","1.100","mg/L"
"M36/0698","2806449","18-Nov 2008 09:45am","Silica, Reactive","13.000","mg/L  as SiO2"
"M36/0698","2806449","18-Nov 2008 09:45am","Sodium, Dissolved","7.300","mg/L"
"M36/0698","2806449","18-Nov 2008 09:45am","Sulphate","8.500","mg/L"
"M36/0698","2806449","18-Nov 2008 09:45am","Sum of anions","1.697","meq/L"
"M36/0698","2806449","18-Nov 2008 09:45am","Sum of cations","1.850","meq/L"
"M36/0698","2806449","18-Nov 2008 09:45am","Total Coliforms","<1.00","number/100mL"
"M36/0698","2806449","18-Nov 2008 09:45am","Water Temperature (Field)","14.5","C"
"M36/0698","2705971","30-Oct 2007 09:35am","Alkalinity to pH 4.5 as HCO3","66.000","mg/L  as HCO3"
"M36/0698","2705971","30-Oct 2007 09:35am","Ammoniacal Nitrogen","0.006","mg/L"
"M36/0698","2705971","30-Oct 2007 09:35am","Calcium, Dissolved","22.000","mg/L"
"M36/0698","2705971","30-Oct 2007 09:35am","Chloride","4.900","mg/L"
"M36/0698","2705971","30-Oct 2007 09:35am","Conductivity","16.0","mS/m"
"M36/0698","2705971","30-Oct 2007 09:35am","Conductivity (Field)","15.70","mS/m"
"M36/0698","2705971","30-Oct 2007 09:35am","Difference in Ion Balance","5.100","%"
"M36/0698","2705971","30-Oct 2007 09:35am","Dissolved Oxygen","8.150","mg/L"
"M36/0698","2705971","30-Oct 2007 09:35am","Dissolved Oxygen Saturation","77.500","%"
"M36/0698","2705971","30-Oct 2007 09:35am","Dissolved Reactive Phosphorus","0.0050","mg/L"
"M36/0698","2705971","30-Oct 2007 09:35am","E. coli","<1","MPN/100mL"
"M36/0698","2705971","30-Oct 2007 09:35am","Hardness, Total","66.000","g/m3 as CaCO3"
"M36/0698","2705971","30-Oct 2007 09:35am","Iron, Dissolved","<0.030","mg/L"
"M36/0698","2705971","30-Oct 2007 09:35am","Magnesium, Dissolved","2.800","mg/L"
"M36/0698","2705971","30-Oct 2007 09:35am","Manganese, Dissolved","<0.0100","mg/L"
"M36/0698","2705971","30-Oct 2007 09:35am","Nitrate Nitrogen","2.700","mg/L"
"M36/0698","2705971","30-Oct 2007 09:35am","pH","7.3",""
"M36/0698","2705971","30-Oct 2007 09:35am","pH (Field)","6.80",""
"M36/0698","2705971","30-Oct 2007 09:35am","Potassium, Dissolved","1.200","mg/L"
"M36/0698","2705971","30-Oct 2007 09:35am","Silica, Reactive","12.000","mg/L  as SiO2"
"M36/0698","2705971","30-Oct 2007 09:35am","Sodium, Dissolved","8.100","mg/L"
"M36/0698","2705971","30-Oct 2007 09:35am","Sulphate","6.400","mg/L"
"M36/0698","2705971","30-Oct 2007 09:35am","Sum of anions","1.546","meq/L"
"M36/0698","2705971","30-Oct 2007 09:35am","Sum of cations","1.711","meq/L"
"M36/0698","2705971","30-Oct 2007 09:35am","Total Coliforms","<1.00","number/100mL"
"M36/0698","2705971","30-Oct 2007 09:35am","Water Temperature (Field)","13.3","C"
"M36/0698","2705970","30-Oct 2007 09:30am","Alkalinity to pH 4.5 as HCO3","65.000","mg/L  as HCO3"
"M36/0698","2705970","30-Oct 2007 09:30am","Ammoniacal Nitrogen","0.008","mg/L"
"M36/0698","2705970","30-Oct 2007 09:30am","Calcium, Dissolved","22.000","mg/L"
"M36/0698","2705970","30-Oct 2007 09:30am","Chloride","4.900","mg/L"
"M36/0698","2705970","30-Oct 2007 09:30am","Conductivity","16.0","mS/m"
"M36/0698","2705970","30-Oct 2007 09:30am","Conductivity (Field)","15.70","mS/m"
"M36/0698","2705970","30-Oct 2007 09:30am","Difference in Ion Balance","5.300","%"
"M36/0698","2705970","30-Oct 2007 09:30am","Dissolved Oxygen","8.150","mg/L"
"M36/0698","2705970","30-Oct 2007 09:30am","Dissolved Oxygen Saturation","77.500","%"
"M36/0698","2705970","30-Oct 2007 09:30am","Dissolved Reactive Phosphorus","0.0050","mg/L"
"M36/0698","2705970","30-Oct 2007 09:30am","E. coli","<1","MPN/100mL"
"M36/0698","2705970","30-Oct 2007 09:30am","Hardness, Total","66.000","g/m3 as CaCO3"
"M36/0698","2705970","30-Oct 2007 09:30am","Iron, Dissolved","<0.030","mg/L"
"M36/0698","2705970","30-Oct 2007 09:30am","Magnesium, Dissolved","2.700","mg/L"
"M36/0698","2705970","30-Oct 2007 09:30am","Manganese, Dissolved","<0.0100","mg/L"
"M36/0698","2705970","30-Oct 2007 09:30am","Nitrate Nitrogen","2.800","mg/L"
"M36/0698","2705970","30-Oct 2007 09:30am","pH","7.2",""
"M36/0698","2705970","30-Oct 2007 09:30am","pH (Field)","6.80",""
"M36/0698","2705970","30-Oct 2007 09:30am","Potassium, Dissolved","1.200","mg/L"
"M36/0698","2705970","30-Oct 2007 09:30am","Silica, Reactive","12.000","mg/L  as SiO2"
"M36/0698","2705970","30-Oct 2007 09:30am","Sodium, Dissolved","8.100","mg/L"
"M36/0698","2705970","30-Oct 2007 09:30am","Sulphate","6.100","mg/L"
"M36/0698","2705970","30-Oct 2007 09:30am","Sum of anions","1.531","meq/L"
"M36/0698","2705970","30-Oct 2007 09:30am","Sum of cations","1.703","meq/L"
"M36/0698","2705970","30-Oct 2007 09:30am","Total Coliforms","<1.00","number/100mL"
"M36/0698","2705970","30-Oct 2007 09:30am","Water Temperature (Field)","13.3","C"
"M36/0698","2605890","25-Oct 2006 09:30am","Alkalinity to pH 4.5 as HCO3","70.000","mg/L  as HCO3"
"M36/0698","2605890","25-Oct 2006 09:30am","Ammoniacal Nitrogen","0.008","mg/L"
"M36/0698","2605890","25-Oct 2006 09:30am","Calcium, Dissolved","20.000","mg/L"
"M36/0698","2605890","25-Oct 2006 09:30am","Chloride","5.200","mg/L"
"M36/0698","2605890","25-Oct 2006 09:30am","Conductivity","16.0","mS/m"
"M36/0698","2605890","25-Oct 2006 09:30am","Conductivity (Field)","15.90","mS/m"
"M36/0698","2605890","25-Oct 2006 09:30am","Difference in Ion Balance","-4.300","%"
"M36/0698","2605890","25-Oct 2006 09:30am","Dissolved Oxygen","7.800","mg/L"
"M36/0698","2605890","25-Oct 2006 09:30am","Dissolved Oxygen Saturation","73.800","%"
"M36/0698","2605890","25-Oct 2006 09:30am","E. coli","<1","MPN/100mL"
"M36/0698","2605890","25-Oct 2006 09:30am","Hardness, Total","60.000","g/m3 as CaCO3"
"M36/0698","2605890","25-Oct 2006 09:30am","Iron, Dissolved","<0.030","mg/L"
"M36/0698","2605890","25-Oct 2006 09:30am","Magnesium, Dissolved","2.500","mg/L"
"M36/0698","2605890","25-Oct 2006 09:30am","Manganese, Dissolved","<0.0100","mg/L"
"M36/0698","2605890","25-Oct 2006 09:30am","Nitrate Nitrogen","3.000","mg/L"
"M36/0698","2605890","25-Oct 2006 09:30am","pH","7.4",""
"M36/0698","2605890","25-Oct 2006 09:30am","pH (Field)","7.20",""
"M36/0698","2605890","25-Oct 2006 09:30am","Potassium, Dissolved","0.900","mg/L"
"M36/0698","2605890","25-Oct 2006 09:30am","Silica, Reactive","12.000","mg/L  as SiO2"
"M36/0698","2605890","25-Oct 2006 09:30am","Sodium, Dissolved","6.600","mg/L"
"M36/0698","2605890","25-Oct 2006 09:30am","Sulphate","6.800","mg/L"
"M36/0698","2605890","25-Oct 2006 09:30am","Sum of anions","1.650","meq/L"
"M36/0698","2605890","25-Oct 2006 09:30am","Sum of cations","1.514","meq/L"
"M36/0698","2605890","25-Oct 2006 09:30am","Total Coliforms","1.00","number/100mL"
"M36/0698","2605890","25-Oct 2006 09:30am","Water Temperature (Field)","12.5","C"
"M36/0698","2506931","20-Oct 2005 10:45am","Alkalinity to pH 4.5 as HCO3","64.000","mg/L  as HCO3"
"M36/0698","2506931","20-Oct 2005 10:45am","Ammoniacal Nitrogen","0.017","mg/L"
"M36/0698","2506931","20-Oct 2005 10:45am","Calcium, Dissolved","18.000","mg/L"
"M36/0698","2506931","20-Oct 2005 10:45am","Chloride","4.900","mg/L"
"M36/0698","2506931","20-Oct 2005 10:45am","Conductivity","14.0","mS/m"
"M36/0698","2506931","20-Oct 2005 10:45am","Conductivity (Field)","14.80","mS/m"
"M36/0698","2506931","20-Oct 2005 10:45am","Difference in Ion Balance","-2.200","%"
"M36/0698","2506931","20-Oct 2005 10:45am","Dissolved Oxygen","7.700","mg/L"
"M36/0698","2506931","20-Oct 2005 10:45am","Dissolved Oxygen Saturation","72.800","%"
"M36/0698","2506931","20-Oct 2005 10:45am","E. coli","<1","MPN/100mL"
"M36/0698","2506931","20-Oct 2005 10:45am","Hardness, Total","55.000","g/m3 as CaCO3"
"M36/0698","2506931","20-Oct 2005 10:45am","Iron, Dissolved","<0.030","mg/L"
"M36/0698","2506931","20-Oct 2005 10:45am","Magnesium, Dissolved","2.400","mg/L"
"M36/0698","2506931","20-Oct 2005 10:45am","Manganese, Dissolved","<0.0100","mg/L"
"M36/0698","2506931","20-Oct 2005 10:45am","Nitrate Nitrogen","2.600","mg/L"
"M36/0698","2506931","20-Oct 2005 10:45am","pH","7.5",""
"M36/0698","2506931","20-Oct 2005 10:45am","pH (Field)","7.30",""
"M36/0698","2506931","20-Oct 2005 10:45am","Potassium, Dissolved","0.900","mg/L"
"M36/0698","2506931","20-Oct 2005 10:45am","Silica, Reactive","14.000","mg/L  as SiO2"
"M36/0698","2506931","20-Oct 2005 10:45am","Sodium, Dissolved","6.800","mg/L"
"M36/0698","2506931","20-Oct 2005 10:45am","Sulphate","5.100","mg/L"
"M36/0698","2506931","20-Oct 2005 10:45am","Sum of anions","1.480","meq/L"
"M36/0698","2506931","20-Oct 2005 10:45am","Sum of cations","1.415","meq/L"
"M36/0698","2506931","20-Oct 2005 10:45am","Total Coliforms","<1.00","number/100mL"
"M36/0698","2506931","20-Oct 2005 10:45am","Water Temperature (Field)","12.5","C"
"M36/0698","2406687","14-Oct 2004 11:00am","Alkalinity to pH 4.5 as HCO3","62.000","mg/L  as HCO3"
"M36/0698","2406687","14-Oct 2004 11:00am","Ammoniacal Nitrogen","<0.005","mg/L"
"M36/0698","2406687","14-Oct 2004 11:00am","Calcium, Dissolved","19.000","mg/L"
"M36/0698","2406687","14-Oct 2004 11:00am","Chloride","4.800","mg/L"
"M36/0698","2406687","14-Oct 2004 11:00am","Conductivity","15.0","mS/m"
"M36/0698","2406687","14-Oct 2004 11:00am","Conductivity (Field)","15.20","mS/m"
"M36/0698","2406687","14-Oct 2004 11:00am","Difference in Ion Balance","0.068","%"
"M36/0698","2406687","14-Oct 2004 11:00am","Dissolved Oxygen","8.200","mg/L"
"M36/0698","2406687","14-Oct 2004 11:00am","Dissolved Oxygen Saturation","79.000","%"
"M36/0698","2406687","14-Oct 2004 11:00am","E. coli","<1","MPN/100mL"
"M36/0698","2406687","14-Oct 2004 11:00am","Hardness, Total","57.000","g/m3 as CaCO3"
"M36/0698","2406687","14-Oct 2004 11:00am","Iron, Dissolved","0.070","mg/L"
"M36/0698","2406687","14-Oct 2004 11:00am","Magnesium, Dissolved","2.400","mg/L"
"M36/0698","2406687","14-Oct 2004 11:00am","Manganese, Dissolved","<0.0100","mg/L"
"M36/0698","2406687","14-Oct 2004 11:00am","Nitrate Nitrogen","2.700","mg/L"
"M36/0698","2406687","14-Oct 2004 11:00am","pH","7.2",""
"M36/0698","2406687","14-Oct 2004 11:00am","pH (Field)","6.70",""
"M36/0698","2406687","14-Oct 2004 11:00am","Potassium, Dissolved","1.000","mg/L"
"M36/0698","2406687","14-Oct 2004 11:00am","Silica, Reactive","13.000","mg/L  as SiO2"
"M36/0698","2406687","14-Oct 2004 11:00am","Sodium, Dissolved","6.900","mg/L"
"M36/0698","2406687","14-Oct 2004 11:00am","Sulphate","6.000","mg/L"
"M36/0698","2406687","14-Oct 2004 11:00am","Sum of anions","1.470","meq/L"
"M36/0698","2406687","14-Oct 2004 11:00am","Sum of cations","1.472","meq/L"
"M36/0698","2406687","14-Oct 2004 11:00am","Total Coliforms","<1.00","number/100mL"
"M36/0698","2406687","14-Oct 2004 11:00am","Water Temperature (Field)","13.6","C"
"M36/0698","2305873","15-Oct 2003 08:30am","Alkalinity to pH 4.5 as HCO3","65.000","mg/L  as HCO3"
"M36/0698","2305873","15-Oct 2003 08:30am","Ammoniacal Nitrogen","0.006","mg/L"
"M36/0698","2305873","15-Oct 2003 08:30am","Calcium, Dissolved","16.000","mg/L"
"M36/0698","2305873","15-Oct 2003 08:30am","Chloride","4.400","mg/L"
"M36/0698","2305873","15-Oct 2003 08:30am","Conductivity","17.0","mS/m"
"M36/0698","2305873","15-Oct 2003 08:30am","Conductivity (Field)","14.60","mS/m"
"M36/0698","2305873","15-Oct 2003 08:30am","Difference in Ion Balance","-5.800","%"
"M36/0698","2305873","15-Oct 2003 08:30am","Dissolved Oxygen","9.000","mg/L"
"M36/0698","2305873","15-Oct 2003 08:30am","Dissolved Oxygen Saturation","85.000","%"
"M36/0698","2305873","15-Oct 2003 08:30am","E. coli","<1","MPN/100mL"
"M36/0698","2305873","15-Oct 2003 08:30am","Hardness, Total","49.000","g/m3 as CaCO3"
"M36/0698","2305873","15-Oct 2003 08:30am","Iron, Dissolved","<0.030","mg/L"
"M36/0698","2305873","15-Oct 2003 08:30am","Magnesium, Dissolved","2.200","mg/L"
"M36/0698","2305873","15-Oct 2003 08:30am","Manganese, Dissolved","<0.0100","mg/L"
"M36/0698","2305873","15-Oct 2003 08:30am","Nitrate Nitrogen","2.200","mg/L"
"M36/0698","2305873","15-Oct 2003 08:30am","pH","7.3",""
"M36/0698","2305873","15-Oct 2003 08:30am","pH (Field)","6.90",""
"M36/0698","2305873","15-Oct 2003 08:30am","Potassium, Dissolved","1.000","mg/L"
"M36/0698","2305873","15-Oct 2003 08:30am","Silica, Reactive","13.000","mg/L  as SiO2"
"M36/0698","2305873","15-Oct 2003 08:30am","Sodium, Dissolved","6.800","mg/L"
"M36/0698","2305873","15-Oct 2003 08:30am","Sulphate","5.400","mg/L"
"M36/0698","2305873","15-Oct 2003 08:30am","Sum of anions","1.459","meq/L"
"M36/0698","2305873","15-Oct 2003 08:30am","Sum of cations","1.300","meq/L"
"M36/0698","2305873","15-Oct 2003 08:30am","Total Coliforms","<1.00","number/100mL"
"M36/0698","2305873","15-Oct 2003 08:30am","Water Temperature (Field)","12.6","C"
"M36/0698","2205106","17-Oct 2002 13:00pm","Alkalinity to pH 4.5 as HCO3","60.000","mg/L  as HCO3"
"M36/0698","2205106","17-Oct 2002 13:00pm","Ammoniacal Nitrogen","<0.005","mg/L"
"M36/0698","2205106","17-Oct 2002 13:00pm","Calcium, Total","17.000","mg/L"
"M36/0698","2205106","17-Oct 2002 13:00pm","Chloride","4.600","mg/L"
"M36/0698","2205106","17-Oct 2002 13:00pm","Conductivity","15.0","mS/m"
"M36/0698","2205106","17-Oct 2002 13:00pm","Difference in Ion Balance","-2.400","%"
"M36/0698","2205106","17-Oct 2002 13:00pm","Dissolved Oxygen","7.600","mg/L"
"M36/0698","2205106","17-Oct 2002 13:00pm","Dissolved Oxygen Saturation","72.300","%"
"M36/0698","2205106","17-Oct 2002 13:00pm","E. coli","<1","MPN/100mL"
"M36/0698","2205106","17-Oct 2002 13:00pm","Hardness, Total","52.000","g/m3 as CaCO3"
"M36/0698","2205106","17-Oct 2002 13:00pm","Iron, Total","<0.030","mg/L"
"M36/0698","2205106","17-Oct 2002 13:00pm","Magnesium, Total","2.200","mg/L"
"M36/0698","2205106","17-Oct 2002 13:00pm","Manganese, Total","<0.01000","mg/L"
"M36/0698","2205106","17-Oct 2002 13:00pm","Nitrate Nitrogen","2.400","mg/L"
"M36/0698","2205106","17-Oct 2002 13:00pm","pH","7.4",""
"M36/0698","2205106","17-Oct 2002 13:00pm","Potassium, Total","1.000","mg/L"
"M36/0698","2205106","17-Oct 2002 13:00pm","Silica, Reactive","12.000","mg/L  as SiO2"
"M36/0698","2205106","17-Oct 2002 13:00pm","Sodium, Total","6.400","mg/L"
"M36/0698","2205106","17-Oct 2002 13:00pm","Sulphate","5.500","mg/L"
"M36/0698","2205106","17-Oct 2002 13:00pm","Sum of anions","1.399","meq/L"
"M36/0698","2205106","17-Oct 2002 13:00pm","Sum of cations","1.333","meq/L"
"M36/0698","2205106","17-Oct 2002 13:00pm","Total Coliforms","<1.00","number/100mL"
"M36/0698","2205106","17-Oct 2002 13:00pm","Water Temperature (Field)","12.8","C"
"M36/0698","2106108","09-Oct 2001 12:15pm","Alkalinity to pH 4.5 as HCO3","56.000","mg/L  as HCO3"
"M36/0698","2106108","09-Oct 2001 12:15pm","Ammoniacal Nitrogen","<0.005","mg/L"
"M36/0698","2106108","09-Oct 2001 12:15pm","Calcium, Total","16.000","mg/L"
"M36/0698","2106108","09-Oct 2001 12:15pm","Chloride","4.600","mg/L"
"M36/0698","2106108","09-Oct 2001 12:15pm","Conductivity","14.0","mS/m"
"M36/0698","2106108","09-Oct 2001 12:15pm","Difference in Ion Balance","-0.600","%"
"M36/0698","2106108","09-Oct 2001 12:15pm","Dissolved Oxygen","7.400","mg/L"
"M36/0698","2106108","09-Oct 2001 12:15pm","Dissolved Oxygen Saturation","69.400","%"
"M36/0698","2106108","09-Oct 2001 12:15pm","E. coli","<1","MPN/100mL"
"M36/0698","2106108","09-Oct 2001 12:15pm","Faecal Coliforms","<1","cfu/100mL"
"M36/0698","2106108","09-Oct 2001 12:15pm","Hardness, Total","49.000","g/m3 as CaCO3"
"M36/0698","2106108","09-Oct 2001 12:15pm","Iron, Total","<0.030","mg/L"
"M36/0698","2106108","09-Oct 2001 12:15pm","Magnesium, Total","2.100","mg/L"
"M36/0698","2106108","09-Oct 2001 12:15pm","Manganese, Total","<0.01000","mg/L"
"M36/0698","2106108","09-Oct 2001 12:15pm","Nitrate Nitrogen","2.200","mg/L"
"M36/0698","2106108","09-Oct 2001 12:15pm","pH","7.3",""
"M36/0698","2106108","09-Oct 2001 12:15pm","Potassium, Total","0.500","mg/L"
"M36/0698","2106108","09-Oct 2001 12:15pm","Silica, Reactive","12.000","mg/L  as SiO2"
"M36/0698","2106108","09-Oct 2001 12:15pm","Sodium, Total","7.300","mg/L"
"M36/0698","2106108","09-Oct 2001 12:15pm","Sulphate","5.400","mg/L"
"M36/0698","2106108","09-Oct 2001 12:15pm","Sum of anions","1.317","meq/L"
"M36/0698","2106108","09-Oct 2001 12:15pm","Sum of cations","1.303","meq/L"
"M36/0698","2106108","09-Oct 2001 12:15pm","Total Coliforms","<1.00","number/100mL"
"M36/0698","2106108","09-Oct 2001 12:15pm","Water Temperature (Field)","12.6","C"
"M36/0698","2106107","09-Oct 2001 12:10pm","Alkalinity to pH 4.5 as HCO3","56.000","mg/L  as HCO3"
"M36/0698","2106107","09-Oct 2001 12:10pm","Ammoniacal Nitrogen","<0.005","mg/L"
"M36/0698","2106107","09-Oct 2001 12:10pm","Calcium, Total","16.000","mg/L"
"M36/0698","2106107","09-Oct 2001 12:10pm","Chloride","4.600","mg/L"
"M36/0698","2106107","09-Oct 2001 12:10pm","Conductivity","14.0","mS/m"
"M36/0698","2106107","09-Oct 2001 12:10pm","Difference in Ion Balance","-0.400","%"
"M36/0698","2106107","09-Oct 2001 12:10pm","Dissolved Oxygen","7.400","mg/L"
"M36/0698","2106107","09-Oct 2001 12:10pm","Dissolved Oxygen Saturation","69.400","%"
"M36/0698","2106107","09-Oct 2001 12:10pm","E. coli","<1","MPN/100mL"
"M36/0698","2106107","09-Oct 2001 12:10pm","Faecal Coliforms","<1","cfu/100mL"
"M36/0698","2106107","09-Oct 2001 12:10pm","Hardness, Total","49.000","g/m3 as CaCO3"
"M36/0698","2106107","09-Oct 2001 12:10pm","Iron, Total","<0.030","mg/L"
"M36/0698","2106107","09-Oct 2001 12:10pm","Magnesium, Total","2.100","mg/L"
"M36/0698","2106107","09-Oct 2001 12:10pm","Manganese, Total","<0.01000","mg/L"
"M36/0698","2106107","09-Oct 2001 12:10pm","Nitrate Nitrogen","2.200","mg/L"
"M36/0698","2106107","09-Oct 2001 12:10pm","pH","7.4",""
"M36/0698","2106107","09-Oct 2001 12:10pm","Potassium, Total","0.600","mg/L"
"M36/0698","2106107","09-Oct 2001 12:10pm","Silica, Reactive","12.000","mg/L  as SiO2"
"M36/0698","2106107","09-Oct 2001 12:10pm","Sodium, Total","7.300","mg/L"
"M36/0698","2106107","09-Oct 2001 12:10pm","Sulphate","5.300","mg/L"
"M36/0698","2106107","09-Oct 2001 12:10pm","Sum of anions","1.315","meq/L"
"M36/0698","2106107","09-Oct 2001 12:10pm","Sum of cations","1.305","meq/L"
"M36/0698","2106107","09-Oct 2001 12:10pm","Total Coliforms","<1.00","number/100mL"
"M36/0698","2106107","09-Oct 2001 12:10pm","Water Temperature (Field)","12.6","C"
"M36/0698","ISOTO4545","14-Feb 2001 00:05am","Oxygen 18","-8.970",""
"M36/0698","IS010214E","14-Feb 2001 00:00am","CFC preferred recharge year","1974.000","Year"
"M36/0698","IS010214E","14-Feb 2001 00:00am","CFC-11 partial pressure","86.100","pptv"
"M36/0698","IS010214E","14-Feb 2001 00:00am","CFC-11 partial pressure Standard Deviation","0.100","pptv"
"M36/0698","IS010214E","14-Feb 2001 00:00am","CFC-11 recharge year","1974.000","Year"
"M36/0698","IS010214E","14-Feb 2001 00:00am","CFC-11, Dissolved","1.680","pmol/kg"
"M36/0698","IS010214E","14-Feb 2001 00:00am","CFC-11, Dissolved Standard Deviation","0.000","pmol/kg"
"M36/0698","IS010214E","14-Feb 2001 00:00am","CFC-12 partial pressure","305.000","pptv"
"M36/0698","IS010214E","14-Feb 2001 00:00am","CFC-12 partial pressure Standard Deviation","1.100","pptv"
"M36/0698","IS010214E","14-Feb 2001 00:00am","CFC-12 recharge year","1981.000","Year"
"M36/0698","IS010214E","14-Feb 2001 00:00am","CFC-12, Dissolved","1.600","pmol/kg"
"M36/0698","IS010214E","14-Feb 2001 00:00am","CFC-12, Dissolved Standard Deviation","0.000","pmol/kg"
"M36/0698","IS010214E","14-Feb 2001 00:00am","CFC-13, Dissolved Uncertainty","11.500","pmol/kg"
"M36/0698","IS010214E","14-Feb 2001 00:00am","IGNS Sample Reference","*",""
"M36/0698","IS010214E","14-Feb 2001 00:00am","Recharge elevation","0.000","m"
"M36/0698","IS010214E","14-Feb 2001 00:00am","Recharge temperature","11.500","°C"
"M36/0698","IS010214E","14-Feb 2001 00:00am","Recommended model age","0.000","Year"
"M36/0698","IS010214E","14-Feb 2001 00:00am","Relative humidity","0.000","%"
"M36/0698","IS010214E","14-Feb 2001 00:00am","Tritium age","27.000","Year"
"M36/0698","2009490","15-Nov 2000 11:00am","Alkalinity to pH 4.5 as HCO3","60.000","mg/L  as HCO3"
"M36/0698","2009490","15-Nov 2000 11:00am","Ammoniacal Nitrogen","0.007","mg/L"
"M36/0698","2009490","15-Nov 2000 11:00am","Calcium, Total","16.000","mg/L"
"M36/0698","2009490","15-Nov 2000 11:00am","Chloride","4.400","mg/L"
"M36/0698","2009490","15-Nov 2000 11:00am","Conductivity","14.0","mS/m"
"M36/0698","2009490","15-Nov 2000 11:00am","Conductivity (Field)","14.20","mS/m"
"M36/0698","2009490","15-Nov 2000 11:00am","Difference in Ion Balance","-3.200","%"
"M36/0698","2009490","15-Nov 2000 11:00am","Dissolved Oxygen","8.600","mg/L"
"M36/0698","2009490","15-Nov 2000 11:00am","Dissolved Oxygen Saturation","81.300","%"
"M36/0698","2009490","15-Nov 2000 11:00am","E. coli","<1","MPN/100mL"
"M36/0698","2009490","15-Nov 2000 11:00am","Faecal Coliforms","<1","cfu/100mL"
"M36/0698","2009490","15-Nov 2000 11:00am","Hardness, Total","49.000","g/m3 as CaCO3"
"M36/0698","2009490","15-Nov 2000 11:00am","Iron, Total","<0.120","mg/L"
"M36/0698","2009490","15-Nov 2000 11:00am","Magnesium, Total","2.100","mg/L"
"M36/0698","2009490","15-Nov 2000 11:00am","Manganese, Total","<0.04000","mg/L"
"M36/0698","2009490","15-Nov 2000 11:00am","Nitrate Nitrogen","2.200","mg/L"
"M36/0698","2009490","15-Nov 2000 11:00am","pH","7.4",""
"M36/0698","2009490","15-Nov 2000 11:00am","pH (Field)","7.40",""
"M36/0698","2009490","15-Nov 2000 11:00am","Potassium, Total","0.900","mg/L"
"M36/0698","2009490","15-Nov 2000 11:00am","Silica, Reactive","12.000","mg/L  as SiO2"
"M36/0698","2009490","15-Nov 2000 11:00am","Sodium, Total","7.000","mg/L"
"M36/0698","2009490","15-Nov 2000 11:00am","Sulphate","4.900","mg/L"
"M36/0698","2009490","15-Nov 2000 11:00am","Sum of anions","1.367","meq/L"
"M36/0698","2009490","15-Nov 2000 11:00am","Sum of cations","1.282","meq/L"
"M36/0698","2009490","15-Nov 2000 11:00am","Total Coliforms","5.00","number/100mL"
"M36/0698","2009490","15-Nov 2000 11:00am","Water Temperature (Field)","12.6","C"
"M36/0698","9901978","13-Oct 1999 10:35am","Alkalinity to pH 4.5 as HCO3","59.000","mg/L  as HCO3"
"M36/0698","9901978","13-Oct 1999 10:35am","Ammoniacal Nitrogen","<0.005","mg/L"
"M36/0698","9901978","13-Oct 1999 10:35am","Arsenic, Total","<0.0020","mg/L"
"M36/0698","9901978","13-Oct 1999 10:35am","Calcium, Total","16.000","mg/L"
"M36/0698","9901978","13-Oct 1999 10:35am","Chloride","4.200","mg/L"
"M36/0698","9901978","13-Oct 1999 10:35am","Conductivity","14.0","mS/m"
"M36/0698","9901978","13-Oct 1999 10:35am","Conductivity (Field)","10.50","mS/m"
"M36/0698","9901978","13-Oct 1999 10:35am","Difference in Ion Balance","-3.000","%"
"M36/0698","9901978","13-Oct 1999 10:35am","Dissolved Oxygen","9.000","mg/L"
"M36/0698","9901978","13-Oct 1999 10:35am","Dissolved Oxygen Saturation","85.000","%"
"M36/0698","9901978","13-Oct 1999 10:35am","E. coli","<1","MPN/100mL"
"M36/0698","9901978","13-Oct 1999 10:35am","Faecal Coliforms","<1","cfu/100mL"
"M36/0698","9901978","13-Oct 1999 10:35am","Hardness, Total","48.000","g/m3 as CaCO3"
"M36/0698","9901978","13-Oct 1999 10:35am","Iron, Total","<0.120","mg/L"
"M36/0698","9901978","13-Oct 1999 10:35am","Magnesium, Total","2.000","mg/L"
"M36/0698","9901978","13-Oct 1999 10:35am","Manganese, Total","<0.04000","mg/L"
"M36/0698","9901978","13-Oct 1999 10:35am","Nitrate Nitrogen","2.000","mg/L"
"M36/0698","9901978","13-Oct 1999 10:35am","pH","7.3",""
"M36/0698","9901978","13-Oct 1999 10:35am","pH (Field)","7.20",""
"M36/0698","9901978","13-Oct 1999 10:35am","Potassium, Total","0.920","mg/L"
"M36/0698","9901978","13-Oct 1999 10:35am","Silica, Reactive","13.000","mg/L  as SiO2"
"M36/0698","9901978","13-Oct 1999 10:35am","Sodium, Total","6.300","mg/L"
"M36/0698","9901978","13-Oct 1999 10:35am","Sulphate","5.300","mg/L"
"M36/0698","9901978","13-Oct 1999 10:35am","Sum of anions","1.339","meq/L"
"M36/0698","9901978","13-Oct 1999 10:35am","Sum of cations","1.261","meq/L"
"M36/0698","9901978","13-Oct 1999 10:35am","Total Coliforms","<1.00","number/100mL"
"M36/0698","9901978","13-Oct 1999 10:35am","Water Temperature (Field)","13.0","C"
"M36/0698","CQ987775","09-Sep 1998 12:00pm","Alkalinity to pH 4.5 as HCO3","56.000","mg/L  as HCO3"
"M36/0698","CQ987775","09-Sep 1998 12:00pm","Ammoniacal Nitrogen","<0.005","mg/L"
"M36/0698","CQ987775","09-Sep 1998 12:00pm","Calcium, Total","17.000","mg/L"
"M36/0698","CQ987775","09-Sep 1998 12:00pm","Chloride","4.300","mg/L"
"M36/0698","CQ987775","09-Sep 1998 12:00pm","Conductivity","14.0","mS/m"
"M36/0698","CQ987775","09-Sep 1998 12:00pm","Difference in Ion Balance","0.600","%"
"M36/0698","CQ987775","09-Sep 1998 12:00pm","Faecal Coliforms","<1","cfu/100mL"
"M36/0698","CQ987775","09-Sep 1998 12:00pm","Hardness, Total","51.000","g/m3 as CaCO3"
"M36/0698","CQ987775","09-Sep 1998 12:00pm","Iron, Total","<0.120","mg/L"
"M36/0698","CQ987775","09-Sep 1998 12:00pm","Magnesium, Total","2.000","mg/L"
"M36/0698","CQ987775","09-Sep 1998 12:00pm","Manganese, Total","<0.04000","mg/L"
"M36/0698","CQ987775","09-Sep 1998 12:00pm","Nitrate Nitrogen","2.100","mg/L"
"M36/0698","CQ987775","09-Sep 1998 12:00pm","pH","7.3",""
"M36/0698","CQ987775","09-Sep 1998 12:00pm","Potassium, Total","0.880","mg/L"
"M36/0698","CQ987775","09-Sep 1998 12:00pm","Silica, Reactive","12.000","mg/L  as SiO2"
"M36/0698","CQ987775","09-Sep 1998 12:00pm","Sodium, Total","6.400","mg/L"
"M36/0698","CQ987775","09-Sep 1998 12:00pm","Sulphate","5.200","mg/L"
"M36/0698","CQ987775","09-Sep 1998 12:00pm","Sum of anions","1.300","meq/L"
"M36/0698","CQ987775","09-Sep 1998 12:00pm","Sum of cations","1.310","meq/L"
"M36/0698","CQ987775","09-Sep 1998 12:00pm","Total Coliforms","<1.00","number/100mL"
"M36/0698","CQ972464","01-Oct 1997 14:00pm","Alkalinity to pH 4.5 as HCO3","60.000","mg/L  as HCO3"
"M36/0698","CQ972464","01-Oct 1997 14:00pm","Ammoniacal Nitrogen","0.005","mg/L"
"M36/0698","CQ972464","01-Oct 1997 14:00pm","Calcium","18.000","mg/L"
"M36/0698","CQ972464","01-Oct 1997 14:00pm","Chloride","4.000","mg/L"
"M36/0698","CQ972464","01-Oct 1997 14:00pm","Conductivity","14.0","mS/m"
"M36/0698","CQ972464","01-Oct 1997 14:00pm","Difference in Ion Balance","1.000","%"
"M36/0698","CQ972464","01-Oct 1997 14:00pm","Faecal Coliforms","<1","cfu/100mL"
"M36/0698","CQ972464","01-Oct 1997 14:00pm","Hardness, Total","54.000","g/m3 as CaCO3"
"M36/0698","CQ972464","01-Oct 1997 14:00pm","Iron, Total","<0.120","mg/L"
"M36/0698","CQ972464","01-Oct 1997 14:00pm","Magnesium, Total","2.100","mg/L"
"M36/0698","CQ972464","01-Oct 1997 14:00pm","Manganese, Total","<0.04000","mg/L"
"M36/0698","CQ972464","01-Oct 1997 14:00pm","Nitrate Nitrogen","1.800","mg/L"
"M36/0698","CQ972464","01-Oct 1997 14:00pm","Nitrite Nitrogen","<0.005","mg/L"
"M36/0698","CQ972464","01-Oct 1997 14:00pm","pH","7.3",""
"M36/0698","CQ972464","01-Oct 1997 14:00pm","Potassium, Total","0.960","mg/L"
"M36/0698","CQ972464","01-Oct 1997 14:00pm","Silica, Reactive","13.000","mg/L  as SiO2"
"M36/0698","CQ972464","01-Oct 1997 14:00pm","Sodium, Total","6.000","mg/L"
"M36/0698","CQ972464","01-Oct 1997 14:00pm","Sulphate","4.700","mg/L"
"M36/0698","CQ972464","01-Oct 1997 14:00pm","Sum of anions","1.320","meq/L"
"M36/0698","CQ972464","01-Oct 1997 14:00pm","Sum of cations","1.360","meq/L"
"M36/0698","CQ972464","01-Oct 1997 14:00pm","Total Coliforms","<1.00","number/100mL"
"M36/0698","CQ961016","04-Nov 1996 09:55am","Alkalinity to pH 4.5 as HCO3","58.000","mg/L  as HCO3"
"M36/0698","CQ961016","04-Nov 1996 09:55am","Ammoniacal Nitrogen","0.006","mg/L"
"M36/0698","CQ961016","04-Nov 1996 09:55am","Calcium","17.000","mg/L"
"M36/0698","CQ961016","04-Nov 1996 09:55am","Chloride","5.000","mg/L"
"M36/0698","CQ961016","04-Nov 1996 09:55am","Conductivity","13.5","mS/m"
"M36/0698","CQ961016","04-Nov 1996 09:55am","Difference in Ion Balance","-3.200","%"
"M36/0698","CQ961016","04-Nov 1996 09:55am","Faecal Coliforms","<1","cfu/100mL"
"M36/0698","CQ961016","04-Nov 1996 09:55am","Hardness, Total","51.000","g/m3 as CaCO3"
"M36/0698","CQ961016","04-Nov 1996 09:55am","Iron, Total","<0.120","mg/L"
"M36/0698","CQ961016","04-Nov 1996 09:55am","Magnesium, Total","2.100","mg/L"
"M36/0698","CQ961016","04-Nov 1996 09:55am","Manganese, Total","<0.04000","mg/L"
"M36/0698","CQ961016","04-Nov 1996 09:55am","Nitrate-N Nitrite-N","2.100","g/m3"
"M36/0698","CQ961016","04-Nov 1996 09:55am","pH","7.5",""
"M36/0698","CQ961016","04-Nov 1996 09:55am","Potassium, Total","0.990","mg/L"
"M36/0698","CQ961016","04-Nov 1996 09:55am","Sodium, Total","5.400","mg/L"
"M36/0698","CQ961016","04-Nov 1996 09:55am","Sulphate","6.000","mg/L"
"M36/0698","CQ961016","04-Nov 1996 09:55am","Sum of anions","1.370","meq/L"
"M36/0698","CQ961016","04-Nov 1996 09:55am","Sum of cations","1.280","meq/L"
"M36/0698","CQ961016","04-Nov 1996 09:55am","Total Coliforms","1.00","number/100mL"
"M36/0698","CQ961015","04-Nov 1996 09:50am","Alkalinity to pH 4.5 as HCO3","57.000","mg/L  as HCO3"
"M36/0698","CQ961015","04-Nov 1996 09:50am","Ammoniacal Nitrogen","0.005","mg/L"
"M36/0698","CQ961015","04-Nov 1996 09:50am","Calcium","16.000","mg/L"
"M36/0698","CQ961015","04-Nov 1996 09:50am","Chloride","5.000","mg/L"
"M36/0698","CQ961015","04-Nov 1996 09:50am","Conductivity","13.5","mS/m"
"M36/0698","CQ961015","04-Nov 1996 09:50am","Difference in Ion Balance","-4.100","%"
"M36/0698","CQ961015","04-Nov 1996 09:50am","Faecal Coliforms","<1","cfu/100mL"
"M36/0698","CQ961015","04-Nov 1996 09:50am","Hardness, Total","49.000","g/m3 as CaCO3"
"M36/0698","CQ961015","04-Nov 1996 09:50am","Iron, Total","<0.120","mg/L"
"M36/0698","CQ961015","04-Nov 1996 09:50am","Magnesium, Total","2.200","mg/L"
"M36/0698","CQ961015","04-Nov 1996 09:50am","Manganese, Total","<0.04000","mg/L"
"M36/0698","CQ961015","04-Nov 1996 09:50am","Nitrate-N Nitrite-N","2.100","g/m3"
"M36/0698","CQ961015","04-Nov 1996 09:50am","pH","7.5",""
"M36/0698","CQ961015","04-Nov 1996 09:50am","Potassium, Total","0.960","mg/L"
"M36/0698","CQ961015","04-Nov 1996 09:50am","Sodium, Total","5.400","mg/L"
"M36/0698","CQ961015","04-Nov 1996 09:50am","Sulphate","5.700","mg/L"
"M36/0698","CQ961015","04-Nov 1996 09:50am","Sum of anions","1.340","meq/L"
"M36/0698","CQ961015","04-Nov 1996 09:50am","Sum of cations","1.240","meq/L"
"M36/0698","CQ961015","04-Nov 1996 09:50am","Total Coliforms","<1.00","number/100mL"
"M36/0698","CQ954674","20-Sep 1995 12:45pm","4,4'-DDD","<0.0100000","mg/L"
"M36/0698","CQ954674","20-Sep 1995 12:45pm","4,4'-DDE","<0.0100000","mg/L"
"M36/0698","CQ954674","20-Sep 1995 12:45pm","4,4'-DDT","<0.0100000","mg/L"
"M36/0698","CQ954674","20-Sep 1995 12:45pm","Alachlor","<0.020000","mg/L"
"M36/0698","CQ954674","20-Sep 1995 12:45pm","Aldrin","<0.0100000","mg/L"
"M36/0698","CQ954674","20-Sep 1995 12:45pm","Alkalinity to pH 4.5 as HCO3","56.000","mg/L  as HCO3"
"M36/0698","CQ954674","20-Sep 1995 12:45pm","Ammoniacal Nitrogen","<0.005","mg/L"
"M36/0698","CQ954674","20-Sep 1995 12:45pm","Atrazine","<0.010000","mg/L"
"M36/0698","CQ954674","20-Sep 1995 12:45pm","Azinphos-methyl","<0.020000","mg/L"
"M36/0698","CQ954674","20-Sep 1995 12:45pm","Bromacil","<0.020000","mg/L"
"M36/0698","CQ954674","20-Sep 1995 12:45pm","Calcium","15.000","mg/L"
"M36/0698","CQ954674","20-Sep 1995 12:45pm","Chloride","5.000","mg/L"
"M36/0698","CQ954674","20-Sep 1995 12:45pm","Chlorpyrifos","<0.010000","mg/L"
"M36/0698","CQ954674","20-Sep 1995 12:45pm","Conductivity","13.0","mS/m"
"M36/0698","CQ954674","20-Sep 1995 12:45pm","Cyanazine","<0.010000","mg/L"
"M36/0698","CQ954674","20-Sep 1995 12:45pm","Diazinon","<0.010000","mg/L"
"M36/0698","CQ954674","20-Sep 1995 12:45pm","Dieldrin","<0.0100000","mg/L"
"M36/0698","CQ954674","20-Sep 1995 12:45pm","Difference in Ion Balance","5.300","%"
"M36/0698","CQ954674","20-Sep 1995 12:45pm","Diuron","<0.050000","mg/L"
"M36/0698","CQ954674","20-Sep 1995 12:45pm","Faecal Coliforms","<1","cfu/100mL"
"M36/0698","CQ954674","20-Sep 1995 12:45pm","Hardness, Total","45.000","g/m3 as CaCO3"
"M36/0698","CQ954674","20-Sep 1995 12:45pm","Hexazinone","<0.020000","mg/L"
"M36/0698","CQ954674","20-Sep 1995 12:45pm","Iron, Total","<0.120","mg/L"
"M36/0698","CQ954674","20-Sep 1995 12:45pm","Lindane","<0.0100000","mg/L"
"M36/0698","CQ954674","20-Sep 1995 12:45pm","Linuron","<0.030000","mg/L"
"M36/0698","CQ954674","20-Sep 1995 12:45pm","Magnesium, Total","1.800","mg/L"
"M36/0698","CQ954674","20-Sep 1995 12:45pm","Manganese, Total","<0.04000","mg/L"
"M36/0698","CQ954674","20-Sep 1995 12:45pm","Metribuzin","<0.030000","mg/L"
"M36/0698","CQ954674","20-Sep 1995 12:45pm","Nitrate Nitrogen","1.800","mg/L"
"M36/0698","CQ954674","20-Sep 1995 12:45pm","Oxidiazon","<0.020","ug/L"
"M36/0698","CQ954674","20-Sep 1995 12:45pm","Oxyfluorfen","<0.010000","mg/L"
"M36/0698","CQ954674","20-Sep 1995 12:45pm","Pendimethalin","<0.010000","mg/L"
"M36/0698","CQ954674","20-Sep 1995 12:45pm","pH","7.2",""
"M36/0698","CQ954674","20-Sep 1995 12:45pm","Phorate sulfoxide","<0.020","ug/L"
"M36/0698","CQ954674","20-Sep 1995 12:45pm","Phorate sulphone","<0.030","ug/L"
"M36/0698","CQ954674","20-Sep 1995 12:45pm","Pirimiphos-methyl","<0.010000","mg/L"
"M36/0698","CQ954674","20-Sep 1995 12:45pm","Potassium, Total","0.930","mg/L"
"M36/0698","CQ954674","20-Sep 1995 12:45pm","Procymidone","<0.010000","mg/L"
"M36/0698","CQ954674","20-Sep 1995 12:45pm","Prometryn","<0.030000","mg/L"
"M36/0698","CQ954674","20-Sep 1995 12:45pm","Simazine","<0.010000","mg/L"
"M36/0698","CQ954674","20-Sep 1995 12:45pm","Sodium, Total","5.500","mg/L"
"M36/0698","CQ954674","20-Sep 1995 12:45pm","Sulphate","4.900","mg/L"
"M36/0698","CQ954674","20-Sep 1995 12:45pm","Sum of anions","1.290","meq/L"
"M36/0698","CQ954674","20-Sep 1995 12:45pm","Sum of cations","1.160","meq/L"
"M36/0698","CQ954674","20-Sep 1995 12:45pm","Terbuthylazine","<0.010000","mg/L"
"M36/0698","CQ954674","20-Sep 1995 12:45pm","Total Coliforms","<1.00","number/100mL"
"M36/0698","CQ954674","20-Sep 1995 12:45pm","Vinclozolin","<0.010000","mg/L"
"M36/0698","CQ941825","20-Dec 1994 08:55am","2,4,5-T","<0.010000","mg/L"
"M36/0698","CQ941825","20-Dec 1994 08:55am","2,4-D","<0.020000","mg/L"
"M36/0698","CQ941825","20-Dec 1994 08:55am","4,4'-DDD","<0.0100000","mg/L"
"M36/0698","CQ941825","20-Dec 1994 08:55am","4,4'-DDE","<0.0100000","mg/L"
"M36/0698","CQ941825","20-Dec 1994 08:55am","4,4'-DDT","<0.0100000","mg/L"
"M36/0698","CQ941825","20-Dec 1994 08:55am","Alachlor","<0.020000","mg/L"
"M36/0698","CQ941825","20-Dec 1994 08:55am","Aldrin","<0.0100000","mg/L"
"M36/0698","CQ941825","20-Dec 1994 08:55am","Atrazine","<0.010000","mg/L"
"M36/0698","CQ941825","20-Dec 1994 08:55am","Azinphos-methyl","<0.020000","mg/L"
"M36/0698","CQ941825","20-Dec 1994 08:55am","Bromacil","<0.020000","mg/L"
"M36/0698","CQ941825","20-Dec 1994 08:55am","chlorimuron-ethyl","<0.020","ug/L"
"M36/0698","CQ941825","20-Dec 1994 08:55am","Chlorpyrifos","<0.010000","mg/L"
"M36/0698","CQ941825","20-Dec 1994 08:55am","Chlorsulfuron","<0.020","ug/L"
"M36/0698","CQ941825","20-Dec 1994 08:55am","Cinosulfuron","<0.020","ug/L"
"M36/0698","CQ941825","20-Dec 1994 08:55am","Cyanazine","<0.010000","mg/L"
"M36/0698","CQ941825","20-Dec 1994 08:55am","Diazinon","<0.010000","mg/L"
"M36/0698","CQ941825","20-Dec 1994 08:55am","Dicamba","<0.010000","mg/L"
"M36/0698","CQ941825","20-Dec 1994 08:55am","Dieldrin","<0.0100000","mg/L"
"M36/0698","CQ941825","20-Dec 1994 08:55am","Diuron","<0.050000","mg/L"
"M36/0698","CQ941825","20-Dec 1994 08:55am","Hexazinone","<0.020000","mg/L"
"M36/0698","CQ941825","20-Dec 1994 08:55am","Lindane","<0.0100000","mg/L"
"M36/0698","CQ941825","20-Dec 1994 08:55am","Linuron","<0.030000","mg/L"
"M36/0698","CQ941825","20-Dec 1994 08:55am","MCPA","<0.010000","mg/L"
"M36/0698","CQ941825","20-Dec 1994 08:55am","Metribuzin","<0.030000","mg/L"
"M36/0698","CQ941825","20-Dec 1994 08:55am","metsulfuron","<0.020","ug/L"
"M36/0698","CQ941825","20-Dec 1994 08:55am","Oryzalin (Trace)","<0.05000","mg/L"
"M36/0698","CQ941825","20-Dec 1994 08:55am","Oxidiazon","<0.020","ug/L"
"M36/0698","CQ941825","20-Dec 1994 08:55am","Oxyfluorfen","<0.010000","mg/L"
"M36/0698","CQ941825","20-Dec 1994 08:55am","Pendimethalin","<0.010000","mg/L"
"M36/0698","CQ941825","20-Dec 1994 08:55am","Phorate sulfoxide","<0.020","ug/L"
"M36/0698","CQ941825","20-Dec 1994 08:55am","Phorate sulphone","<0.020","ug/L"
"M36/0698","CQ941825","20-Dec 1994 08:55am","Picloram","<0.030000","mg/L"
"M36/0698","CQ941825","20-Dec 1994 08:55am","Pirimiphos-methyl","<0.010000","mg/L"
"M36/0698","CQ941825","20-Dec 1994 08:55am","Primisulfuron-methyl","<0.020","mg/L"
"M36/0698","CQ941825","20-Dec 1994 08:55am","Procymidone","<0.010000","mg/L"
"M36/0698","CQ941825","20-Dec 1994 08:55am","Prometryn","<0.030000","mg/L"
"M36/0698","CQ941825","20-Dec 1994 08:55am","Simazine","<0.010000","mg/L"
"M36/0698","CQ941825","20-Dec 1994 08:55am","Terbuthylazine","<0.010000","mg/L"
"M36/0698","CQ941825","20-Dec 1994 08:55am","Triasulfuron","<0.020","ug/L"
"M36/0698","CQ941825","20-Dec 1994 08:55am","Triclopyr","<0.020000","mg/L"
"M36/0698","CQ941825","20-Dec 1994 08:55am","Vinclozolin","<0.010000","mg/L"
"M36/0698","CQ941791","12-Dec 1994 11:25am","Alkalinity to pH 4.5 as HCO3","52.000","mg/L  as HCO3"
"M36/0698","CQ941791","12-Dec 1994 11:25am","Ammoniacal Nitrogen","<0.005","mg/L"
"M36/0698","CQ941791","12-Dec 1994 11:25am","Calcium, Dissolved","12.000","mg/L"
"M36/0698","CQ941791","12-Dec 1994 11:25am","Chloride","5.000","mg/L"
"M36/0698","CQ941791","12-Dec 1994 11:25am","Conductivity","13.0","mS/m"
"M36/0698","CQ941791","12-Dec 1994 11:25am","Faecal Coliforms","<1","cfu/100mL"
"M36/0698","CQ941791","12-Dec 1994 11:25am","Hardness, Total","39.000","g/m3 as CaCO3"
"M36/0698","CQ941791","12-Dec 1994 11:25am","Magnesium, Dissolved","2.000","mg/L"
"M36/0698","CQ941791","12-Dec 1994 11:25am","Nitrate Nitrogen","1.800","mg/L"
"M36/0698","CQ941791","12-Dec 1994 11:25am","pH","7.4",""
"M36/0698","CQ941791","12-Dec 1994 11:25am","Potassium, Dissolved","0.930","mg/L"
"M36/0698","CQ941791","12-Dec 1994 11:25am","Sodium, Dissolved","5.600","mg/L"
"M36/0698","CQ941791","12-Dec 1994 11:25am","Sulphate","6.000","mg/L"
"M36/0698","CQ941791","12-Dec 1994 11:25am","Total Coliforms","<1.00","number/100mL"
"M36/0698","CQ931498","22-Nov 1993 12:00pm","2,4,5-T","<0.010000","mg/L"
"M36/0698","CQ931498","22-Nov 1993 12:00pm","2,4-D","<0.020000","mg/L"
"M36/0698","CQ931498","22-Nov 1993 12:00pm","4,4'-DDD","<0.0100000","mg/L"
"M36/0698","CQ931498","22-Nov 1993 12:00pm","4,4'-DDE","<0.0100000","mg/L"
"M36/0698","CQ931498","22-Nov 1993 12:00pm","4,4'-DDT","<0.0100000","mg/L"
"M36/0698","CQ931498","22-Nov 1993 12:00pm","Alachlor","<0.020000","mg/L"
"M36/0698","CQ931498","22-Nov 1993 12:00pm","Aldicarb sulfone","<0.500","mg/L"
"M36/0698","CQ931498","22-Nov 1993 12:00pm","Aldicarb sulfoxide","<0.500","mg/L"
"M36/0698","CQ931498","22-Nov 1993 12:00pm","Aldrin","<0.0100000","mg/L"
"M36/0698","CQ931498","22-Nov 1993 12:00pm","Atrazine","<0.010000","mg/L"
"M36/0698","CQ931498","22-Nov 1993 12:00pm","Azinphos-methyl","<0.020000","mg/L"
"M36/0698","CQ931498","22-Nov 1993 12:00pm","Bromacil","<0.020000","mg/L"
"M36/0698","CQ931498","22-Nov 1993 12:00pm","chlorimuron-ethyl","<0.020","ug/L"
"M36/0698","CQ931498","22-Nov 1993 12:00pm","Chlorpyrifos","<0.010000","mg/L"
"M36/0698","CQ931498","22-Nov 1993 12:00pm","Chlorsulfuron","<0.020","ug/L"
"M36/0698","CQ931498","22-Nov 1993 12:00pm","Cinosulfuron","<0.020","ug/L"
"M36/0698","CQ931498","22-Nov 1993 12:00pm","Cyanazine","<0.010000","mg/L"
"M36/0698","CQ931498","22-Nov 1993 12:00pm","Diazinon","<0.010000","mg/L"
"M36/0698","CQ931498","22-Nov 1993 12:00pm","Dicamba","<0.010000","mg/L"
"M36/0698","CQ931498","22-Nov 1993 12:00pm","Dieldrin","<0.0100000","mg/L"
"M36/0698","CQ931498","22-Nov 1993 12:00pm","Diuron","<0.050000","mg/L"
"M36/0698","CQ931498","22-Nov 1993 12:00pm","Hexazinone","<0.020000","mg/L"
"M36/0698","CQ931498","22-Nov 1993 12:00pm","Lindane","<0.0100000","mg/L"
"M36/0698","CQ931498","22-Nov 1993 12:00pm","Linuron","<0.030000","mg/L"
"M36/0698","CQ931498","22-Nov 1993 12:00pm","MCPA","<0.010000","mg/L"
"M36/0698","CQ931498","22-Nov 1993 12:00pm","Metribuzin","<0.010000","mg/L"
"M36/0698","CQ931498","22-Nov 1993 12:00pm","metsulfuron","<0.020","ug/L"
"M36/0698","CQ931498","22-Nov 1993 12:00pm","Oryzalin (Trace)","<0.03000","mg/L"
"M36/0698","CQ931498","22-Nov 1993 12:00pm","Oxamyl","<1.000","mg/L"
"M36/0698","CQ931498","22-Nov 1993 12:00pm","Oxidiazon","<0.020","ug/L"
"M36/0698","CQ931498","22-Nov 1993 12:00pm","Oxyfluorfen","<0.010000","mg/L"
"M36/0698","CQ931498","22-Nov 1993 12:00pm","Pendimethalin","<0.010000","mg/L"
"M36/0698","CQ931498","22-Nov 1993 12:00pm","Phorate sulfoxide","<0.020","ug/L"
"M36/0698","CQ931498","22-Nov 1993 12:00pm","Phorate sulphone","<0.020","ug/L"
"M36/0698","CQ931498","22-Nov 1993 12:00pm","Picloram","<0.030000","mg/L"
"M36/0698","CQ931498","22-Nov 1993 12:00pm","Pirimiphos-methyl","<0.010000","mg/L"
"M36/0698","CQ931498","22-Nov 1993 12:00pm","Primisulfuron-methyl","<0.020","mg/L"
"M36/0698","CQ931498","22-Nov 1993 12:00pm","Procymidone","<0.010000","mg/L"
"M36/0698","CQ931498","22-Nov 1993 12:00pm","Propazine","<0.010000","mg/L"
"M36/0698","CQ931498","22-Nov 1993 12:00pm","Simazine","<0.010000","mg/L"
"M36/0698","CQ931498","22-Nov 1993 12:00pm","Terbuthylazine","<0.010000","mg/L"
"M36/0698","CQ931498","22-Nov 1993 12:00pm","Triasulfuron","<0.020","ug/L"
"M36/0698","CQ931498","22-Nov 1993 12:00pm","Triclopyr","<0.020000","mg/L"
"M36/0698","CQ931498","22-Nov 1993 12:00pm","Vinclozolin","<0.010000","mg/L"
"M36/0698","CQ931455","27-Oct 1993 08:35am","Alkalinity to pH 4.5 as HCO3","45.000","mg/L  as HCO3"
"M36/0698","CQ931455","27-Oct 1993 08:35am","Ammoniacal Nitrogen","<0.040","mg/L"
"M36/0698","CQ931455","27-Oct 1993 08:35am","Boron","<0.200","mg/L B"
"M36/0698","CQ931455","27-Oct 1993 08:35am","Calcium, Dissolved","14.600","mg/L"
"M36/0698","CQ931455","27-Oct 1993 08:35am","Carbonate Alkalinity","<1.000","mg/L CO3"
"M36/0698","CQ931455","27-Oct 1993 08:35am","Chloride","4.400","mg/L"
"M36/0698","CQ931455","27-Oct 1993 08:35am","Conductivity","12.2","mS/m"
"M36/0698","CQ931455","27-Oct 1993 08:35am","Dissolved Reactive Phosphorus","<0.1000","mg/L"
"M36/0698","CQ931455","27-Oct 1993 08:35am","Faecal Coliforms","<1","cfu/100mL"
"M36/0698","CQ931455","27-Oct 1993 08:35am","Free Carbon Dioxide","3.000","g/m3 at 25°;C"
"M36/0698","CQ931455","27-Oct 1993 08:35am","Hardness, Total","44.000","g/m3 as CaCO3"
"M36/0698","CQ931455","27-Oct 1993 08:35am","Iron, Dissolved","<0.100","mg/L"
"M36/0698","CQ931455","27-Oct 1993 08:35am","Magnesium, Dissolved","1.900","mg/L"
"M36/0698","CQ931455","27-Oct 1993 08:35am","Manganese, Dissolved","<0.0200","mg/L"
"M36/0698","CQ931455","27-Oct 1993 08:35am","Nitrate Nitrogen","1.700","mg/L"
"M36/0698","CQ931455","27-Oct 1993 08:35am","pH","7.4",""
"M36/0698","CQ931455","27-Oct 1993 08:35am","Potassium, Dissolved","0.900","mg/L"
"M36/0698","CQ931455","27-Oct 1993 08:35am","Sodium, Dissolved","6.500","mg/L"
"M36/0698","CQ931455","27-Oct 1993 08:35am","Sulphate","4.400","mg/L"
"M36/0698","CQ931455","27-Oct 1993 08:35am","Total Coliforms","<1.00","number/100mL"
"M36/0698","CQ930239","16-Feb 1993 09:00am","2,4,5-T","<0.010000","mg/L"
"M36/0698","CQ930239","16-Feb 1993 09:00am","2,4-D","<0.020000","mg/L"
"M36/0698","CQ930239","16-Feb 1993 09:00am","Alachlor","<0.030000","mg/L"
"M36/0698","CQ930239","16-Feb 1993 09:00am","Aldicarb sulfone","<0.500","mg/L"
"M36/0698","CQ930239","16-Feb 1993 09:00am","Aldicarb sulfoxide","<0.500","mg/L"
"M36/0698","CQ930239","16-Feb 1993 09:00am","Amitrole","<2.000","ug/L"
"M36/0698","CQ930239","16-Feb 1993 09:00am","Atrazine","<0.100000","mg/L"
"M36/0698","CQ930239","16-Feb 1993 09:00am","Azinphos-methyl","<0.010000","mg/L"
"M36/0698","CQ930239","16-Feb 1993 09:00am","Bromacil","<0.010000","mg/L"
"M36/0698","CQ930239","16-Feb 1993 09:00am","chlorimuron-ethyl","<0.020","ug/L"
"M36/0698","CQ930239","16-Feb 1993 09:00am","Chlorpyrifos","<0.010000","mg/L"
"M36/0698","CQ930239","16-Feb 1993 09:00am","Chlorsulfuron","<0.020","ug/L"
"M36/0698","CQ930239","16-Feb 1993 09:00am","Cinosulfuron","<0.020","ug/L"
"M36/0698","CQ930239","16-Feb 1993 09:00am","Cyanazine","<0.010000","mg/L"
"M36/0698","CQ930239","16-Feb 1993 09:00am","Diazinon","<0.010000","mg/L"
"M36/0698","CQ930239","16-Feb 1993 09:00am","Dicamba","<0.020000","mg/L"
"M36/0698","CQ930239","16-Feb 1993 09:00am","Diuron","<0.100000","mg/L"
"M36/0698","CQ930239","16-Feb 1993 09:00am","Hexazinone","<0.020000","mg/L"
"M36/0698","CQ930239","16-Feb 1993 09:00am","Linuron","<0.030000","mg/L"
"M36/0698","CQ930239","16-Feb 1993 09:00am","MCPA","<0.020000","mg/L"
"M36/0698","CQ930239","16-Feb 1993 09:00am","Metribuzin","<0.010000","mg/L"
"M36/0698","CQ930239","16-Feb 1993 09:00am","metsulfuron","<0.020","ug/L"
"M36/0698","CQ930239","16-Feb 1993 09:00am","Oxamyl","<1.000","mg/L"
"M36/0698","CQ930239","16-Feb 1993 09:00am","Oxyfluorfen","<0.010000","mg/L"
"M36/0698","CQ930239","16-Feb 1993 09:00am","Pendimethalin","<0.020000","mg/L"
"M36/0698","CQ930239","16-Feb 1993 09:00am","Phorate sulfoxide","<0.020","ug/L"
"M36/0698","CQ930239","16-Feb 1993 09:00am","Phorate sulphone","<0.010","ug/L"
"M36/0698","CQ930239","16-Feb 1993 09:00am","Picloram","<0.040000","mg/L"
"M36/0698","CQ930239","16-Feb 1993 09:00am","Pirimiphos-methyl","<0.010000","mg/L"
"M36/0698","CQ930239","16-Feb 1993 09:00am","Primisulfuron-methyl","<0.020","mg/L"
"M36/0698","CQ930239","16-Feb 1993 09:00am","Procymidone","<0.010000","mg/L"
"M36/0698","CQ930239","16-Feb 1993 09:00am","Simazine","<0.020000","mg/L"
"M36/0698","CQ930239","16-Feb 1993 09:00am","Terbuthylazine","<0.100000","mg/L"
"M36/0698","CQ930239","16-Feb 1993 09:00am","Triasulfuron","<0.020","ug/L"
"M36/0698","CQ930239","16-Feb 1993 09:00am","Triclopyr","<0.040000","mg/L"
"M36/0698","CQ930239","16-Feb 1993 09:00am","Vinclozolin","<0.020000","mg/L"
"M36/0698","CQ923045","12-Oct 1992 11:05am","Chloride","5.000","mg/L"
"M36/0698","CQ923045","12-Oct 1992 11:05am","Conductivity","12.3","mS/m"
"M36/0698","CQ923045","12-Oct 1992 11:05am","Nitrate Nitrogen","1.800","mg/L"
"M36/0698","CQ923045","12-Oct 1992 11:05am","pH","7.5",""
"M36/0698","CQ921109","20-Jul 1992 11:05am","Alkalinity to pH 4.5 as HCO3","52.000","mg/L  as HCO3"
"M36/0698","CQ921109","20-Jul 1992 11:05am","Calcium, Dissolved","14.000","mg/L"
"M36/0698","CQ921109","20-Jul 1992 11:05am","Chloride","5.000","mg/L"
"M36/0698","CQ921109","20-Jul 1992 11:05am","Conductivity","12.1","mS/m"
"M36/0698","CQ921109","20-Jul 1992 11:05am","Faecal Coliforms","0","cfu/100mL"
"M36/0698","CQ921109","20-Jul 1992 11:05am","Free Carbon Dioxide","8.000","g/m3 at 25°;C"
"M36/0698","CQ921109","20-Jul 1992 11:05am","Hardness, Total","43.000","g/m3 as CaCO3"
"M36/0698","CQ921109","20-Jul 1992 11:05am","Iron, Dissolved","<0.160","mg/L"
"M36/0698","CQ921109","20-Jul 1992 11:05am","Magnesium, Dissolved","1.900","mg/L"
"M36/0698","CQ921109","20-Jul 1992 11:05am","Manganese, Dissolved","<0.0300","mg/L"
"M36/0698","CQ921109","20-Jul 1992 11:05am","Nitrate Nitrogen","1.700","mg/L"
"M36/0698","CQ921109","20-Jul 1992 11:05am","pH","7.0",""
"M36/0698","CQ921109","20-Jul 1992 11:05am","Potassium, Dissolved","0.800","mg/L"
"M36/0698","CQ921109","20-Jul 1992 11:05am","Sodium, Dissolved","5.100","mg/L"
"M36/0698","CQ921109","20-Jul 1992 11:05am","Sulphate","7.000","mg/L"
"M36/0698","CQ921109","20-Jul 1992 11:05am","Total Coliforms","0","number/100mL"
"M36/0698","CQ921088","07-Jul 1992 09:50am","Alkalinity to pH 4.5 as HCO3","51.000","mg/L  as HCO3"
"M36/0698","CQ921088","07-Jul 1992 09:50am","Calcium, Dissolved","15.000","mg/L"
"M36/0698","CQ921088","07-Jul 1992 09:50am","Chloride","4.000","mg/L"
"M36/0698","CQ921088","07-Jul 1992 09:50am","Conductivity","12.2","mS/m"
"M36/0698","CQ921088","07-Jul 1992 09:50am","Faecal Coliforms","0","cfu/100mL"
"M36/0698","CQ921088","07-Jul 1992 09:50am","Free Carbon Dioxide","8.000","g/m3 at 25°;C"
"M36/0698","CQ921088","07-Jul 1992 09:50am","Hardness, Total","45.000","g/m3 as CaCO3"
"M36/0698","CQ921088","07-Jul 1992 09:50am","Iron, Dissolved","<0.160","mg/L"
"M36/0698","CQ921088","07-Jul 1992 09:50am","Magnesium, Dissolved","2.000","mg/L"
"M36/0698","CQ921088","07-Jul 1992 09:50am","Manganese, Dissolved","<0.0300","mg/L"
"M36/0698","CQ921088","07-Jul 1992 09:50am","Nitrate Nitrogen","1.700","mg/L"
"M36/0698","CQ921088","07-Jul 1992 09:50am","pH","7.0",""
"M36/0698","CQ921088","07-Jul 1992 09:50am","Potassium, Dissolved","0.800","mg/L"
"M36/0698","CQ921088","07-Jul 1992 09:50am","Sodium, Dissolved","5.400","mg/L"
"M36/0698","CQ921088","07-Jul 1992 09:50am","Sulphate","8.000","mg/L"
"M36/0698","CQ921088","07-Jul 1992 09:50am","Total Coliforms","0","number/100mL"
"M36/0698","CQ910225","08-Oct 1991 12:30pm","Chloride","4.000","mg/L"
"M36/0698","CQ910225","08-Oct 1991 12:30pm","Conductivity","12.1","mS/m"
"M36/0698","CQ910225","08-Oct 1991 12:30pm","Faecal Coliforms","0","cfu/100mL"
"M36/0698","CQ910225","08-Oct 1991 12:30pm","Nitrate Nitrogen","1.700","mg/L"
"M36/0698","CQ910225","08-Oct 1991 12:30pm","pH","7.2",""
"M36/0698","CQ910225","08-Oct 1991 12:30pm","Sulphate","6.000","mg/L"
"M36/0698","CQ910225","08-Oct 1991 12:30pm","Total Coliforms","0","number/100mL"
"M36/0698","CQ904300","10-Dec 1990 13:20pm","1,1,1-Trichloroethane","<0.400","g/m3"
"M36/0698","CQ904300","10-Dec 1990 13:20pm","2,4,5-T","<0.020000","mg/L"
"M36/0698","CQ904300","10-Dec 1990 13:20pm","2,4-D","<0.050000","mg/L"
"M36/0698","CQ904300","10-Dec 1990 13:20pm","Aldicarb sulfone","<0.200","mg/L"
"M36/0698","CQ904300","10-Dec 1990 13:20pm","Aldicarb sulfoxide","<0.200","mg/L"
"M36/0698","CQ904300","10-Dec 1990 13:20pm","Amitrole","<10.000","ug/L"
"M36/0698","CQ904300","10-Dec 1990 13:20pm","Anthracene","<0.020000","mg/L"
"M36/0698","CQ904300","10-Dec 1990 13:20pm","Atrazine","<0.100000","mg/L"
"M36/0698","CQ904300","10-Dec 1990 13:20pm","Azinphos-methyl","<0.200000","mg/L"
"M36/0698","CQ904300","10-Dec 1990 13:20pm","Benzene","<4.000","g/m3"
"M36/0698","CQ904300","10-Dec 1990 13:20pm","Bromacil","<0.020000","mg/L"
"M36/0698","CQ904300","10-Dec 1990 13:20pm","Bromodichloromethane","<0.300","g/m3"
"M36/0698","CQ904300","10-Dec 1990 13:20pm","Chlorodibromomethane","<0.300","ug/L"
"M36/0698","CQ904300","10-Dec 1990 13:20pm","Chloroform","<0.900","ug/L"
"M36/0698","CQ904300","10-Dec 1990 13:20pm","Chlorpyrifos","<0.010000","mg/L"
"M36/0698","CQ904300","10-Dec 1990 13:20pm","Chrysene","<0.02000","mg/L"
"M36/0698","CQ904300","10-Dec 1990 13:20pm","Dicamba","<0.020000","mg/L"
"M36/0698","CQ904300","10-Dec 1990 13:20pm","Ethylbenzene","<3000.000","g/m3"
"M36/0698","CQ904300","10-Dec 1990 13:20pm","Fluoranthene","<20.00000","mg/L"
"M36/0698","CQ904300","10-Dec 1990 13:20pm","MCPA","<0.050000","mg/L"
"M36/0698","CQ904300","10-Dec 1990 13:20pm","Metribuzin","<0.010000","mg/L"
"M36/0698","CQ904300","10-Dec 1990 13:20pm","Oxamyl","<0.500","mg/L"
"M36/0698","CQ904300","10-Dec 1990 13:20pm","Phorate sulfoxide","<0.010","ug/L"
"M36/0698","CQ904300","10-Dec 1990 13:20pm","Phorate sulphone","<0.030","ug/L"
"M36/0698","CQ904300","10-Dec 1990 13:20pm","Picloram","<0.050000","mg/L"
"M36/0698","CQ904300","10-Dec 1990 13:20pm","Pyrene","<0.0200","mg/L"
"M36/0698","CQ904300","10-Dec 1990 13:20pm","Simazine","<0.100000","mg/L"
"M36/0698","CQ904300","10-Dec 1990 13:20pm","Terbuthylazine","<0.100000","mg/L"
"M36/0698","CQ904300","10-Dec 1990 13:20pm","Tetrachloroethene","<0.200","ug/L"
"M36/0698","CQ904300","10-Dec 1990 13:20pm","Tetrachloromethane","<0.300","ug/L"
"M36/0698","CQ904300","10-Dec 1990 13:20pm","Toluene","<11.000","g/m3"
"M36/0698","CQ904300","10-Dec 1990 13:20pm","Tribromomethane","<0.600","ug/L"
"M36/0698","CQ904300","10-Dec 1990 13:20pm","Trichloroethene","<0.600","ug/L"
"M36/0698","CQ904300","10-Dec 1990 13:20pm","Triclopyr","<0.030000","mg/L"
"M36/0698","CQ904300","10-Dec 1990 13:20pm","Xylenes","<3.000","ug/L"
"M36/0698","CQ904230","30-Oct 1990 11:10am","Chloride","5.000","mg/L"
"M36/0698","CQ904230","30-Oct 1990 11:10am","Conductivity","11.9","mS/m"
"M36/0698","CQ904230","30-Oct 1990 11:10am","Faecal Coliforms","0","cfu/100mL"
"M36/0698","CQ904230","30-Oct 1990 11:10am","Nitrate Nitrogen","1.600","mg/L"
"M36/0698","CQ904230","30-Oct 1990 11:10am","pH","7.2",""
"M36/0698","CQ904230","30-Oct 1990 11:10am","Sulphate","<5.000","mg/L"
"M36/0698","CQ904230","30-Oct 1990 11:10am","Total Coliforms","0","number/100mL"
"M36/0698","CQ904230","30-Oct 1990 11:10am","Water Temperature (Field)","15.0","C"
"M36/0698","NCY891285","04-Oct 1989 11:30am","Chloride","5.000","mg/L"
"M36/0698","NCY891285","04-Oct 1989 11:30am","Conductivity","11.7","mS/m"
"M36/0698","NCY891285","04-Oct 1989 11:30am","Faecal Coliforms","0","cfu/100mL"
"M36/0698","NCY891285","04-Oct 1989 11:30am","Nitrate Nitrogen","1.600","mg/L"
"M36/0698","NCY891285","04-Oct 1989 11:30am","pH","7.3",""
"M36/0698","NCY891285","04-Oct 1989 11:30am","Sulphate","6.000","mg/L"
"M36/0698","NCY891285","04-Oct 1989 11:30am","Total Coliforms","0","number/100mL"
"M36/0698","NCY891285","04-Oct 1989 11:30am","Water Temperature (Field)","13.0","C"
"M36/0698","NCY881197","08-Nov 1988 11:15am","Chloride","4.000","mg/L"
"M36/0698","NCY881197","08-Nov 1988 11:15am","Conductivity","11.7","mS/m"
"M36/0698","NCY881197","08-Nov 1988 11:15am","Faecal Coliforms","0","cfu/100mL"
"M36/0698","NCY881197","08-Nov 1988 11:15am","Nitrate Nitrogen","1.600","mg/L"
"M36/0698","NCY881197","08-Nov 1988 11:15am","pH","7.3",""
"M36/0698","NCY881197","08-Nov 1988 11:15am","Sulphate","5.000","mg/L"
"M36/0698","NCY881197","08-Nov 1988 11:15am","Total Coliforms","0","number/100mL"
"M36/0698","NCY881197","08-Nov 1988 11:15am","Water Temperature (Field)","14.5","C"
"M36/0698","NCY871105","18-Nov 1987 13:15pm","Chloride","5.000","mg/L"
"M36/0698","NCY871105","18-Nov 1987 13:15pm","Conductivity","12.2","mS/m"
"M36/0698","NCY871105","18-Nov 1987 13:15pm","Faecal Coliforms","0","cfu/100mL"
"M36/0698","NCY871105","18-Nov 1987 13:15pm","Nitrate Nitrogen","1.700","mg/L"
"M36/0698","NCY871105","18-Nov 1987 13:15pm","pH","7.1",""
"M36/0698","NCY871105","18-Nov 1987 13:15pm","Sulphate","6.000","mg/L"
"M36/0698","NCY871105","18-Nov 1987 13:15pm","Total Coliforms","0","number/100mL"
"M36/0698","NCY871105","18-Nov 1987 13:15pm","Water Temperature (Field)","15.0","C"
"M36/0698","NCY861547","10-Nov 1986 11:45am","Chloride","4.000","mg/L"
"M36/0698","NCY861547","10-Nov 1986 11:45am","Conductivity","11.4","mS/m"
"M36/0698","NCY861547","10-Nov 1986 11:45am","Faecal Coliforms","0","cfu/100mL"
"M36/0698","NCY861547","10-Nov 1986 11:45am","Nitrate Nitrogen","1.700","mg/L"
"M36/0698","NCY861547","10-Nov 1986 11:45am","pH","7.4",""
"M36/0698","NCY861547","10-Nov 1986 11:45am","Sulphate","6.000","mg/L"
"M36/0698","NCY861547","10-Nov 1986 11:45am","Total Coliforms","0","number/100mL"
"M36/0698","NCY861547","10-Nov 1986 11:45am","Water Temperature (Field)","17.0","C"
"M36/0698","NCY820553","14-Jul 1982 00:00am","Chloride","6.500","mg/L"
"M36/0698","NCY820553","14-Jul 1982 00:00am","Conductivity","10.0","mS/m"
"M36/0698","NCY820553","14-Jul 1982 00:00am","Faecal Coliforms","0","cfu/100mL"
"M36/0698","NCY820553","14-Jul 1982 00:00am","Free Carbon Dioxide","3.000","g/m3 at 25°;C"
"M36/0698","NCY820553","14-Jul 1982 00:00am","Iron, Dissolved","0.000","mg/L"
"M36/0698","NCY820553","14-Jul 1982 00:00am","Manganese, Dissolved","0.0000","mg/L"
"M36/0698","NCY820553","14-Jul 1982 00:00am","Nitrate Nitrogen","1.900","mg/L"
"M36/0698","NCY820553","14-Jul 1982 00:00am","pH","7.4",""
"M36/0698","NCY820553","14-Jul 1982 00:00am","Sulphate","6.800","mg/L"
"M36/0698","NCY820553","14-Jul 1982 00:00am","Total Coliforms","0","number/100mL"
"M36/0698","NCY820553","14-Jul 1982 00:00am","Water Temperature (Field)","8.00","C"
"M36/0698","NCY790421","08-Oct 1979 00:00am","Alkalinity to pH 4.5 as HCO3","48.000","mg/L  as HCO3"
"M36/0698","NCY790421","08-Oct 1979 00:00am","Ammoniacal Nitrogen","0.000","mg/L"
"M36/0698","NCY790421","08-Oct 1979 00:00am","Calcium, Dissolved","15.000","mg/L"
"M36/0698","NCY790421","08-Oct 1979 00:00am","Chloride","6.000","mg/L"
"M36/0698","NCY790421","08-Oct 1979 00:00am","Conductivity","12.1","mS/m"
"M36/0698","NCY790421","08-Oct 1979 00:00am","Faecal Coliforms","0","cfu/100mL"
"M36/0698","NCY790421","08-Oct 1979 00:00am","Free Carbon Dioxide","11.000","g/m3 at 25°;C"
"M36/0698","NCY790421","08-Oct 1979 00:00am","Hardness, Total","44.000","g/m3 as CaCO3"
"M36/0698","NCY790421","08-Oct 1979 00:00am","Magnesium, Dissolved","1.500","mg/L"
"M36/0698","NCY790421","08-Oct 1979 00:00am","Nitrate Nitrogen","1.600","mg/L"
"M36/0698","NCY790421","08-Oct 1979 00:00am","pH","7.9",""
"M36/0698","NCY790421","08-Oct 1979 00:00am","Potassium, Dissolved","1.000","mg/L"
"M36/0698","NCY790421","08-Oct 1979 00:00am","Sodium, Dissolved","6.000","mg/L"
"M36/0698","NCY790421","08-Oct 1979 00:00am","Sulphate","6.000","mg/L"
"M36/0698","NCY790421","08-Oct 1979 00:00am","Total Coliforms","0","number/100mL"
"M36/0698","NCY790421","08-Oct 1979 00:00am","Water Temperature (Field)","11.0","C"
"M36/0698","OL750007","14-Oct 1975 00:00am","Albuminoid Nitrogen","<0.005","mg/L"
"M36/0698","OL750007","14-Oct 1975 00:00am","Alkalinity to pH 4.5 as HCO3","42.000","mg/L  as HCO3"
"M36/0698","OL750007","14-Oct 1975 00:00am","Ammoniacal Nitrogen","<0.005","mg/L"
"M36/0698","OL750007","14-Oct 1975 00:00am","Calcium, Dissolved","13.000","mg/L"
"M36/0698","OL750007","14-Oct 1975 00:00am","Carbonate Alkalinity","0.000","mg/L CO3"
"M36/0698","OL750007","14-Oct 1975 00:00am","Chloride","8.000","mg/L"
"M36/0698","OL750007","14-Oct 1975 00:00am","Free Carbon Dioxide","2.000","g/m3 at 25°;C"
"M36/0698","OL750007","14-Oct 1975 00:00am","Hardness, Total","39.000","g/m3 as CaCO3"
"M36/0698","OL750007","14-Oct 1975 00:00am","Iron, Dissolved","0.180","mg/L"
"M36/0698","OL750007","14-Oct 1975 00:00am","Magnesium, Dissolved","2.000","mg/L"
"M36/0698","OL750007","14-Oct 1975 00:00am","Manganese, Dissolved","<0.1000","mg/L"
"M36/0698","OL750007","14-Oct 1975 00:00am","Nitrate Nitrogen","1.500","mg/L"
"M36/0698","OL750007","14-Oct 1975 00:00am","Nitrite Nitrogen","<0.001","mg/L"
"M36/0698","OL750007","14-Oct 1975 00:00am","Permanganate Value","0.200","mg/L O"
"M36/0698","OL750007","14-Oct 1975 00:00am","pH","7.5",""
"M36/0698","OL750007","14-Oct 1975 00:00am","Potassium, Dissolved","0.800","mg/L"
"M36/0698","OL750007","14-Oct 1975 00:00am","Silica, Reactive","12.000","mg/L  as SiO2"
"M36/0698","OL750007","14-Oct 1975 00:00am","Sodium, Dissolved","5.700","mg/L"
"M36/0698","OL750007","14-Oct 1975 00:00am","Sulphate","4.000","mg/L"
"M36/0698","OL750007","14-Oct 1975 00:00am","Total Dissolved Solids","75.000","mg/L"