Site ID,M36/0870
Site Name,Tosswill No. 1
Site ID,SampleID,Collection Date,Measurement,Value,Units
"M36/0870","IS091106G","06-Nov 2009 00:00am","Argon","0.460","mL(STP)/kg"
"M36/0870","IS091106G","06-Nov 2009 00:00am","Argon, Standard uncertainty","0.010","mL(STP)/kg"
"M36/0870","IS091106G","06-Nov 2009 00:00am","CFC-11 95% confidence interval age range",">62.000","Year"
"M36/0870","IS091106G","06-Nov 2009 00:00am","CFC-11 age","76.000","Year"
"M36/0870","IS091106G","06-Nov 2009 00:00am","CFC-11 partial pressure","23.300","pptv"
"M36/0870","IS091106G","06-Nov 2009 00:00am","CFC-11 partial pressure Standard Uncertainty","12.500","pptv"
"M36/0870","IS091106G","06-Nov 2009 00:00am","CFC-11, Dissolved","0.500","pmol/kg"
"M36/0870","IS091106G","06-Nov 2009 00:00am","CFC-11, Dissolved Uncertainty","0.300","pmol/kg"
"M36/0870","IS091106G","06-Nov 2009 00:00am","CFC-12 95% confidence interval age range",">51.000","Year"
"M36/0870","IS091106G","06-Nov 2009 00:00am","CFC-12 age","68.000","Year"
"M36/0870","IS091106G","06-Nov 2009 00:00am","CFC-12 partial pressure","70.800","pptv"
"M36/0870","IS091106G","06-Nov 2009 00:00am","CFC-12 partial pressure Standard Uncertainty","42.300","pptv"
"M36/0870","IS091106G","06-Nov 2009 00:00am","CFC-12, Dissolved","0.400","pmol/kg"
"M36/0870","IS091106G","06-Nov 2009 00:00am","CFC-12, Dissolved Uncertainty","0.200","pmol/kg"
"M36/0870","IS091106G","06-Nov 2009 00:00am","Excess air","6.600","mL(STP)/kg"
"M36/0870","IS091106G","06-Nov 2009 00:00am","Excess air standard uncertainty","1.600","mL(STP)/kg"
"M36/0870","IS091106G","06-Nov 2009 00:00am","Exponential Mixed Flow","60.000","%"
"M36/0870","IS091106G","06-Nov 2009 00:00am","IGNS Sample Reference","*",""
"M36/0870","IS091106G","06-Nov 2009 00:00am","Nitrogen, Gas","20.160","mL(STP)/kg"
"M36/0870","IS091106G","06-Nov 2009 00:00am","Nitrogen, Gas standard uncertainty","0.630","mL(STP)/kg"
"M36/0870","IS091106G","06-Nov 2009 00:00am","Recharge temperature","8.700","°C"
"M36/0870","IS091106G","06-Nov 2009 00:00am","Recharge temperature standard uncertaint","2.300","°C"
"M36/0870","IS091106G","06-Nov 2009 00:00am","SF6 95% confidence interval age range","34.000","Year"
"M36/0870","IS091106G","06-Nov 2009 00:00am","SF6 age","40.000","Year"
"M36/0870","IS091106G","06-Nov 2009 00:00am","SF6 partial pressure","0.880"," pptv"
"M36/0870","IS091106G","06-Nov 2009 00:00am","SF6 partial pressure standard uncertainty","0.260"," pptv"
"M36/0870","IS091106G","06-Nov 2009 00:00am","SF6, Dissolved","0.635","fmol/kg"
"M36/0870","IS091106G","06-Nov 2009 00:00am","SF6, Dissolved Uncertainty","0.094","fmol/kg"
"M36/0870","IS091106G","06-Nov 2009 00:00am","Tritium 95% confidence interval age range",">120.000","Year"
"M36/0870","IS091106G","06-Nov 2009 00:00am","Tritium age","130.000","Year"
"M36/0870","IS091106G","06-Nov 2009 00:00am","Tritium concentration","0.024","TU"
"M36/0870","ISOTO4572","12-Feb 2001 00:05am","Oxygen 18","-9.140",""
"M36/0870","IS010212","12-Feb 2001 00:00am","CFC preferred recharge year","<1940.000","Year"
"M36/0870","IS010212","12-Feb 2001 00:00am","CFC-11 partial pressure","0.100","pptv"
"M36/0870","IS010212","12-Feb 2001 00:00am","CFC-11 partial pressure Standard Deviation","0.100","pptv"
"M36/0870","IS010212","12-Feb 2001 00:00am","CFC-11 recharge year","<1950.000","Year"
"M36/0870","IS010212","12-Feb 2001 00:00am","CFC-11, Dissolved","0.000","pmol/kg"
"M36/0870","IS010212","12-Feb 2001 00:00am","CFC-11, Dissolved Standard Deviation","0.000","pmol/kg"
"M36/0870","IS010212","12-Feb 2001 00:00am","CFC-12 partial pressure","0.000","pptv"
"M36/0870","IS010212","12-Feb 2001 00:00am","CFC-12 partial pressure Standard Deviation","0.000","pptv"
"M36/0870","IS010212","12-Feb 2001 00:00am","CFC-12 recharge year","<1940.000","Year"
"M36/0870","IS010212","12-Feb 2001 00:00am","CFC-12, Dissolved","0.000","pmol/kg"
"M36/0870","IS010212","12-Feb 2001 00:00am","CFC-12, Dissolved Standard Deviation","0.000","pmol/kg"
"M36/0870","IS010212","12-Feb 2001 00:00am","CFC-13, Dissolved Uncertainty","11.500","pmol/kg"
"M36/0870","IS010212","12-Feb 2001 00:00am","IGNS Sample Reference","*",""
"M36/0870","IS010212","12-Feb 2001 00:00am","Recharge elevation","0.000","m"
"M36/0870","IS010212","12-Feb 2001 00:00am","Recharge temperature","11.500","°C"
"M36/0870","IS010212","12-Feb 2001 00:00am","Recommended model age","0.000","Year"
"M36/0870","IS010212","12-Feb 2001 00:00am","Relative humidity","0.000","%"
"M36/0870","IS010212","12-Feb 2001 00:00am","Tritium age",">61.000","Year"
"M36/0870","CQ921134","17-Aug 1992 13:00pm","Absorbance at 270 nm","<0.010",""
"M36/0870","CQ921134","17-Aug 1992 13:00pm","Alkalinity to pH 4.5 as HCO3","54.000","mg/L  as HCO3"
"M36/0870","CQ921134","17-Aug 1992 13:00pm","Ammoniacal Nitrogen","<0.040","mg/L"
"M36/0870","CQ921134","17-Aug 1992 13:00pm","Bromide","<0.100","g/m3"
"M36/0870","CQ921134","17-Aug 1992 13:00pm","Calcium, Dissolved","14.000","mg/L"
"M36/0870","CQ921134","17-Aug 1992 13:00pm","Carbonate Alkalinity","0.000","mg/L CO3"
"M36/0870","CQ921134","17-Aug 1992 13:00pm","Chemical Oxygen Demand","<0.400","g O2/m3"
"M36/0870","CQ921134","17-Aug 1992 13:00pm","Chloride","5.700","mg/L"
"M36/0870","CQ921134","17-Aug 1992 13:00pm","Conductivity","11.1","mS/m"
"M36/0870","CQ921134","17-Aug 1992 13:00pm","Faecal Coliforms","0","cfu/100mL"
"M36/0870","CQ921134","17-Aug 1992 13:00pm","Fluoride","<0.200","g/m3"
"M36/0870","CQ921134","17-Aug 1992 13:00pm","Free Carbon Dioxide","1.000","g/m3 at 25°;C"
"M36/0870","CQ921134","17-Aug 1992 13:00pm","Lithium, Total","<0.010","mg/L"
"M36/0870","CQ921134","17-Aug 1992 13:00pm","Magnesium, Dissolved","1.300","mg/L"
"M36/0870","CQ921134","17-Aug 1992 13:00pm","Nitrate Nitrogen","0.400","mg/L"
"M36/0870","CQ921134","17-Aug 1992 13:00pm","Nitrite Nitrogen","<0.005","mg/L"
"M36/0870","CQ921134","17-Aug 1992 13:00pm","pH","7.9",""
"M36/0870","CQ921134","17-Aug 1992 13:00pm","Potassium, Dissolved","0.800","mg/L"
"M36/0870","CQ921134","17-Aug 1992 13:00pm","Sodium, Dissolved","6.900","mg/L"
"M36/0870","CQ921134","17-Aug 1992 13:00pm","Soluble Phosphate","<0.100","mg/L P"
"M36/0870","CQ921134","17-Aug 1992 13:00pm","Sulphate","3.400","mg/L"
"M36/0870","CQ921134","17-Aug 1992 13:00pm","Total Coliforms","0","number/100mL"
"M36/0870","CQ921134","17-Aug 1992 13:00pm","Total Nitrogen","0.500","g/m3"
"M36/0870","CQ921134","17-Aug 1992 13:00pm","Turbidity","<0.1","NTU"
"M36/0870","ISOTO3378","01-Sep 1987 00:05am","14C age","36800.000","Year"
"M36/0870","ISOTO3378","01-Sep 1987 00:05am","14C Age Error","*","Year"
"M36/0870","ISOTO3378","01-Sep 1987 00:05am","Material Type Sampled","*",""
"M36/0870","ISOTO3378","01-Sep 1987 00:05am","Sample Depth below GL","40.000",""
"M36/0870","ISOTO3374","01-Sep 1987 00:00am","14C age","27900.000","Year"
"M36/0870","ISOTO3374","01-Sep 1987 00:00am","14C Age Error","750.000","Year"
"M36/0870","ISOTO3374","01-Sep 1987 00:00am","IGNS Sample Reference","*",""
"M36/0870","ISOTO3374","01-Sep 1987 00:00am","Material Type Sampled","*",""
"M36/0870","ISOTO3374","01-Sep 1987 00:00am","Sample Depth below GL","37.000",""
"M36/0870","ISOTO3286","14-Aug 1985 00:25am","Oxygen 18","-9.140",""
"M36/0870","ISOTO3286","14-Aug 1985 00:25am","Oxygen 18 Error of Measurement","0.100","%"
"M36/0870","ISOTO3285","14-Aug 1985 00:20am","Tritium concentration","0.080","TU"
"M36/0870","ISOTO3285","14-Aug 1985 00:20am","Tritium standard uncertainty","0.080","TU"
"M36/0870","ISOTO3214","14-Aug 1985 00:15am","Tritium concentration","0.150","TU"
"M36/0870","ISOTO3214","14-Aug 1985 00:15am","Tritium standard uncertainty","0.080","TU"
"M36/0870","ISOTO3201","14-Aug 1985 00:10am","Tritium concentration","0.170","TU"
"M36/0870","ISOTO3201","14-Aug 1985 00:10am","Tritium standard uncertainty","0.080","TU"
"M36/0870","ISOTO3198","14-Aug 1985 00:05am","Tritium concentration","0.190","TU"
"M36/0870","ISOTO3198","14-Aug 1985 00:05am","Tritium standard uncertainty","0.080","TU"
"M36/0870","ISOTO3173","14-Aug 1985 00:00am","Tritium concentration","0.050","TU"
"M36/0870","ISOTO3173","14-Aug 1985 00:00am","Tritium standard uncertainty","0.080","TU"
"M36/0870","NCY851926","08-Aug 1985 00:00am","Alkalinity to pH 4.5 as HCO3","57.000","mg/L  as HCO3"
"M36/0870","NCY851926","08-Aug 1985 00:00am","Ammoniacal Nitrogen","0.000","mg/L"
"M36/0870","NCY851926","08-Aug 1985 00:00am","Bromide","0.000","g/m3"
"M36/0870","NCY851926","08-Aug 1985 00:00am","Calcium, Dissolved","14.000","mg/L"
"M36/0870","NCY851926","08-Aug 1985 00:00am","Carbonate Alkalinity","0.000","mg/L CO3"
"M36/0870","NCY851926","08-Aug 1985 00:00am","Chloride","5.200","mg/L"
"M36/0870","NCY851926","08-Aug 1985 00:00am","Conductivity","11.2","mS/m"
"M36/0870","NCY851926","08-Aug 1985 00:00am","Free Carbon Dioxide","3.000","g/m3 at 25°;C"
"M36/0870","NCY851926","08-Aug 1985 00:00am","Hardness, Total","40.000","g/m3 as CaCO3"
"M36/0870","NCY851926","08-Aug 1985 00:00am","Iron, Dissolved","0.140","mg/L"
"M36/0870","NCY851926","08-Aug 1985 00:00am","Magnesium, Dissolved","1.300","mg/L"
"M36/0870","NCY851926","08-Aug 1985 00:00am","Manganese, Dissolved","0.0000","mg/L"
"M36/0870","NCY851926","08-Aug 1985 00:00am","Nitrate Nitrogen","0.400","mg/L"
"M36/0870","NCY851926","08-Aug 1985 00:00am","pH","7.6",""
"M36/0870","NCY851926","08-Aug 1985 00:00am","Potassium, Dissolved","0.000","mg/L"
"M36/0870","NCY851926","08-Aug 1985 00:00am","Silica, Reactive","25.000","mg/L  as SiO2"
"M36/0870","NCY851926","08-Aug 1985 00:00am","Sodium, Dissolved","6.800","mg/L"
"M36/0870","NCY851926","08-Aug 1985 00:00am","Sulphate","3.500","mg/L"
"M36/0870","NCY851926","08-Aug 1985 00:00am","Total Phosphorus","0.000","g/m3"
"M36/0870","NCY820567","07-Jul 1982 00:00am","Chloride","5.900","mg/L"
"M36/0870","NCY820567","07-Jul 1982 00:00am","Conductivity","9.0","mS/m"
"M36/0870","NCY820567","07-Jul 1982 00:00am","Faecal Coliforms","0","cfu/100mL"
"M36/0870","NCY820567","07-Jul 1982 00:00am","Free Carbon Dioxide","1.000","g/m3 at 25°;C"
"M36/0870","NCY820567","07-Jul 1982 00:00am","Iron, Dissolved","0.000","mg/L"
"M36/0870","NCY820567","07-Jul 1982 00:00am","Manganese, Dissolved","0.0000","mg/L"
"M36/0870","NCY820567","07-Jul 1982 00:00am","Nitrate Nitrogen","0.400","mg/L"
"M36/0870","NCY820567","07-Jul 1982 00:00am","pH","7.8",""
"M36/0870","NCY820567","07-Jul 1982 00:00am","Sulphate","5.100","mg/L"
"M36/0870","NCY820567","07-Jul 1982 00:00am","Total Coliforms","0","number/100mL"
"M36/0870","NCY820567","07-Jul 1982 00:00am","Water Temperature (Field)","6.00","C"
"M36/0870","NCY780630","08-May 1978 00:00am","Alkalinity to pH 4.5 as HCO3","54.000","mg/L  as HCO3"
"M36/0870","NCY780630","08-May 1978 00:00am","Ammoniacal Nitrogen","0.001","mg/L"
"M36/0870","NCY780630","08-May 1978 00:00am","Calcium, Dissolved","14.500","mg/L"
"M36/0870","NCY780630","08-May 1978 00:00am","Chloride","3.000","mg/L"
"M36/0870","NCY780630","08-May 1978 00:00am","Conductivity","11.3","mS/m"
"M36/0870","NCY780630","08-May 1978 00:00am","Free Carbon Dioxide","2.000","g/m3 at 25°;C"
"M36/0870","NCY780630","08-May 1978 00:00am","Iron, Dissolved","0.200","mg/L"
"M36/0870","NCY780630","08-May 1978 00:00am","Magnesium, Dissolved","2.900","mg/L"
"M36/0870","NCY780630","08-May 1978 00:00am","Nitrate Nitrogen","0.400","mg/L"
"M36/0870","NCY780630","08-May 1978 00:00am","pH","7.9",""
"M36/0870","NCY780630","08-May 1978 00:00am","Potassium, Dissolved","0.740","mg/L"
"M36/0870","NCY780630","08-May 1978 00:00am","Sodium, Dissolved","6.700","mg/L"
"M36/0870","NCY780630","08-May 1978 00:00am","Sulphate","6.000","mg/L"