Site ID,M36/8178
Site Name,Sprinston Bore 2
Site ID,SampleID,Collection Date,Measurement,Value,Units
"M36/8178","IS100826B","26-Aug 2010 00:00am","Argon","0.479","mL(STP)/kg"
"M36/8178","IS100826B","26-Aug 2010 00:00am","Argon, Standard uncertainty","0.010","mL(STP)/kg"
"M36/8178","IS100826B","26-Aug 2010 00:00am","CFC-11 95% confidence interval age range","49.000","Year"
"M36/8178","IS100826B","26-Aug 2010 00:00am","CFC-11 age","56.000","Year"
"M36/8178","IS100826B","26-Aug 2010 00:00am","CFC-11 partial pressure","65.400","pptv"
"M36/8178","IS100826B","26-Aug 2010 00:00am","CFC-11 partial pressure Standard Uncertainty","10.900","pptv"
"M36/8178","IS100826B","26-Aug 2010 00:00am","CFC-11, Dissolved","1.500","pmol/kg"
"M36/8178","IS100826B","26-Aug 2010 00:00am","CFC-11, Dissolved Uncertainty","0.200","pmol/kg"
"M36/8178","IS100826B","26-Aug 2010 00:00am","CFC-12 95% confidence interval age range","54.000","Year"
"M36/8178","IS100826B","26-Aug 2010 00:00am","CFC-12 age","62.000","Year"
"M36/8178","IS100826B","26-Aug 2010 00:00am","CFC-12 partial pressure","102.500","pptv"
"M36/8178","IS100826B","26-Aug 2010 00:00am","CFC-12 partial pressure Standard Uncertainty","19.700","pptv"
"M36/8178","IS100826B","26-Aug 2010 00:00am","CFC-12, Dissolved","0.600","pmol/kg"
"M36/8178","IS100826B","26-Aug 2010 00:00am","CFC-12, Dissolved Uncertainty","0.100","pmol/kg"
"M36/8178","IS100826B","26-Aug 2010 00:00am","Excess air","8.100","mL(STP)/kg"
"M36/8178","IS100826B","26-Aug 2010 00:00am","Excess air standard uncertainty","1.700","mL(STP)/kg"
"M36/8178","IS100826B","26-Aug 2010 00:00am","Exponential Mixed Flow","60.000","%"
"M36/8178","IS100826B","26-Aug 2010 00:00am","IGNS Sample Reference","*",""
"M36/8178","IS100826B","26-Aug 2010 00:00am","Nitrogen, Gas","21.520","mL(STP)/kg"
"M36/8178","IS100826B","26-Aug 2010 00:00am","Nitrogen, Gas standard uncertainty","0.650","mL(STP)/kg"
"M36/8178","IS100826B","26-Aug 2010 00:00am","Recharge temperature","8.100","째C"
"M36/8178","IS100826B","26-Aug 2010 00:00am","Recharge temperature standard uncertaint","2.300","째C"
"M36/8178","IS100826B","26-Aug 2010 00:00am","SF6 95% confidence interval age range","54.000","Year"
"M36/8178","IS100826B","26-Aug 2010 00:00am","SF6 age","62.000","Year"
"M36/8178","IS100826B","26-Aug 2010 00:00am","SF6 partial pressure","0.280"," pptv"
"M36/8178","IS100826B","26-Aug 2010 00:00am","SF6 partial pressure standard uncertainty","0.150"," pptv"
"M36/8178","IS100826B","26-Aug 2010 00:00am","SF6, Dissolved","0.228","fmol/kg"
"M36/8178","IS100826B","26-Aug 2010 00:00am","SF6, Dissolved Uncertainty","0.063","fmol/kg"
"M36/8178","IS100826B","26-Aug 2010 00:00am","Tritium 95% confidence interval age range",">119.000","Year"
"M36/8178","IS100826B","26-Aug 2010 00:00am","Tritium age","134.000","Year"
"M36/8178","IS100826B","26-Aug 2010 00:00am","Tritium concentration","0.015","TU"
"M36/8178","IS080408","08-Apr 2008 00:00am","Argon","0.574","mL(STP)/kg"
"M36/8178","IS080408","08-Apr 2008 00:00am","Argon, Standard uncertainty","0.037","mL(STP)/kg"
"M36/8178","IS080408","08-Apr 2008 00:00am","CFC-11 age",">95.000","Year"
"M36/8178","IS080408","08-Apr 2008 00:00am","CFC-11 partial pressure","7.200","pptv"
"M36/8178","IS080408","08-Apr 2008 00:00am","CFC-11 partial pressure Standard Uncertainty","4.700","pptv"
"M36/8178","IS080408","08-Apr 2008 00:00am","CFC-11, Dissolved","0.200","pmol/kg"
"M36/8178","IS080408","08-Apr 2008 00:00am","CFC-11, Dissolved Uncertainty","0.000","pmol/kg"
"M36/8178","IS080408","08-Apr 2008 00:00am","CFC-12 age",">80.000","Year"
"M36/8178","IS080408","08-Apr 2008 00:00am","CFC-12 partial pressure","24.600","pptv"
"M36/8178","IS080408","08-Apr 2008 00:00am","CFC-12 partial pressure Standard Uncertainty","19.200","pptv"
"M36/8178","IS080408","08-Apr 2008 00:00am","CFC-12, Dissolved","0.200","pmol/kg"
"M36/8178","IS080408","08-Apr 2008 00:00am","CFC-12, Dissolved Uncertainty","0.100","pmol/kg"
"M36/8178","IS080408","08-Apr 2008 00:00am","Excess air","16.400","mL(STP)/kg"
"M36/8178","IS080408","08-Apr 2008 00:00am","Excess air standard uncertainty","8.300","mL(STP)/kg"
"M36/8178","IS080408","08-Apr 2008 00:00am","Exponential Mixed Flow","70.000","%"
"M36/8178","IS080408","08-Apr 2008 00:00am","IGNS Sample Reference","*",""
"M36/8178","IS080408","08-Apr 2008 00:00am","Nitrogen, Gas","28.600","mL(STP)/kg"
"M36/8178","IS080408","08-Apr 2008 00:00am","Nitrogen, Gas standard uncertainty","3.000","mL(STP)/kg"
"M36/8178","IS080408","08-Apr 2008 00:00am","Recharge temperature","6.300","째C"
"M36/8178","IS080408","08-Apr 2008 00:00am","Recharge temperature standard uncertaint","10.600","째C"
"M36/8178","IS080408","08-Apr 2008 00:00am","SF6 age",">74.000","Year"
"M36/8178","IS080408","08-Apr 2008 00:00am","SF6 partial pressure","0.090"," pptv"
"M36/8178","IS080408","08-Apr 2008 00:00am","SF6 partial pressure standard uncertainty","0.070"," pptv"
"M36/8178","IS080408","08-Apr 2008 00:00am","SF6, Dissolved","0.106","fmol/kg"
"M36/8178","IS080408","08-Apr 2008 00:00am","SF6, Dissolved Uncertainty","0.020","fmol/kg"
"M36/8178","IS080408","08-Apr 2008 00:00am","Tritium age",">148.000","Year"
"M36/8178","IS080408","08-Apr 2008 00:00am","Tritium concentration","0.023","TU"