Site ID,N32/0108
Site Name,N32/0108
Site ID,SampleID,Collection Date,Measurement,Value,Units
"N32/0108","20204961","17-Sep 2020 10:00am","Alkalinity, Total","48.0","g/m3 as CaCO3"
"N32/0108","20204961","17-Sep 2020 10:00am","Ammoniacal Nitrogen","<0.010","mg/L"
"N32/0108","20204961","17-Sep 2020 10:00am","Bicarbonate","58.000","mg/L  at 25°C"
"N32/0108","20204961","17-Sep 2020 10:00am","Bromide","<0.050","g/m3"
"N32/0108","20204961","17-Sep 2020 10:00am","Calcium, Dissolved","17.100","mg/L"
"N32/0108","20204961","17-Sep 2020 10:00am","Chloride","3.600","mg/L"
"N32/0108","20204961","17-Sep 2020 10:00am","Conductivity","13.3","mS/m"
"N32/0108","20204961","17-Sep 2020 10:00am","Conductivity (Field)","13.80","mS/m"
"N32/0108","20204961","17-Sep 2020 10:00am","Difference in Ion Balance","0.630","%"
"N32/0108","20204961","17-Sep 2020 10:00am","Dissolved Oxygen","10.260","mg/L"
"N32/0108","20204961","17-Sep 2020 10:00am","Dissolved Oxygen Saturation","103.300","%"
"N32/0108","20204961","17-Sep 2020 10:00am","Dissolved Reactive Phosphorus","0.0062","mg/L"
"N32/0108","20204961","17-Sep 2020 10:00am","E. coli","<1","MPN/100mL"
"N32/0108","20204961","17-Sep 2020 10:00am","Fluoride","0.070","g/m3"
"N32/0108","20204961","17-Sep 2020 10:00am","Hardness, Total","52.000","g/m3 as CaCO3"
"N32/0108","20204961","17-Sep 2020 10:00am","Iron, Dissolved","<0.020","mg/L"
"N32/0108","20204961","17-Sep 2020 10:00am","Magnesium, Dissolved","2.100","mg/L"
"N32/0108","20204961","17-Sep 2020 10:00am","Manganese, Dissolved","0.0009","mg/L"
"N32/0108","20204961","17-Sep 2020 10:00am","Nitrate Nitrogen","0.430","mg/L"
"N32/0108","20204961","17-Sep 2020 10:00am","Nitrate-N Nitrite-N","0.430","g/m3"
"N32/0108","20204961","17-Sep 2020 10:00am","Nitrite Nitrogen","<0.002","mg/L"
"N32/0108","20204961","17-Sep 2020 10:00am","pH","7.8",""
"N32/0108","20204961","17-Sep 2020 10:00am","pH (Field)","7.13",""
"N32/0108","20204961","17-Sep 2020 10:00am","Potassium, Dissolved","0.910","mg/L"
"N32/0108","20204961","17-Sep 2020 10:00am","Silica, Reactive","8.500","mg/L  as SiO2"
"N32/0108","20204961","17-Sep 2020 10:00am","Sodium, Dissolved","5.700","mg/L"
"N32/0108","20204961","17-Sep 2020 10:00am","Sulphate","10.800","mg/L"
"N32/0108","20204961","17-Sep 2020 10:00am","Sum of anions","1.320","meq/L"
"N32/0108","20204961","17-Sep 2020 10:00am","Sum of cations","1.300","meq/L"
"N32/0108","20204961","17-Sep 2020 10:00am","Total Coliforms","<1.00","number/100mL"
"N32/0108","20204961","17-Sep 2020 10:00am","Water Temperature (Field)","13.1","C"
"N32/0108","20195333","03-Sep 2019 10:35am","Alkalinity, Total","44.0","g/m3 as CaCO3"
"N32/0108","20195333","03-Sep 2019 10:35am","Ammoniacal Nitrogen","<0.010","mg/L"
"N32/0108","20195333","03-Sep 2019 10:35am","Bicarbonate","53.000","mg/L  at 25°C"
"N32/0108","20195333","03-Sep 2019 10:35am","Boron, Dissolved","0.044","mg/L"
"N32/0108","20195333","03-Sep 2019 10:35am","Bromide","0.011","g/m3"
"N32/0108","20195333","03-Sep 2019 10:35am","Calcium, Dissolved","15.500","mg/L"
"N32/0108","20195333","03-Sep 2019 10:35am","Chloride","3.400","mg/L"
"N32/0108","20195333","03-Sep 2019 10:35am","Conductivity","12.5","mS/m"
"N32/0108","20195333","03-Sep 2019 10:35am","Conductivity (Field)","11.04","mS/m"
"N32/0108","20195333","03-Sep 2019 10:35am","Copper, Dissolved","0.0006","mg/L"
"N32/0108","20195333","03-Sep 2019 10:35am","Difference in Ion Balance","0.660","%"
"N32/0108","20195333","03-Sep 2019 10:35am","Dissolved Oxygen","8.870","mg/L"
"N32/0108","20195333","03-Sep 2019 10:35am","Dissolved Oxygen Saturation","85.800","%"
"N32/0108","20195333","03-Sep 2019 10:35am","Dissolved Reactive Phosphorus","0.0060","mg/L"
"N32/0108","20195333","03-Sep 2019 10:35am","E. coli","<1","MPN/100mL"
"N32/0108","20195333","03-Sep 2019 10:35am","Hardness, Total","47.000","g/m3 as CaCO3"
"N32/0108","20195333","03-Sep 2019 10:35am","Iron, Dissolved","<0.020","mg/L"
"N32/0108","20195333","03-Sep 2019 10:35am","Magnesium, Dissolved","1.950","mg/L"
"N32/0108","20195333","03-Sep 2019 10:35am","Manganese, Dissolved","<0.0005","mg/L"
"N32/0108","20195333","03-Sep 2019 10:35am","Nitrate Nitrogen","0.320","mg/L"
"N32/0108","20195333","03-Sep 2019 10:35am","Oxidation Reduction Potential","147.800","mV"
"N32/0108","20195333","03-Sep 2019 10:35am","pH","7.3",""
"N32/0108","20195333","03-Sep 2019 10:35am","pH (Field)","7.07",""
"N32/0108","20195333","03-Sep 2019 10:35am","Potassium, Dissolved","0.860","mg/L"
"N32/0108","20195333","03-Sep 2019 10:35am","Silica, Reactive","8.200","mg/L  as SiO2"
"N32/0108","20195333","03-Sep 2019 10:35am","Sodium, Dissolved","5.400","mg/L"
"N32/0108","20195333","03-Sep 2019 10:35am","Sulphate","10.100","mg/L"
"N32/0108","20195333","03-Sep 2019 10:35am","Sum of anions","1.210","meq/L"
"N32/0108","20195333","03-Sep 2019 10:35am","Sum of cations","1.190","meq/L"
"N32/0108","20195333","03-Sep 2019 10:35am","Total Coliforms","<1.00","number/100mL"
"N32/0108","20195333","03-Sep 2019 10:35am","Water Temperature (Field)","14.0","C"
"N32/0108","20195333","03-Sep 2019 10:35am","Zinc, Dissolved","0.003","mg/L"
"N32/0108","20184921","11-Sep 2018 10:30am","Alkalinity, Total","45.0","g/m3 as CaCO3"
"N32/0108","20184921","11-Sep 2018 10:30am","Ammoniacal Nitrogen","<0.010","mg/L"
"N32/0108","20184921","11-Sep 2018 10:30am","Bicarbonate","54.000","mg/L  at 25°C"
"N32/0108","20184921","11-Sep 2018 10:30am","Boron, Dissolved","0.040","mg/L"
"N32/0108","20184921","11-Sep 2018 10:30am","Bromide","0.021","g/m3"
"N32/0108","20184921","11-Sep 2018 10:30am","Calcium, Dissolved","15.900","mg/L"
"N32/0108","20184921","11-Sep 2018 10:30am","Chloride","3.500","mg/L"
"N32/0108","20184921","11-Sep 2018 10:30am","Conductivity","12.4","mS/m"
"N32/0108","20184921","11-Sep 2018 10:30am","Conductivity (Field)","12.55","mS/m"
"N32/0108","20184921","11-Sep 2018 10:30am","Difference in Ion Balance","0.530","%"
"N32/0108","20184921","11-Sep 2018 10:30am","Dissolved Oxygen","9.430","mg/L"
"N32/0108","20184921","11-Sep 2018 10:30am","Dissolved Oxygen Saturation","91.900","%"
"N32/0108","20184921","11-Sep 2018 10:30am","Dissolved Reactive Phosphorus","0.0040","mg/L"
"N32/0108","20184921","11-Sep 2018 10:30am","E. coli","<1","MPN/100mL"
"N32/0108","20184921","11-Sep 2018 10:30am","Hardness, Total","48.000","g/m3 as CaCO3"
"N32/0108","20184921","11-Sep 2018 10:30am","Iron, Dissolved","<0.020","mg/L"
"N32/0108","20184921","11-Sep 2018 10:30am","Magnesium, Dissolved","1.970","mg/L"
"N32/0108","20184921","11-Sep 2018 10:30am","Manganese, Dissolved","<0.0005","mg/L"
"N32/0108","20184921","11-Sep 2018 10:30am","Nitrate Nitrogen","0.290","mg/L"
"N32/0108","20184921","11-Sep 2018 10:30am","Oxidation Reduction Potential","195.800","mV"
"N32/0108","20184921","11-Sep 2018 10:30am","pH","7.3",""
"N32/0108","20184921","11-Sep 2018 10:30am","pH (Field)","6.93",""
"N32/0108","20184921","11-Sep 2018 10:30am","Potassium, Dissolved","0.890","mg/L"
"N32/0108","20184921","11-Sep 2018 10:30am","Silica, Reactive","8.400","mg/L  as SiO2"
"N32/0108","20184921","11-Sep 2018 10:30am","Sodium, Dissolved","5.500","mg/L"
"N32/0108","20184921","11-Sep 2018 10:30am","Sulphate","10.400","mg/L"
"N32/0108","20184921","11-Sep 2018 10:30am","Sum of anions","1.230","meq/L"
"N32/0108","20184921","11-Sep 2018 10:30am","Sum of cations","1.220","meq/L"
"N32/0108","20184921","11-Sep 2018 10:30am","Total Coliforms","<1.00","number/100mL"
"N32/0108","20184921","11-Sep 2018 10:30am","Water Temperature (Field)","14.2","C"
"N32/0108","184585401","19-Sep 2017 09:45am","Alkalinity, Total","45.0","g/m3 as CaCO3"
"N32/0108","184585401","19-Sep 2017 09:45am","Ammoniacal Nitrogen","<0.010","mg/L"
"N32/0108","184585401","19-Sep 2017 09:45am","Bicarbonate","55.000","mg/L  at 25°C"
"N32/0108","184585401","19-Sep 2017 09:45am","Boron, Dissolved","0.041","mg/L"
"N32/0108","184585401","19-Sep 2017 09:45am","Bromide","0.050","g/m3"
"N32/0108","184585401","19-Sep 2017 09:45am","Calcium, Dissolved","15.700","mg/L"
"N32/0108","184585401","19-Sep 2017 09:45am","Chloride","2.800","mg/L"
"N32/0108","184585401","19-Sep 2017 09:45am","Conductivity","11.8","mS/m"
"N32/0108","184585401","19-Sep 2017 09:45am","Conductivity (Field)","12.11","mS/m"
"N32/0108","184585401","19-Sep 2017 09:45am","Difference in Ion Balance","<0.100","%"
"N32/0108","184585401","19-Sep 2017 09:45am","Dissolved Oxygen","8.920","mg/L"
"N32/0108","184585401","19-Sep 2017 09:45am","Dissolved Oxygen Saturation","84.800","%"
"N32/0108","184585401","19-Sep 2017 09:45am","Dissolved Reactive Phosphorus","0.1000","mg/L"
"N32/0108","184585401","19-Sep 2017 09:45am","E. coli","3","MPN/100mL"
"N32/0108","184585401","19-Sep 2017 09:45am","Hardness, Total","47.000","g/m3 as CaCO3"
"N32/0108","184585401","19-Sep 2017 09:45am","Iron, Dissolved","<0.020","mg/L"
"N32/0108","184585401","19-Sep 2017 09:45am","Magnesium, Dissolved","1.940","mg/L"
"N32/0108","184585401","19-Sep 2017 09:45am","Manganese, Dissolved","<0.0005","mg/L"
"N32/0108","184585401","19-Sep 2017 09:45am","Nitrate Nitrogen","0.440","mg/L"
"N32/0108","184585401","19-Sep 2017 09:45am","Oxidation Reduction Potential","157.000","mV"
"N32/0108","184585401","19-Sep 2017 09:45am","pH","7.5",""
"N32/0108","184585401","19-Sep 2017 09:45am","pH (Field)","7.30",""
"N32/0108","184585401","19-Sep 2017 09:45am","Potassium, Dissolved","1.150","mg/L"
"N32/0108","184585401","19-Sep 2017 09:45am","Silica, Reactive","8.400","mg/L  as SiO2"
"N32/0108","184585401","19-Sep 2017 09:45am","Sodium, Dissolved","5.100","mg/L"
"N32/0108","184585401","19-Sep 2017 09:45am","Sulphate","8.500","mg/L"
"N32/0108","184585401","19-Sep 2017 09:45am","Sum of anions","1.200","meq/L"
"N32/0108","184585401","19-Sep 2017 09:45am","Sum of cations","1.200","meq/L"
"N32/0108","184585401","19-Sep 2017 09:45am","Total Coliforms","4.00","number/100mL"
"N32/0108","184585401","19-Sep 2017 09:45am","Water Temperature (Field)","13.0","C"
"N32/0108","164379901","06-Sep 2016 09:30am","Alkalinity, Total","38.0","g/m3 as CaCO3"
"N32/0108","164379901","06-Sep 2016 09:30am","Ammoniacal Nitrogen","<0.010","mg/L"
"N32/0108","164379901","06-Sep 2016 09:30am","Bicarbonate","46.000","mg/L  at 25°C"
"N32/0108","164379901","06-Sep 2016 09:30am","Calcium, Dissolved","12.000","mg/L"
"N32/0108","164379901","06-Sep 2016 09:30am","Chloride","1.700","mg/L"
"N32/0108","164379901","06-Sep 2016 09:30am","Conductivity","8.7","mS/m"
"N32/0108","164379901","06-Sep 2016 09:30am","Conductivity (Field)","6.27","mS/m"
"N32/0108","164379901","06-Sep 2016 09:30am","Difference in Ion Balance","1.310","%"
"N32/0108","164379901","06-Sep 2016 09:30am","Dissolved Oxygen","9.300","mg/L"
"N32/0108","164379901","06-Sep 2016 09:30am","Dissolved Oxygen Saturation","91.100","%"
"N32/0108","164379901","06-Sep 2016 09:30am","Dissolved Reactive Phosphorus","0.0059","mg/L"
"N32/0108","164379901","06-Sep 2016 09:30am","E. coli","<1","MPN/100mL"
"N32/0108","164379901","06-Sep 2016 09:30am","Hardness, Total","36.000","g/m3 as CaCO3"
"N32/0108","164379901","06-Sep 2016 09:30am","Iron, Dissolved","<0.020","mg/L"
"N32/0108","164379901","06-Sep 2016 09:30am","Magnesium, Dissolved","1.420","mg/L"
"N32/0108","164379901","06-Sep 2016 09:30am","Manganese, Dissolved","<0.0005","mg/L"
"N32/0108","164379901","06-Sep 2016 09:30am","Nitrate Nitrogen","0.210","mg/L"
"N32/0108","164379901","06-Sep 2016 09:30am","Oxidation Reduction Potential","130.000","mV"
"N32/0108","164379901","06-Sep 2016 09:30am","pH","7.4",""
"N32/0108","164379901","06-Sep 2016 09:30am","pH (Field)","7.48",""
"N32/0108","164379901","06-Sep 2016 09:30am","Potassium, Dissolved","0.800","mg/L"
"N32/0108","164379901","06-Sep 2016 09:30am","Silica, Reactive","8.700","mg/L  as SiO2"
"N32/0108","164379901","06-Sep 2016 09:30am","Sodium, Dissolved","3.800","mg/L"
"N32/0108","164379901","06-Sep 2016 09:30am","Sulphate","5.200","mg/L"
"N32/0108","164379901","06-Sep 2016 09:30am","Sum of anions","0.920","meq/L"
"N32/0108","164379901","06-Sep 2016 09:30am","Sum of cations","0.900","meq/L"
"N32/0108","164379901","06-Sep 2016 09:30am","Total Coliforms","1.00","number/100mL"
"N32/0108","164379901","06-Sep 2016 09:30am","Water Temperature (Field)","14.4","C"
"N32/0108","147364101","09-Sep 2015 10:15am","Alkalinity, Total","33.0","g/m3 as CaCO3"
"N32/0108","147364101","09-Sep 2015 10:15am","Ammoniacal Nitrogen","<0.010","mg/L"
"N32/0108","147364101","09-Sep 2015 10:15am","Bicarbonate","40.000","mg/L  at 25°C"
"N32/0108","147364101","09-Sep 2015 10:15am","Calcium, Dissolved","11.700","mg/L"
"N32/0108","147364101","09-Sep 2015 10:15am","Chloride","1.400","mg/L"
"N32/0108","147364101","09-Sep 2015 10:15am","Conductivity","8.8","mS/m"
"N32/0108","147364101","09-Sep 2015 10:15am","Conductivity (Field)","8.60","mS/m"
"N32/0108","147364101","09-Sep 2015 10:15am","Difference in Ion Balance","16.700","%"
"N32/0108","147364101","09-Sep 2015 10:15am","Dissolved Oxygen","9.240","mg/L"
"N32/0108","147364101","09-Sep 2015 10:15am","Dissolved Oxygen Saturation","90.000","%"
"N32/0108","147364101","09-Sep 2015 10:15am","Dissolved Reactive Phosphorus","0.0069","mg/L"
"N32/0108","147364101","09-Sep 2015 10:15am","E. coli","<1","MPN/100mL"
"N32/0108","147364101","09-Sep 2015 10:15am","Hardness, Total","36.000","g/m3 as CaCO3"
"N32/0108","147364101","09-Sep 2015 10:15am","Iron, Dissolved","<0.020","mg/L"
"N32/0108","147364101","09-Sep 2015 10:15am","Magnesium, Dissolved","1.560","mg/L"
"N32/0108","147364101","09-Sep 2015 10:15am","Manganese, Dissolved","<0.0005","mg/L"
"N32/0108","147364101","09-Sep 2015 10:15am","Nitrate Nitrogen","6.500","mg/L"
"N32/0108","147364101","09-Sep 2015 10:15am","pH","7.3",""
"N32/0108","147364101","09-Sep 2015 10:15am","pH (Field)","7.39",""
"N32/0108","147364101","09-Sep 2015 10:15am","Potassium, Dissolved","0.830","mg/L"
"N32/0108","147364101","09-Sep 2015 10:15am","Silica, Reactive","8.500","mg/L  as SiO2"
"N32/0108","147364101","09-Sep 2015 10:15am","Sodium, Dissolved","4.000","mg/L"
"N32/0108","147364101","09-Sep 2015 10:15am","Sulphate","5.200","mg/L"
"N32/0108","147364101","09-Sep 2015 10:15am","Sum of anions","1.270","meq/L"
"N32/0108","147364101","09-Sep 2015 10:15am","Sum of cations","0.910","meq/L"
"N32/0108","147364101","09-Sep 2015 10:15am","Total Coliforms","<1.00","number/100mL"
"N32/0108","147364101","09-Sep 2015 10:15am","Water Temperature (Field)","14.1","C"
"N32/0108","132073201","03-Sep 2014 10:00am","Alkalinity, Total","44.0","g/m3 as CaCO3"
"N32/0108","132073201","03-Sep 2014 10:00am","Ammoniacal Nitrogen","<0.010","mg/L"
"N32/0108","132073201","03-Sep 2014 10:00am","Bicarbonate","53.000","mg/L  at 25°C"
"N32/0108","132073201","03-Sep 2014 10:00am","Calcium, Dissolved","15.100","mg/L"
"N32/0108","132073201","03-Sep 2014 10:00am","Chloride","2.500","mg/L"
"N32/0108","132073201","03-Sep 2014 10:00am","Conductivity","11.3","mS/m"
"N32/0108","132073201","03-Sep 2014 10:00am","Conductivity (Field)","11.10","mS/m"
"N32/0108","132073201","03-Sep 2014 10:00am","Difference in Ion Balance","0.360","%"
"N32/0108","132073201","03-Sep 2014 10:00am","Dissolved Oxygen","8.700","mg/L"
"N32/0108","132073201","03-Sep 2014 10:00am","Dissolved Oxygen Saturation","83.000","%"
"N32/0108","132073201","03-Sep 2014 10:00am","Dissolved Reactive Phosphorus","0.0047","mg/L"
"N32/0108","132073201","03-Sep 2014 10:00am","E. coli","<1","MPN/100mL"
"N32/0108","132073201","03-Sep 2014 10:00am","Hardness, Total","45.000","g/m3 as CaCO3"
"N32/0108","132073201","03-Sep 2014 10:00am","Iron, Dissolved","<0.020","mg/L"
"N32/0108","132073201","03-Sep 2014 10:00am","Magnesium, Dissolved","1.860","mg/L"
"N32/0108","132073201","03-Sep 2014 10:00am","Manganese, Dissolved","<0.0005","mg/L"
"N32/0108","132073201","03-Sep 2014 10:00am","Nitrate Nitrogen","0.280","mg/L"
"N32/0108","132073201","03-Sep 2014 10:00am","pH","7.5",""
"N32/0108","132073201","03-Sep 2014 10:00am","pH (Field)","7.50",""
"N32/0108","132073201","03-Sep 2014 10:00am","Potassium, Dissolved","0.830","mg/L"
"N32/0108","132073201","03-Sep 2014 10:00am","Silica, Reactive","8.000","mg/L  as SiO2"
"N32/0108","132073201","03-Sep 2014 10:00am","Sodium, Dissolved","4.800","mg/L"
"N32/0108","132073201","03-Sep 2014 10:00am","Sulphate","8.500","mg/L"
"N32/0108","132073201","03-Sep 2014 10:00am","Sum of anions","1.150","meq/L"
"N32/0108","132073201","03-Sep 2014 10:00am","Sum of cations","1.140","meq/L"
"N32/0108","132073201","03-Sep 2014 10:00am","Total Coliforms","<1.00","number/100mL"
"N32/0108","132073201","03-Sep 2014 10:00am","Total Dissolved Phosphorus","0.007","mg/L"
"N32/0108","132073201","03-Sep 2014 10:00am","Total Dissolved Phosphorus Digestion","*",""
"N32/0108","132073201","03-Sep 2014 10:00am","Water Temperature (Field)","13.2","C"
"N32/0108","132073202","03-Sep 2014 00:00am","Alkalinity, Total","42.0","g/m3 as CaCO3"
"N32/0108","132073202","03-Sep 2014 00:00am","Ammoniacal Nitrogen","<0.010","mg/L"
"N32/0108","132073202","03-Sep 2014 00:00am","Bicarbonate","51.000","mg/L  at 25°C"
"N32/0108","132073202","03-Sep 2014 00:00am","Calcium, Dissolved","15.500","mg/L"
"N32/0108","132073202","03-Sep 2014 00:00am","Chloride","2.400","mg/L"
"N32/0108","132073202","03-Sep 2014 00:00am","Conductivity","11.3","mS/m"
"N32/0108","132073202","03-Sep 2014 00:00am","Conductivity (Field)","11.10","mS/m"
"N32/0108","132073202","03-Sep 2014 00:00am","Difference in Ion Balance","2.600","%"
"N32/0108","132073202","03-Sep 2014 00:00am","Dissolved Oxygen","8.700","mg/L"
"N32/0108","132073202","03-Sep 2014 00:00am","Dissolved Oxygen Saturation","83.000","%"
"N32/0108","132073202","03-Sep 2014 00:00am","Dissolved Reactive Phosphorus","0.0053","mg/L"
"N32/0108","132073202","03-Sep 2014 00:00am","E. coli","<1","MPN/100mL"
"N32/0108","132073202","03-Sep 2014 00:00am","Hardness, Total","46.000","g/m3 as CaCO3"
"N32/0108","132073202","03-Sep 2014 00:00am","Iron, Dissolved","<0.020","mg/L"
"N32/0108","132073202","03-Sep 2014 00:00am","Magnesium, Dissolved","1.860","mg/L"
"N32/0108","132073202","03-Sep 2014 00:00am","Manganese, Dissolved","<0.0005","mg/L"
"N32/0108","132073202","03-Sep 2014 00:00am","Nitrate Nitrogen","0.290","mg/L"
"N32/0108","132073202","03-Sep 2014 00:00am","pH","7.5",""
"N32/0108","132073202","03-Sep 2014 00:00am","pH (Field)","7.50",""
"N32/0108","132073202","03-Sep 2014 00:00am","Potassium, Dissolved","0.870","mg/L"
"N32/0108","132073202","03-Sep 2014 00:00am","Silica, Reactive","8.000","mg/L  as SiO2"
"N32/0108","132073202","03-Sep 2014 00:00am","Sodium, Dissolved","5.000","mg/L"
"N32/0108","132073202","03-Sep 2014 00:00am","Sulphate","8.500","mg/L"
"N32/0108","132073202","03-Sep 2014 00:00am","Sum of anions","1.110","meq/L"
"N32/0108","132073202","03-Sep 2014 00:00am","Sum of cations","1.170","meq/L"
"N32/0108","132073202","03-Sep 2014 00:00am","Total Coliforms","<1.00","number/100mL"
"N32/0108","132073202","03-Sep 2014 00:00am","Total Dissolved Phosphorus","0.007","mg/L"
"N32/0108","132073202","03-Sep 2014 00:00am","Total Dissolved Phosphorus Digestion","*",""
"N32/0108","132073202","03-Sep 2014 00:00am","Water Temperature (Field)","13.2","C"
"N32/0108","117575101","04-Sep 2013 10:30am","Alkalinity, Total","47.0","g/m3 as CaCO3"
"N32/0108","117575101","04-Sep 2013 10:30am","Ammoniacal Nitrogen","<0.010","mg/L"
"N32/0108","117575101","04-Sep 2013 10:30am","Bicarbonate","57.000","mg/L  at 25°C"
"N32/0108","117575101","04-Sep 2013 10:30am","Calcium, Dissolved","17.700","mg/L"
"N32/0108","117575101","04-Sep 2013 10:30am","Chloride","3.800","mg/L"
"N32/0108","117575101","04-Sep 2013 10:30am","Conductivity","12.9","mS/m"
"N32/0108","117575101","04-Sep 2013 10:30am","Conductivity (Field)","12.70","mS/m"
"N32/0108","117575101","04-Sep 2013 10:30am","Difference in Ion Balance","0.150","%"
"N32/0108","117575101","04-Sep 2013 10:30am","Dissolved Oxygen","8.300","mg/L"
"N32/0108","117575101","04-Sep 2013 10:30am","Dissolved Oxygen Saturation","79.000","%"
"N32/0108","117575101","04-Sep 2013 10:30am","E. coli","<1","MPN/100mL"
"N32/0108","117575101","04-Sep 2013 10:30am","Hardness, Total","53.000","g/m3 as CaCO3"
"N32/0108","117575101","04-Sep 2013 10:30am","Iron, Dissolved","<0.020","mg/L"
"N32/0108","117575101","04-Sep 2013 10:30am","Magnesium, Dissolved","2.100","mg/L"
"N32/0108","117575101","04-Sep 2013 10:30am","Manganese, Dissolved","0.0020","mg/L"
"N32/0108","117575101","04-Sep 2013 10:30am","Nitrate Nitrogen","0.400","mg/L"
"N32/0108","117575101","04-Sep 2013 10:30am","pH","7.5",""
"N32/0108","117575101","04-Sep 2013 10:30am","pH (Field)","7.10",""
"N32/0108","117575101","04-Sep 2013 10:30am","Potassium, Dissolved","0.860","mg/L"
"N32/0108","117575101","04-Sep 2013 10:30am","Silica, Reactive","7.800","mg/L  as SiO2"
"N32/0108","117575101","04-Sep 2013 10:30am","Sodium, Dissolved","5.100","mg/L"
"N32/0108","117575101","04-Sep 2013 10:30am","Sulphate","11.400","mg/L"
"N32/0108","117575101","04-Sep 2013 10:30am","Sum of anions","1.310","meq/L"
"N32/0108","117575101","04-Sep 2013 10:30am","Sum of cations","1.300","meq/L"
"N32/0108","117575101","04-Sep 2013 10:30am","Total Coliforms","<1.00","number/100mL"
"N32/0108","117575101","04-Sep 2013 10:30am","Water Temperature (Field)","13.1","C"
"N32/0108","1204301","05-Sep 2012 10:05am","Alkalinity to pH 4.5 as HCO3","57.000","mg/L  as HCO3"
"N32/0108","1204301","05-Sep 2012 10:05am","Ammoniacal Nitrogen","0.005","mg/L"
"N32/0108","1204301","05-Sep 2012 10:05am","Boron, Dissolved","0.043","mg/L"
"N32/0108","1204301","05-Sep 2012 10:05am","Cadmium, Dissolved","<0.000050","mg/L"
"N32/0108","1204301","05-Sep 2012 10:05am","Calcium, Dissolved","25.800","mg/L"
"N32/0108","1204301","05-Sep 2012 10:05am","Chloride","3.500","mg/L"
"N32/0108","1204301","05-Sep 2012 10:05am","Conductivity","12.0","mS/m"
"N32/0108","1204301","05-Sep 2012 10:05am","Conductivity (Field)","12.40","mS/m"
"N32/0108","1204301","05-Sep 2012 10:05am","Difference in Ion Balance","16.000","%"
"N32/0108","1204301","05-Sep 2012 10:05am","Dissolved Oxygen","8.600","mg/L"
"N32/0108","1204301","05-Sep 2012 10:05am","Dissolved Oxygen Saturation","82.000","%"
"N32/0108","1204301","05-Sep 2012 10:05am","E. coli","<1","MPN/100mL"
"N32/0108","1204301","05-Sep 2012 10:05am","Hardness, Total","74.000","g/m3 as CaCO3"
"N32/0108","1204301","05-Sep 2012 10:05am","Iron, Dissolved","<0.020","mg/L"
"N32/0108","1204301","05-Sep 2012 10:05am","Magnesium, Dissolved","2.320","mg/L"
"N32/0108","1204301","05-Sep 2012 10:05am","Manganese, Dissolved","0.0017","mg/L"
"N32/0108","1204301","05-Sep 2012 10:05am","Nitrate Nitrogen","0.600","mg/L"
"N32/0108","1204301","05-Sep 2012 10:05am","pH","7.6",""
"N32/0108","1204301","05-Sep 2012 10:05am","pH (Field)","7.20",""
"N32/0108","1204301","05-Sep 2012 10:05am","Potassium, Dissolved","0.925","mg/L"
"N32/0108","1204301","05-Sep 2012 10:05am","Silica, Reactive","7.700","mg/L  as SiO2"
"N32/0108","1204301","05-Sep 2012 10:05am","Sodium, Dissolved","6.280","mg/L"
"N32/0108","1204301","05-Sep 2012 10:05am","Sulphate","9.500","mg/L"
"N32/0108","1204301","05-Sep 2012 10:05am","Sum of anions","1.274","meq/L"
"N32/0108","1204301","05-Sep 2012 10:05am","Sum of cations","1.775","meq/L"
"N32/0108","1204301","05-Sep 2012 10:05am","Total Coliforms","<1.00","number/100mL"
"N32/0108","1204301","05-Sep 2012 10:05am","Water Temperature (Field)","11.6","C"
"N32/0108","1204300","05-Sep 2012 10:00am","Alkalinity to pH 4.5 as HCO3","58.000","mg/L  as HCO3"
"N32/0108","1204300","05-Sep 2012 10:00am","Ammoniacal Nitrogen","0.008","mg/L"
"N32/0108","1204300","05-Sep 2012 10:00am","Boron, Dissolved","0.044","mg/L"
"N32/0108","1204300","05-Sep 2012 10:00am","Cadmium, Dissolved","<0.000050","mg/L"
"N32/0108","1204300","05-Sep 2012 10:00am","Calcium, Dissolved","27.500","mg/L"
"N32/0108","1204300","05-Sep 2012 10:00am","Chloride","3.600","mg/L"
"N32/0108","1204300","05-Sep 2012 10:00am","Conductivity","12.0","mS/m"
"N32/0108","1204300","05-Sep 2012 10:00am","Conductivity (Field)","12.40","mS/m"
"N32/0108","1204300","05-Sep 2012 10:00am","Difference in Ion Balance","18.000","%"
"N32/0108","1204300","05-Sep 2012 10:00am","Dissolved Oxygen","8.600","mg/L"
"N32/0108","1204300","05-Sep 2012 10:00am","Dissolved Oxygen Saturation","82.000","%"
"N32/0108","1204300","05-Sep 2012 10:00am","E. coli","<1","MPN/100mL"
"N32/0108","1204300","05-Sep 2012 10:00am","Hardness, Total","78.000","g/m3 as CaCO3"
"N32/0108","1204300","05-Sep 2012 10:00am","Iron, Dissolved","<0.020","mg/L"
"N32/0108","1204300","05-Sep 2012 10:00am","Magnesium, Dissolved","2.340","mg/L"
"N32/0108","1204300","05-Sep 2012 10:00am","Manganese, Dissolved","0.0019","mg/L"
"N32/0108","1204300","05-Sep 2012 10:00am","Nitrate Nitrogen","0.600","mg/L"
"N32/0108","1204300","05-Sep 2012 10:00am","pH","7.7",""
"N32/0108","1204300","05-Sep 2012 10:00am","pH (Field)","7.20",""
"N32/0108","1204300","05-Sep 2012 10:00am","Potassium, Dissolved","0.919","mg/L"
"N32/0108","1204300","05-Sep 2012 10:00am","Silica, Reactive","7.700","mg/L  as SiO2"
"N32/0108","1204300","05-Sep 2012 10:00am","Sodium, Dissolved","6.410","mg/L"
"N32/0108","1204300","05-Sep 2012 10:00am","Sulphate","9.700","mg/L"
"N32/0108","1204300","05-Sep 2012 10:00am","Sum of anions","1.297","meq/L"
"N32/0108","1204300","05-Sep 2012 10:00am","Sum of cations","1.868","meq/L"
"N32/0108","1204300","05-Sep 2012 10:00am","Total Coliforms","<1.00","number/100mL"
"N32/0108","1204300","05-Sep 2012 10:00am","Water Temperature (Field)","11.6","C"
"N32/0108","1105276","07-Sep 2011 11:15am","Alkalinity to pH 4.5 as HCO3","50.000","mg/L  as HCO3"
"N32/0108","1105276","07-Sep 2011 11:15am","Ammoniacal Nitrogen","<0.005","mg/L"
"N32/0108","1105276","07-Sep 2011 11:15am","Calcium, Dissolved","14.100","mg/L"
"N32/0108","1105276","07-Sep 2011 11:15am","Chloride","2.600","mg/L"
"N32/0108","1105276","07-Sep 2011 11:15am","Conductivity","10.0","mS/m"
"N32/0108","1105276","07-Sep 2011 11:15am","Conductivity (Field)","10.60","mS/m"
"N32/0108","1105276","07-Sep 2011 11:15am","Difference in Ion Balance","-1.600","%"
"N32/0108","1105276","07-Sep 2011 11:15am","Dissolved Oxygen","9.500","mg/L"
"N32/0108","1105276","07-Sep 2011 11:15am","Dissolved Oxygen Saturation","88.000","%"
"N32/0108","1105276","07-Sep 2011 11:15am","E. coli","<1","MPN/100mL"
"N32/0108","1105276","07-Sep 2011 11:15am","Hardness, Total","42.000","g/m3 as CaCO3"
"N32/0108","1105276","07-Sep 2011 11:15am","Iron, Dissolved","<0.020","mg/L"
"N32/0108","1105276","07-Sep 2011 11:15am","Magnesium, Dissolved","1.650","mg/L"
"N32/0108","1105276","07-Sep 2011 11:15am","Manganese, Dissolved","<0.0005","mg/L"
"N32/0108","1105276","07-Sep 2011 11:15am","Nitrate Nitrogen","0.200","mg/L"
"N32/0108","1105276","07-Sep 2011 11:15am","pH","7.7",""
"N32/0108","1105276","07-Sep 2011 11:15am","pH (Field)","6.90",""
"N32/0108","1105276","07-Sep 2011 11:15am","Potassium, Dissolved","0.740","mg/L"
"N32/0108","1105276","07-Sep 2011 11:15am","Silica, Reactive","7.500","mg/L  as SiO2"
"N32/0108","1105276","07-Sep 2011 11:15am","Sodium, Dissolved","4.000","mg/L"
"N32/0108","1105276","07-Sep 2011 11:15am","Sulphate","7.600","mg/L"
"N32/0108","1105276","07-Sep 2011 11:15am","Sum of anions","1.066","meq/L"
"N32/0108","1105276","07-Sep 2011 11:15am","Sum of cations","1.033","meq/L"
"N32/0108","1105276","07-Sep 2011 11:15am","Total Coliforms","<1.00","number/100mL"
"N32/0108","1105276","07-Sep 2011 11:15am","Water Temperature (Field)","12.0","C"
"N32/0108","1005361","14-Sep 2010 08:35am","Alkalinity to pH 4.5 as HCO3","57.000","mg/L  as HCO3"
"N32/0108","1005361","14-Sep 2010 08:35am","Ammoniacal Nitrogen","0.006","mg/L"
"N32/0108","1005361","14-Sep 2010 08:35am","Calcium, Dissolved","17.000","mg/L"
"N32/0108","1005361","14-Sep 2010 08:35am","Chloride","3.300","mg/L"
"N32/0108","1005361","14-Sep 2010 08:35am","Conductivity","13.0","mS/m"
"N32/0108","1005361","14-Sep 2010 08:35am","Conductivity (Field)","12.90","mS/m"
"N32/0108","1005361","14-Sep 2010 08:35am","Difference in Ion Balance","-0.520","%"
"N32/0108","1005361","14-Sep 2010 08:35am","Dissolved Oxygen","8.000","mg/L"
"N32/0108","1005361","14-Sep 2010 08:35am","Dissolved Oxygen Saturation","71.000","%"
"N32/0108","1005361","14-Sep 2010 08:35am","E. coli","<1","MPN/100mL"
"N32/0108","1005361","14-Sep 2010 08:35am","Hardness, Total","51.000","g/m3 as CaCO3"
"N32/0108","1005361","14-Sep 2010 08:35am","Iron, Dissolved","<0.030","mg/L"
"N32/0108","1005361","14-Sep 2010 08:35am","Magnesium, Dissolved","2.000","mg/L"
"N32/0108","1005361","14-Sep 2010 08:35am","Manganese, Dissolved","<0.0100","mg/L"
"N32/0108","1005361","14-Sep 2010 08:35am","Nitrate Nitrogen","0.400","mg/L"
"N32/0108","1005361","14-Sep 2010 08:35am","pH","7.6",""
"N32/0108","1005361","14-Sep 2010 08:35am","pH (Field)","6.30",""
"N32/0108","1005361","14-Sep 2010 08:35am","Potassium, Dissolved","0.600","mg/L"
"N32/0108","1005361","14-Sep 2010 08:35am","Silica, Reactive","7.900","mg/L  as SiO2"
"N32/0108","1005361","14-Sep 2010 08:35am","Sodium, Dissolved","5.600","mg/L"
"N32/0108","1005361","14-Sep 2010 08:35am","Sulphate","11.000","mg/L"
"N32/0108","1005361","14-Sep 2010 08:35am","Sum of anions","1.285","meq/L"
"N32/0108","1005361","14-Sep 2010 08:35am","Sum of cations","1.272","meq/L"
"N32/0108","1005361","14-Sep 2010 08:35am","Total Coliforms","<1.00","number/100mL"
"N32/0108","1005361","14-Sep 2010 08:35am","Water Temperature (Field)","10.0","C"
"N32/0108","1005360","14-Sep 2010 08:30am","Alkalinity to pH 4.5 as HCO3","57.000","mg/L  as HCO3"
"N32/0108","1005360","14-Sep 2010 08:30am","Ammoniacal Nitrogen","0.005","mg/L"
"N32/0108","1005360","14-Sep 2010 08:30am","Calcium, Dissolved","17.000","mg/L"
"N32/0108","1005360","14-Sep 2010 08:30am","Chloride","3.300","mg/L"
"N32/0108","1005360","14-Sep 2010 08:30am","Conductivity","13.0","mS/m"
"N32/0108","1005360","14-Sep 2010 08:30am","Conductivity (Field)","12.90","mS/m"
"N32/0108","1005360","14-Sep 2010 08:30am","Difference in Ion Balance","0.290","%"
"N32/0108","1005360","14-Sep 2010 08:30am","Dissolved Oxygen","8.000","mg/L"
"N32/0108","1005360","14-Sep 2010 08:30am","Dissolved Oxygen Saturation","71.000","%"
"N32/0108","1005360","14-Sep 2010 08:30am","E. coli","1","MPN/100mL"
"N32/0108","1005360","14-Sep 2010 08:30am","Hardness, Total","51.000","g/m3 as CaCO3"
"N32/0108","1005360","14-Sep 2010 08:30am","Iron, Dissolved","<0.030","mg/L"
"N32/0108","1005360","14-Sep 2010 08:30am","Magnesium, Dissolved","2.000","mg/L"
"N32/0108","1005360","14-Sep 2010 08:30am","Manganese, Dissolved","<0.0100","mg/L"
"N32/0108","1005360","14-Sep 2010 08:30am","Nitrate Nitrogen","0.400","mg/L"
"N32/0108","1005360","14-Sep 2010 08:30am","pH","7.6",""
"N32/0108","1005360","14-Sep 2010 08:30am","pH (Field)","6.30",""
"N32/0108","1005360","14-Sep 2010 08:30am","Potassium, Dissolved","0.600","mg/L"
"N32/0108","1005360","14-Sep 2010 08:30am","Silica, Reactive","7.800","mg/L  as SiO2"
"N32/0108","1005360","14-Sep 2010 08:30am","Sodium, Dissolved","5.600","mg/L"
"N32/0108","1005360","14-Sep 2010 08:30am","Sulphate","10.000","mg/L"
"N32/0108","1005360","14-Sep 2010 08:30am","Sum of anions","1.264","meq/L"
"N32/0108","1005360","14-Sep 2010 08:30am","Sum of cations","1.272","meq/L"
"N32/0108","1005360","14-Sep 2010 08:30am","Total Coliforms","3.00","number/100mL"
"N32/0108","1005360","14-Sep 2010 08:30am","Water Temperature (Field)","10.0","C"
"N32/0108","2905582","25-Sep 2009 10:30am","Alkalinity to pH 4.5 as HCO3","44.000","mg/L  as HCO3"
"N32/0108","2905582","25-Sep 2009 10:30am","Ammoniacal Nitrogen","0.010","mg/L"
"N32/0108","2905582","25-Sep 2009 10:30am","Calcium, Dissolved","11.000","mg/L"
"N32/0108","2905582","25-Sep 2009 10:30am","Chloride","1.700","mg/L"
"N32/0108","2905582","25-Sep 2009 10:30am","Conductivity","8.5","mS/m"
"N32/0108","2905582","25-Sep 2009 10:30am","Conductivity (Field)","8.60","mS/m"
"N32/0108","2905582","25-Sep 2009 10:30am","Difference in Ion Balance","-4.200","%"
"N32/0108","2905582","25-Sep 2009 10:30am","Dissolved Oxygen","9.400","mg/L"
"N32/0108","2905582","25-Sep 2009 10:30am","Dissolved Oxygen Saturation","82.000","%"
"N32/0108","2905582","25-Sep 2009 10:30am","E. coli","<1","MPN/100mL"
"N32/0108","2905582","25-Sep 2009 10:30am","Hardness, Total","33.000","g/m3 as CaCO3"
"N32/0108","2905582","25-Sep 2009 10:30am","Iron, Dissolved","<0.030","mg/L"
"N32/0108","2905582","25-Sep 2009 10:30am","Magnesium, Dissolved","1.400","mg/L"
"N32/0108","2905582","25-Sep 2009 10:30am","Manganese, Dissolved","<0.0100","mg/L"
"N32/0108","2905582","25-Sep 2009 10:30am","Nitrate Nitrogen","0.300","mg/L"
"N32/0108","2905582","25-Sep 2009 10:30am","pH","7.5",""
"N32/0108","2905582","25-Sep 2009 10:30am","pH (Field)","6.90",""
"N32/0108","2905582","25-Sep 2009 10:30am","Potassium, Dissolved","0.600","mg/L"
"N32/0108","2905582","25-Sep 2009 10:30am","Silica, Reactive","7.200","mg/L  as SiO2"
"N32/0108","2905582","25-Sep 2009 10:30am","Sodium, Dissolved","3.500","mg/L"
"N32/0108","2905582","25-Sep 2009 10:30am","Sulphate","5.500","mg/L"
"N32/0108","2905582","25-Sep 2009 10:30am","Sum of anions","0.905","meq/L"
"N32/0108","2905582","25-Sep 2009 10:30am","Sum of cations","0.833","meq/L"
"N32/0108","2905582","25-Sep 2009 10:30am","Total Coliforms","<1.00","number/100mL"
"N32/0108","2905582","25-Sep 2009 10:30am","Water Temperature (Field)","9.60","C"
"N32/0108","2806273","03-Sep 2008 10:00am","Alkalinity to pH 4.5 as HCO3","51.000","mg/L  as HCO3"
"N32/0108","2806273","03-Sep 2008 10:00am","Ammoniacal Nitrogen","0.034","mg/L"
"N32/0108","2806273","03-Sep 2008 10:00am","Calcium, Dissolved","16.000","mg/L"
"N32/0108","2806273","03-Sep 2008 10:00am","Chloride","3.300","mg/L"
"N32/0108","2806273","03-Sep 2008 10:00am","Conductivity","13.0","mS/m"
"N32/0108","2806273","03-Sep 2008 10:00am","Conductivity (Field)","13.80","mS/m"
"N32/0108","2806273","03-Sep 2008 10:00am","Difference in Ion Balance","-0.410","%"
"N32/0108","2806273","03-Sep 2008 10:00am","Dissolved Oxygen","10.100","mg/L"
"N32/0108","2806273","03-Sep 2008 10:00am","Dissolved Oxygen Saturation","88.000","%"
"N32/0108","2806273","03-Sep 2008 10:00am","Dissolved Reactive Phosphorus","0.0060","mg/L"
"N32/0108","2806273","03-Sep 2008 10:00am","E. coli","2","MPN/100mL"
"N32/0108","2806273","03-Sep 2008 10:00am","Hardness, Total","49.000","g/m3 as CaCO3"
"N32/0108","2806273","03-Sep 2008 10:00am","Iron, Dissolved","<0.030","mg/L"
"N32/0108","2806273","03-Sep 2008 10:00am","Magnesium, Dissolved","2.200","mg/L"
"N32/0108","2806273","03-Sep 2008 10:00am","Manganese, Dissolved","<0.0100","mg/L"
"N32/0108","2806273","03-Sep 2008 10:00am","Nitrate Nitrogen","0.800","mg/L"
"N32/0108","2806273","03-Sep 2008 10:00am","Oxygen 18","-9.900",""
"N32/0108","2806273","03-Sep 2008 10:00am","pH","7.4",""
"N32/0108","2806273","03-Sep 2008 10:00am","pH (Field)","7.10",""
"N32/0108","2806273","03-Sep 2008 10:00am","Potassium, Dissolved","0.700","mg/L"
"N32/0108","2806273","03-Sep 2008 10:00am","Silica, Reactive","7.800","mg/L  as SiO2"
"N32/0108","2806273","03-Sep 2008 10:00am","Sodium, Dissolved","5.200","mg/L"
"N32/0108","2806273","03-Sep 2008 10:00am","Sulphate","12.000","mg/L"
"N32/0108","2806273","03-Sep 2008 10:00am","Sum of anions","1.236","meq/L"
"N32/0108","2806273","03-Sep 2008 10:00am","Sum of cations","1.226","meq/L"
"N32/0108","2806273","03-Sep 2008 10:00am","Total Coliforms","13.0","number/100mL"
"N32/0108","2806273","03-Sep 2008 10:00am","Water Temperature (Field)","9.50","C"
"N32/0108","2705850","10-Sep 2007 10:00am","Alkalinity to pH 4.5 as HCO3","43.000","mg/L  as HCO3"
"N32/0108","2705850","10-Sep 2007 10:00am","Ammoniacal Nitrogen","0.005","mg/L"
"N32/0108","2705850","10-Sep 2007 10:00am","Calcium, Dissolved","11.000","mg/L"
"N32/0108","2705850","10-Sep 2007 10:00am","Chloride","1.500","mg/L"
"N32/0108","2705850","10-Sep 2007 10:00am","Conductivity","8.0","mS/m"
"N32/0108","2705850","10-Sep 2007 10:00am","Conductivity (Field)","8.40","mS/m"
"N32/0108","2705850","10-Sep 2007 10:00am","Difference in Ion Balance","-2.500","%"
"N32/0108","2705850","10-Sep 2007 10:00am","Dissolved Oxygen","9.300","mg/L"
"N32/0108","2705850","10-Sep 2007 10:00am","Dissolved Oxygen Saturation","88.000","%"
"N32/0108","2705850","10-Sep 2007 10:00am","Dissolved Reactive Phosphorus","0.0060","mg/L"
"N32/0108","2705850","10-Sep 2007 10:00am","E. coli","<1","MPN/100mL"
"N32/0108","2705850","10-Sep 2007 10:00am","Hardness, Total","33.000","g/m3 as CaCO3"
"N32/0108","2705850","10-Sep 2007 10:00am","Iron, Dissolved","<0.030","mg/L"
"N32/0108","2705850","10-Sep 2007 10:00am","Magnesium, Dissolved","1.400","mg/L"
"N32/0108","2705850","10-Sep 2007 10:00am","Manganese, Dissolved","<0.0100","mg/L"
"N32/0108","2705850","10-Sep 2007 10:00am","Nitrate Nitrogen","0.200","mg/L"
"N32/0108","2705850","10-Sep 2007 10:00am","pH","7.4",""
"N32/0108","2705850","10-Sep 2007 10:00am","pH (Field)","7.10",""
"N32/0108","2705850","10-Sep 2007 10:00am","Potassium, Dissolved","0.500","mg/L"
"N32/0108","2705850","10-Sep 2007 10:00am","Silica, Reactive","6.800","mg/L  as SiO2"
"N32/0108","2705850","10-Sep 2007 10:00am","Sodium, Dissolved","3.500","mg/L"
"N32/0108","2705850","10-Sep 2007 10:00am","Sulphate","5.300","mg/L"
"N32/0108","2705850","10-Sep 2007 10:00am","Sum of anions","0.872","meq/L"
"N32/0108","2705850","10-Sep 2007 10:00am","Sum of cations","0.830","meq/L"
"N32/0108","2705850","10-Sep 2007 10:00am","Total Coliforms","<1.00","number/100mL"
"N32/0108","2705850","10-Sep 2007 10:00am","Water Temperature (Field)","9.50","C"
"N32/0108","2605773","12-Sep 2006 11:45am","Alkalinity to pH 4.5 as HCO3","46.000","mg/L  as HCO3"
"N32/0108","2605773","12-Sep 2006 11:45am","Ammoniacal Nitrogen","0.006","mg/L"
"N32/0108","2605773","12-Sep 2006 11:45am","Calcium, Dissolved","12.000","mg/L"
"N32/0108","2605773","12-Sep 2006 11:45am","Chloride","1.700","mg/L"
"N32/0108","2605773","12-Sep 2006 11:45am","Conductivity","9.0","mS/m"
"N32/0108","2605773","12-Sep 2006 11:45am","Conductivity (Field)","9.40","mS/m"
"N32/0108","2605773","12-Sep 2006 11:45am","Difference in Ion Balance","-1.100","%"
"N32/0108","2605773","12-Sep 2006 11:45am","Dissolved Oxygen","6.300","mg/L"
"N32/0108","2605773","12-Sep 2006 11:45am","Dissolved Oxygen Saturation","73.500","%"
"N32/0108","2605773","12-Sep 2006 11:45am","E. coli","<1","MPN/100mL"
"N32/0108","2605773","12-Sep 2006 11:45am","Hardness, Total","36.000","g/m3 as CaCO3"
"N32/0108","2605773","12-Sep 2006 11:45am","Iron, Dissolved","<0.030","mg/L"
"N32/0108","2605773","12-Sep 2006 11:45am","Magnesium, Dissolved","1.500","mg/L"
"N32/0108","2605773","12-Sep 2006 11:45am","Manganese, Dissolved","<0.0100","mg/L"
"N32/0108","2605773","12-Sep 2006 11:45am","Nitrate Nitrogen","0.200","mg/L"
"N32/0108","2605773","12-Sep 2006 11:45am","pH","7.3",""
"N32/0108","2605773","12-Sep 2006 11:45am","pH (Field)","7.40",""
"N32/0108","2605773","12-Sep 2006 11:45am","Potassium, Dissolved","0.700","mg/L"
"N32/0108","2605773","12-Sep 2006 11:45am","Silica, Reactive","7.600","mg/L  as SiO2"
"N32/0108","2605773","12-Sep 2006 11:45am","Sodium, Dissolved","4.000","mg/L"
"N32/0108","2605773","12-Sep 2006 11:45am","Sulphate","5.700","mg/L"
"N32/0108","2605773","12-Sep 2006 11:45am","Sum of anions","0.935","meq/L"
"N32/0108","2605773","12-Sep 2006 11:45am","Sum of cations","0.915","meq/L"
"N32/0108","2605773","12-Sep 2006 11:45am","Total Coliforms","<1.00","number/100mL"
"N32/0108","2605773","12-Sep 2006 11:45am","Water Temperature (Field)","12.9","C"
"N32/0108","2506810","08-Sep 2005 09:45am","Alkalinity to pH 4.5 as HCO3","48.000","mg/L  as HCO3"
"N32/0108","2506810","08-Sep 2005 09:45am","Ammoniacal Nitrogen","0.024","mg/L"
"N32/0108","2506810","08-Sep 2005 09:45am","Calcium, Dissolved","12.000","mg/L"
"N32/0108","2506810","08-Sep 2005 09:45am","Chloride","1.800","mg/L"
"N32/0108","2506810","08-Sep 2005 09:45am","Conductivity","9.0","mS/m"
"N32/0108","2506810","08-Sep 2005 09:45am","Conductivity (Field)","19.00","mS/m"
"N32/0108","2506810","08-Sep 2005 09:45am","Difference in Ion Balance","-3.600","%"
"N32/0108","2506810","08-Sep 2005 09:45am","E. coli","<1","MPN/100mL"
"N32/0108","2506810","08-Sep 2005 09:45am","Hardness, Total","37.000","g/m3 as CaCO3"
"N32/0108","2506810","08-Sep 2005 09:45am","Iron, Dissolved","<0.030","mg/L"
"N32/0108","2506810","08-Sep 2005 09:45am","Magnesium, Dissolved","1.600","mg/L"
"N32/0108","2506810","08-Sep 2005 09:45am","Manganese, Dissolved","<0.0100","mg/L"
"N32/0108","2506810","08-Sep 2005 09:45am","Nitrate Nitrogen","0.200","mg/L"
"N32/0108","2506810","08-Sep 2005 09:45am","pH","7.5",""
"N32/0108","2506810","08-Sep 2005 09:45am","pH (Field)","7.10",""
"N32/0108","2506810","08-Sep 2005 09:45am","Potassium, Dissolved","0.600","mg/L"
"N32/0108","2506810","08-Sep 2005 09:45am","Silica, Reactive","7.700","mg/L  as SiO2"
"N32/0108","2506810","08-Sep 2005 09:45am","Sodium, Dissolved","3.900","mg/L"
"N32/0108","2506810","08-Sep 2005 09:45am","Sulphate","6.400","mg/L"
"N32/0108","2506810","08-Sep 2005 09:45am","Sum of anions","0.985","meq/L"
"N32/0108","2506810","08-Sep 2005 09:45am","Sum of cations","0.917","meq/L"
"N32/0108","2506810","08-Sep 2005 09:45am","Total Coliforms","<1.00","number/100mL"
"N32/0108","2506810","08-Sep 2005 09:45am","Water Temperature (Field)","11.1","C"
"N32/0108","2406569","09-Sep 2004 09:15am","Alkalinity to pH 4.5 as HCO3","45.000","mg/L  as HCO3"
"N32/0108","2406569","09-Sep 2004 09:15am","Ammoniacal Nitrogen","<0.005","mg/L"
"N32/0108","2406569","09-Sep 2004 09:15am","Calcium, Dissolved","11.000","mg/L"
"N32/0108","2406569","09-Sep 2004 09:15am","Chloride","1.900","mg/L"
"N32/0108","2406569","09-Sep 2004 09:15am","Conductivity","15.0","mS/m"
"N32/0108","2406569","09-Sep 2004 09:15am","Conductivity (Field)","9.20","mS/m"
"N32/0108","2406569","09-Sep 2004 09:15am","Difference in Ion Balance","-3.800","%"
"N32/0108","2406569","09-Sep 2004 09:15am","Dissolved Oxygen","10.600","mg/L"
"N32/0108","2406569","09-Sep 2004 09:15am","Dissolved Oxygen Saturation","99.200","%"
"N32/0108","2406569","09-Sep 2004 09:15am","E. coli","<1","MPN/100mL"
"N32/0108","2406569","09-Sep 2004 09:15am","Hardness, Total","34.000","g/m3 as CaCO3"
"N32/0108","2406569","09-Sep 2004 09:15am","Iron, Dissolved","0.070","mg/L"
"N32/0108","2406569","09-Sep 2004 09:15am","Magnesium, Dissolved","1.600","mg/L"
"N32/0108","2406569","09-Sep 2004 09:15am","Manganese, Dissolved","<0.0100","mg/L"
"N32/0108","2406569","09-Sep 2004 09:15am","Nitrate Nitrogen","0.200","mg/L"
"N32/0108","2406569","09-Sep 2004 09:15am","pH","7.2",""
"N32/0108","2406569","09-Sep 2004 09:15am","pH (Field)","6.60",""
"N32/0108","2406569","09-Sep 2004 09:15am","Potassium, Dissolved","0.600","mg/L"
"N32/0108","2406569","09-Sep 2004 09:15am","Silica, Reactive","7.300","mg/L  as SiO2"
"N32/0108","2406569","09-Sep 2004 09:15am","Sodium, Dissolved","3.800","mg/L"
"N32/0108","2406569","09-Sep 2004 09:15am","Sulphate","6.000","mg/L"
"N32/0108","2406569","09-Sep 2004 09:15am","Sum of anions","0.931","meq/L"
"N32/0108","2406569","09-Sep 2004 09:15am","Sum of cations","0.863","meq/L"
"N32/0108","2406569","09-Sep 2004 09:15am","Total Coliforms","3.00","number/100mL"
"N32/0108","2406569","09-Sep 2004 09:15am","Water Temperature (Field)","12.4","C"
"N32/0108","2305792","09-Sep 2003 08:50am","Alkalinity to pH 4.5 as HCO3","48.000","mg/L  as HCO3"
"N32/0108","2305792","09-Sep 2003 08:50am","Ammoniacal Nitrogen","<0.005","mg/L"
"N32/0108","2305792","09-Sep 2003 08:50am","Calcium, Dissolved","14.000","mg/L"
"N32/0108","2305792","09-Sep 2003 08:50am","Chloride","2.400","mg/L"
"N32/0108","2305792","09-Sep 2003 08:50am","Conductivity","11.0","mS/m"
"N32/0108","2305792","09-Sep 2003 08:50am","Conductivity (Field)","10.70","mS/m"
"N32/0108","2305792","09-Sep 2003 08:50am","Difference in Ion Balance","0.140","%"
"N32/0108","2305792","09-Sep 2003 08:50am","Dissolved Oxygen","8.900","mg/L"
"N32/0108","2305792","09-Sep 2003 08:50am","Dissolved Oxygen Saturation","81.100","%"
"N32/0108","2305792","09-Sep 2003 08:50am","E. coli","<1","MPN/100mL"
"N32/0108","2305792","09-Sep 2003 08:50am","Hardness, Total","42.000","g/m3 as CaCO3"
"N32/0108","2305792","09-Sep 2003 08:50am","Iron, Dissolved","0.030","mg/L"
"N32/0108","2305792","09-Sep 2003 08:50am","Magnesium, Dissolved","1.700","mg/L"
"N32/0108","2305792","09-Sep 2003 08:50am","Manganese, Dissolved","<0.0100","mg/L"
"N32/0108","2305792","09-Sep 2003 08:50am","Nitrate Nitrogen","0.400","mg/L"
"N32/0108","2305792","09-Sep 2003 08:50am","pH","7.3",""
"N32/0108","2305792","09-Sep 2003 08:50am","pH (Field)","7.10",""
"N32/0108","2305792","09-Sep 2003 08:50am","Potassium, Dissolved","0.700","mg/L"
"N32/0108","2305792","09-Sep 2003 08:50am","Silica, Reactive","7.100","mg/L  as SiO2"
"N32/0108","2305792","09-Sep 2003 08:50am","Sodium, Dissolved","4.200","mg/L"
"N32/0108","2305792","09-Sep 2003 08:50am","Sulphate","7.400","mg/L"
"N32/0108","2305792","09-Sep 2003 08:50am","Sum of anions","1.037","meq/L"
"N32/0108","2305792","09-Sep 2003 08:50am","Sum of cations","1.040","meq/L"
"N32/0108","2305792","09-Sep 2003 08:50am","Total Coliforms","<1.00","number/100mL"
"N32/0108","2305792","09-Sep 2003 08:50am","Water Temperature (Field)","11.3","C"
"N32/0108","2205022","10-Sep 2002 14:15pm","Alkalinity to pH 4.5 as HCO3","44.000","mg/L  as HCO3"
"N32/0108","2205022","10-Sep 2002 14:15pm","Ammoniacal Nitrogen","<0.005","mg/L"
"N32/0108","2205022","10-Sep 2002 14:15pm","Calcium, Total","12.000","mg/L"
"N32/0108","2205022","10-Sep 2002 14:15pm","Chloride","1.600","mg/L"
"N32/0108","2205022","10-Sep 2002 14:15pm","Conductivity","9.0","mS/m"
"N32/0108","2205022","10-Sep 2002 14:15pm","Conductivity (Field)","8.90","mS/m"
"N32/0108","2205022","10-Sep 2002 14:15pm","Difference in Ion Balance","-0.500","%"
"N32/0108","2205022","10-Sep 2002 14:15pm","Dissolved Oxygen","9.800","mg/L"
"N32/0108","2205022","10-Sep 2002 14:15pm","Dissolved Oxygen Saturation","90.700","%"
"N32/0108","2205022","10-Sep 2002 14:15pm","E. coli","<1","MPN/100mL"
"N32/0108","2205022","10-Sep 2002 14:15pm","Hardness, Total","36.000","g/m3 as CaCO3"
"N32/0108","2205022","10-Sep 2002 14:15pm","Iron, Total","<0.030","mg/L"
"N32/0108","2205022","10-Sep 2002 14:15pm","Magnesium, Total","1.400","mg/L"
"N32/0108","2205022","10-Sep 2002 14:15pm","Manganese, Total","<0.01000","mg/L"
"N32/0108","2205022","10-Sep 2002 14:15pm","Nitrate Nitrogen","0.100","mg/L"
"N32/0108","2205022","10-Sep 2002 14:15pm","pH","7.3",""
"N32/0108","2205022","10-Sep 2002 14:15pm","pH (Field)","7.30",""
"N32/0108","2205022","10-Sep 2002 14:15pm","Potassium, Total","0.700","mg/L"
"N32/0108","2205022","10-Sep 2002 14:15pm","Silica, Reactive","7.800","mg/L  as SiO2"
"N32/0108","2205022","10-Sep 2002 14:15pm","Sodium, Total","3.600","mg/L"
"N32/0108","2205022","10-Sep 2002 14:15pm","Sulphate","5.900","mg/L"
"N32/0108","2205022","10-Sep 2002 14:15pm","Sum of anions","0.896","meq/L"
"N32/0108","2205022","10-Sep 2002 14:15pm","Sum of cations","0.888","meq/L"
"N32/0108","2205022","10-Sep 2002 14:15pm","Total Coliforms","<1.00","number/100mL"
"N32/0108","2205022","10-Sep 2002 14:15pm","Water Temperature (Field)","11.9","C"
"N32/0108","2007299","13-Sep 2000 09:15am","Alkalinity to pH 4.5 as HCO3","62.000","mg/L  as HCO3"
"N32/0108","2007299","13-Sep 2000 09:15am","Ammoniacal Nitrogen","<0.005","mg/L"
"N32/0108","2007299","13-Sep 2000 09:15am","Calcium, Total","18.000","mg/L"
"N32/0108","2007299","13-Sep 2000 09:15am","Chloride","4.900","mg/L"
"N32/0108","2007299","13-Sep 2000 09:15am","Conductivity","15.0","mS/m"
"N32/0108","2007299","13-Sep 2000 09:15am","Conductivity (Field)","14.70","mS/m"
"N32/0108","2007299","13-Sep 2000 09:15am","Difference in Ion Balance","-3.700","%"
"N32/0108","2007299","13-Sep 2000 09:15am","Dissolved Oxygen","9.300","mg/L"
"N32/0108","2007299","13-Sep 2000 09:15am","Dissolved Oxygen Saturation","93.000","%"
"N32/0108","2007299","13-Sep 2000 09:15am","E. coli","<1","MPN/100mL"
"N32/0108","2007299","13-Sep 2000 09:15am","Faecal Coliforms","1","cfu/100mL"
"N32/0108","2007299","13-Sep 2000 09:15am","Hardness, Total","54.000","g/m3 as CaCO3"
"N32/0108","2007299","13-Sep 2000 09:15am","Iron, Total","<0.120","mg/L"
"N32/0108","2007299","13-Sep 2000 09:15am","Magnesium, Total","2.300","mg/L"
"N32/0108","2007299","13-Sep 2000 09:15am","Manganese, Total","<0.04000","mg/L"
"N32/0108","2007299","13-Sep 2000 09:15am","Nitrate Nitrogen","0.500","mg/L"
"N32/0108","2007299","13-Sep 2000 09:15am","pH","7.3",""
"N32/0108","2007299","13-Sep 2000 09:15am","pH (Field)","7.30",""
"N32/0108","2007299","13-Sep 2000 09:15am","Potassium, Total","0.900","mg/L"
"N32/0108","2007299","13-Sep 2000 09:15am","Silica, Reactive","7.800","mg/L  as SiO2"
"N32/0108","2007299","13-Sep 2000 09:15am","Sodium, Total","6.000","mg/L"
"N32/0108","2007299","13-Sep 2000 09:15am","Sulphate","13.000","mg/L"
"N32/0108","2007299","13-Sep 2000 09:15am","Sum of anions","1.459","meq/L"
"N32/0108","2007299","13-Sep 2000 09:15am","Sum of cations","1.354","meq/L"
"N32/0108","2007299","13-Sep 2000 09:15am","Total Coliforms","9.00","number/100mL"
"N32/0108","2007299","13-Sep 2000 09:15am","Water Temperature (Field)","11.5","C"
"N32/0108","9903153","07-Dec 1999 12:30pm","Alkalinity to pH 4.5 as HCO3","55.000","mg/L  as HCO3"
"N32/0108","9903153","07-Dec 1999 12:30pm","Ammoniacal Nitrogen","0.006","mg/L"
"N32/0108","9903153","07-Dec 1999 12:30pm","Arsenic, Total","<0.0020","mg/L"
"N32/0108","9903153","07-Dec 1999 12:30pm","Calcium, Total","14.000","mg/L"
"N32/0108","9903153","07-Dec 1999 12:30pm","Chloride","2.100","mg/L"
"N32/0108","9903153","07-Dec 1999 12:30pm","Conductivity","12.0","mS/m"
"N32/0108","9903153","07-Dec 1999 12:30pm","Conductivity (Field)","8.70","mS/m"
"N32/0108","9903153","07-Dec 1999 12:30pm","Difference in Ion Balance","-3.700","%"
"N32/0108","9903153","07-Dec 1999 12:30pm","Dissolved Oxygen","6.500","mg/L"
"N32/0108","9903153","07-Dec 1999 12:30pm","Dissolved Oxygen Saturation","61.000","%"
"N32/0108","9903153","07-Dec 1999 12:30pm","E. coli","<1","MPN/100mL"
"N32/0108","9903153","07-Dec 1999 12:30pm","Faecal Coliforms","1","cfu/100mL"
"N32/0108","9903153","07-Dec 1999 12:30pm","Hardness, Total","42.000","g/m3 as CaCO3"
"N32/0108","9903153","07-Dec 1999 12:30pm","Iron, Total","<0.120","mg/L"
"N32/0108","9903153","07-Dec 1999 12:30pm","Magnesium, Total","1.800","mg/L"
"N32/0108","9903153","07-Dec 1999 12:30pm","Manganese, Total","<0.04000","mg/L"
"N32/0108","9903153","07-Dec 1999 12:30pm","Nitrate Nitrogen","0.200","mg/L"
"N32/0108","9903153","07-Dec 1999 12:30pm","pH","7.3",""
"N32/0108","9903153","07-Dec 1999 12:30pm","pH (Field)","7.20",""
"N32/0108","9903153","07-Dec 1999 12:30pm","Potassium, Total","0.740","mg/L"
"N32/0108","9903153","07-Dec 1999 12:30pm","Silica, Reactive","7.900","mg/L  as SiO2"
"N32/0108","9903153","07-Dec 1999 12:30pm","Sodium, Total","4.400","mg/L"
"N32/0108","9903153","07-Dec 1999 12:30pm","Sulphate","7.800","mg/L"
"N32/0108","9903153","07-Dec 1999 12:30pm","Sum of anions","1.137","meq/L"
"N32/0108","9903153","07-Dec 1999 12:30pm","Sum of cations","1.057","meq/L"
"N32/0108","9903153","07-Dec 1999 12:30pm","Total Coliforms","<1.00","number/100mL"
"N32/0108","9903153","07-Dec 1999 12:30pm","Water Temperature (Field)","12.2","C"
"N32/0108","CQ988824","21-Dec 1998 10:10am","Alkalinity to pH 4.5 as HCO3","43.000","mg/L  as HCO3"
"N32/0108","CQ988824","21-Dec 1998 10:10am","Ammoniacal Nitrogen","<0.005","mg/L"
"N32/0108","CQ988824","21-Dec 1998 10:10am","Calcium","11.000","mg/L"
"N32/0108","CQ988824","21-Dec 1998 10:10am","Chloride","1.200","mg/L"
"N32/0108","CQ988824","21-Dec 1998 10:10am","Conductivity","8.7","mS/m"
"N32/0108","CQ988824","21-Dec 1998 10:10am","Difference in Ion Balance","-2.000","%"
"N32/0108","CQ988824","21-Dec 1998 10:10am","Faecal Coliforms","<1","cfu/100mL"
"N32/0108","CQ988824","21-Dec 1998 10:10am","Hardness, Total","33.000","g/m3 as CaCO3"
"N32/0108","CQ988824","21-Dec 1998 10:10am","Iron, Total","<0.120","mg/L"
"N32/0108","CQ988824","21-Dec 1998 10:10am","Magnesium, Total","1.400","mg/L"
"N32/0108","CQ988824","21-Dec 1998 10:10am","Manganese, Total","<0.04000","mg/L"
"N32/0108","CQ988824","21-Dec 1998 10:10am","Nitrate Nitrogen","0.130","mg/L"
"N32/0108","CQ988824","21-Dec 1998 10:10am","pH","7.3",""
"N32/0108","CQ988824","21-Dec 1998 10:10am","Potassium, Total","0.350","mg/L"
"N32/0108","CQ988824","21-Dec 1998 10:10am","Silica, Reactive","7.800","mg/L  as SiO2"
"N32/0108","CQ988824","21-Dec 1998 10:10am","Sodium, Total","3.300","mg/L"
"N32/0108","CQ988824","21-Dec 1998 10:10am","Sulphate","4.900","mg/L"
"N32/0108","CQ988824","21-Dec 1998 10:10am","Sum of anions","0.850","meq/L"
"N32/0108","CQ988824","21-Dec 1998 10:10am","Sum of cations","0.817","meq/L"
"N32/0108","CQ988824","21-Dec 1998 10:10am","Total Coliforms","1.00","number/100mL"
"N32/0108","CQ972926","22-Oct 1997 12:50pm","Alkalinity to pH 4.5 as HCO3","47.000","mg/L  as HCO3"
"N32/0108","CQ972926","22-Oct 1997 12:50pm","Ammoniacal Nitrogen","<0.005","mg/L"
"N32/0108","CQ972926","22-Oct 1997 12:50pm","Calcium","12.000","mg/L"
"N32/0108","CQ972926","22-Oct 1997 12:50pm","Chloride","1.500","mg/L"
"N32/0108","CQ972926","22-Oct 1997 12:50pm","Conductivity","10.0","mS/m"
"N32/0108","CQ972926","22-Oct 1997 12:50pm","Difference in Ion Balance","-3.000","%"
"N32/0108","CQ972926","22-Oct 1997 12:50pm","Faecal Coliforms","<1","cfu/100mL"
"N32/0108","CQ972926","22-Oct 1997 12:50pm","Hardness, Total","36.000","g/m3 as CaCO3"
"N32/0108","CQ972926","22-Oct 1997 12:50pm","Iron, Total","<0.120","mg/L"
"N32/0108","CQ972926","22-Oct 1997 12:50pm","Magnesium, Total","1.400","mg/L"
"N32/0108","CQ972926","22-Oct 1997 12:50pm","Manganese, Total","<0.04000","mg/L"
"N32/0108","CQ972926","22-Oct 1997 12:50pm","Nitrate Nitrogen","0.140","mg/L"
"N32/0108","CQ972926","22-Oct 1997 12:50pm","pH","7.3",""
"N32/0108","CQ972926","22-Oct 1997 12:50pm","Potassium, Total","0.520","mg/L"
"N32/0108","CQ972926","22-Oct 1997 12:50pm","Silica, Reactive","7.800","mg/L  as SiO2"
"N32/0108","CQ972926","22-Oct 1997 12:50pm","Sodium, Total","3.800","mg/L"
"N32/0108","CQ972926","22-Oct 1997 12:50pm","Sulphate","5.800","mg/L"
"N32/0108","CQ972926","22-Oct 1997 12:50pm","Sum of anions","0.943","meq/L"
"N32/0108","CQ972926","22-Oct 1997 12:50pm","Sum of cations","0.893","meq/L"
"N32/0108","CQ972926","22-Oct 1997 12:50pm","Total Coliforms","<1.00","number/100mL"
"N32/0108","CQ961113","27-Nov 1996 08:30am","4,4'-DDD","<0.0100000","mg/L"
"N32/0108","CQ961113","27-Nov 1996 08:30am","4,4'-DDE","<0.0100000","mg/L"
"N32/0108","CQ961113","27-Nov 1996 08:30am","4,4'-DDT","<0.0100000","mg/L"
"N32/0108","CQ961113","27-Nov 1996 08:30am","Alachlor","<0.010000","mg/L"
"N32/0108","CQ961113","27-Nov 1996 08:30am","Aldrin","<0.0100000","mg/L"
"N32/0108","CQ961113","27-Nov 1996 08:30am","Alkalinity to pH 4.5 as HCO3","42.000","mg/L  as HCO3"
"N32/0108","CQ961113","27-Nov 1996 08:30am","Ammoniacal Nitrogen","0.008","mg/L"
"N32/0108","CQ961113","27-Nov 1996 08:30am","Atrazine","<0.010000","mg/L"
"N32/0108","CQ961113","27-Nov 1996 08:30am","Azinphos-methyl","<0.010000","mg/L"
"N32/0108","CQ961113","27-Nov 1996 08:30am","Bromacil","<0.020000","mg/L"
"N32/0108","CQ961113","27-Nov 1996 08:30am","Calcium","10.000","mg/L"
"N32/0108","CQ961113","27-Nov 1996 08:30am","Chloride","2.000","mg/L"
"N32/0108","CQ961113","27-Nov 1996 08:30am","Chlorpyrifos","<0.010000","mg/L"
"N32/0108","CQ961113","27-Nov 1996 08:30am","Conductivity","8.5","mS/m"
"N32/0108","CQ961113","27-Nov 1996 08:30am","Cyanazine","<0.020000","mg/L"
"N32/0108","CQ961113","27-Nov 1996 08:30am","Diazinon","<0.010000","mg/L"
"N32/0108","CQ961113","27-Nov 1996 08:30am","Dieldrin","<0.0100000","mg/L"
"N32/0108","CQ961113","27-Nov 1996 08:30am","Difference in Ion Balance","-6.900","%"
"N32/0108","CQ961113","27-Nov 1996 08:30am","Diuron","<0.030000","mg/L"
"N32/0108","CQ961113","27-Nov 1996 08:30am","Faecal Coliforms","<1","cfu/100mL"
"N32/0108","CQ961113","27-Nov 1996 08:30am","Hardness, Total","30.000","g/m3 as CaCO3"
"N32/0108","CQ961113","27-Nov 1996 08:30am","Hexazinone","<0.020000","mg/L"
"N32/0108","CQ961113","27-Nov 1996 08:30am","Iron, Total","0.350","mg/L"
"N32/0108","CQ961113","27-Nov 1996 08:30am","Lindane","<0.0100000","mg/L"
"N32/0108","CQ961113","27-Nov 1996 08:30am","Linuron","<0.020000","mg/L"
"N32/0108","CQ961113","27-Nov 1996 08:30am","Magnesium, Total","1.300","mg/L"
"N32/0108","CQ961113","27-Nov 1996 08:30am","Manganese, Total","<0.04000","mg/L"
"N32/0108","CQ961113","27-Nov 1996 08:30am","Metribuzin","<0.010000","mg/L"
"N32/0108","CQ961113","27-Nov 1996 08:30am","Nitrate-N Nitrite-N","0.140","g/m3"
"N32/0108","CQ961113","27-Nov 1996 08:30am","Oxidiazon","<0.020","ug/L"
"N32/0108","CQ961113","27-Nov 1996 08:30am","Oxyfluorfen","<0.020000","mg/L"
"N32/0108","CQ961113","27-Nov 1996 08:30am","Pendimethalin","<0.020000","mg/L"
"N32/0108","CQ961113","27-Nov 1996 08:30am","pH","7.4",""
"N32/0108","CQ961113","27-Nov 1996 08:30am","Phorate sulfoxide","<0.030","ug/L"
"N32/0108","CQ961113","27-Nov 1996 08:30am","Phorate sulphone","<0.030","ug/L"
"N32/0108","CQ961113","27-Nov 1996 08:30am","Pirimiphos-methyl","<0.010000","mg/L"
"N32/0108","CQ961113","27-Nov 1996 08:30am","Potassium, Total","1.100","mg/L"
"N32/0108","CQ961113","27-Nov 1996 08:30am","Procymidone","<0.010000","mg/L"
"N32/0108","CQ961113","27-Nov 1996 08:30am","Prometryn","<0.050000","mg/L"
"N32/0108","CQ961113","27-Nov 1996 08:30am","Simazine","<0.010000","mg/L"
"N32/0108","CQ961113","27-Nov 1996 08:30am","Sodium, Total","3.300","mg/L"
"N32/0108","CQ961113","27-Nov 1996 08:30am","Sulphate","6.500","mg/L"
"N32/0108","CQ961113","27-Nov 1996 08:30am","Sum of anions","0.890","meq/L"
"N32/0108","CQ961113","27-Nov 1996 08:30am","Sum of cations","0.778","meq/L"
"N32/0108","CQ961113","27-Nov 1996 08:30am","Terbuthylazine","<0.020000","mg/L"
"N32/0108","CQ961113","27-Nov 1996 08:30am","Total Coliforms","1.00","number/100mL"
"N32/0108","CQ961113","27-Nov 1996 08:30am","Vinclozolin","<0.020000","mg/L"
"N32/0108","CQ954641","14-Sep 1995 09:45am","Alkalinity to pH 4.5 as HCO3","62.000","mg/L  as HCO3"
"N32/0108","CQ954641","14-Sep 1995 09:45am","Ammoniacal Nitrogen","<0.005","mg/L"
"N32/0108","CQ954641","14-Sep 1995 09:45am","Calcium, Dissolved","20.000","mg/L"
"N32/0108","CQ954641","14-Sep 1995 09:45am","Chloride","5.000","mg/L"
"N32/0108","CQ954641","14-Sep 1995 09:45am","Conductivity","15.0","mS/m"
"N32/0108","CQ954641","14-Sep 1995 09:45am","Difference in Ion Balance","0.600","%"
"N32/0108","CQ954641","14-Sep 1995 09:45am","Faecal Coliforms","<1","cfu/100mL"
"N32/0108","CQ954641","14-Sep 1995 09:45am","Hardness, Total","60.000","g/m3 as CaCO3"
"N32/0108","CQ954641","14-Sep 1995 09:45am","Iron, Total","<0.120","mg/L"
"N32/0108","CQ954641","14-Sep 1995 09:45am","Magnesium, Dissolved","2.500","mg/L"
"N32/0108","CQ954641","14-Sep 1995 09:45am","Manganese, Total","<0.04000","mg/L"
"N32/0108","CQ954641","14-Sep 1995 09:45am","Nitrate-N Nitrite-N","0.470","g/m3"
"N32/0108","CQ954641","14-Sep 1995 09:45am","pH","7.3",""
"N32/0108","CQ954641","14-Sep 1995 09:45am","Potassium, Dissolved","0.940","mg/L"
"N32/0108","CQ954641","14-Sep 1995 09:45am","Sodium, Dissolved","5.900","mg/L"
"N32/0108","CQ954641","14-Sep 1995 09:45am","Sulphate","15.000","mg/L"
"N32/0108","CQ954641","14-Sep 1995 09:45am","Sum of anions","1.500","meq/L"
"N32/0108","CQ954641","14-Sep 1995 09:45am","Sum of cations","1.480","meq/L"
"N32/0108","CQ954641","14-Sep 1995 09:45am","Total Coliforms","1.00","number/100mL"
"N32/0108","CQ941750","23-Nov 1994 11:35am","Alkalinity to pH 4.5 as HCO3","50.000","mg/L  as HCO3"
"N32/0108","CQ941750","23-Nov 1994 11:35am","Ammoniacal Nitrogen","<0.005","mg/L"
"N32/0108","CQ941750","23-Nov 1994 11:35am","Calcium, Dissolved","13.000","mg/L"
"N32/0108","CQ941750","23-Nov 1994 11:35am","Chloride","2.000","mg/L"
"N32/0108","CQ941750","23-Nov 1994 11:35am","Conductivity","11.0","mS/m"
"N32/0108","CQ941750","23-Nov 1994 11:35am","Faecal Coliforms","3","cfu/100mL"
"N32/0108","CQ941750","23-Nov 1994 11:35am","Hardness, Total","41.000","g/m3 as CaCO3"
"N32/0108","CQ941750","23-Nov 1994 11:35am","Magnesium, Dissolved","1.800","mg/L"
"N32/0108","CQ941750","23-Nov 1994 11:35am","Nitrate Nitrogen","0.250","mg/L"
"N32/0108","CQ941750","23-Nov 1994 11:35am","pH","7.4",""
"N32/0108","CQ941750","23-Nov 1994 11:35am","Potassium, Dissolved","0.840","mg/L"
"N32/0108","CQ941750","23-Nov 1994 11:35am","Sodium, Dissolved","4.100","mg/L"
"N32/0108","CQ941750","23-Nov 1994 11:35am","Sulphate","6.000","mg/L"
"N32/0108","CQ941750","23-Nov 1994 11:35am","Total Coliforms","16.0","number/100mL"