Site ID,N34/0125
Site Name,Missing Name
Site ID,SampleID,Collection Date,Measurement,Value,Units
"N34/0125","2803140","23-Apr 2008 10:40am","Conductivity (Field)","27.90","mS/m"
"N34/0125","2803140","23-Apr 2008 10:40am","Deuterium","-57.300",""
"N34/0125","2803140","23-Apr 2008 10:40am","Dissolved Oxygen","9.040","mg/L"
"N34/0125","2803140","23-Apr 2008 10:40am","Dissolved Oxygen Saturation","85.400","%"
"N34/0125","2803140","23-Apr 2008 10:40am","Oxygen 18","-8.350",""
"N34/0125","2803140","23-Apr 2008 10:40am","pH (Field)","7.80",""
"N34/0125","2803140","23-Apr 2008 10:40am","Water Temperature (Field)","12.8","C"